"Path","Platform","Compiled","Cooked","Permutations","Compiletime","CompiledDouble","CookedDouble"
"/ControlRig/Controls/ControlRigGizmoMaterial.ControlRigGizmoMaterial","0","0","7","1","0.000000","0","0"
"/MeshModelingToolset/Materials/M_DynamicMeshComponentVtxColor.M_DynamicMeshComponentVtxColor","0","0","24","1","0.000000","0","0"
"/Engine/EngineMaterials/GizmoMaterial.GizmoMaterial","0","0","11","1","0.000000","0","0"
"/Engine/EngineMaterials/NaniteHiddenSectionMaterial.NaniteHiddenSectionMaterial","0","0","33","1","0.000000","0","0"
"/Engine/EngineDebugMaterials/DebugEditorMaterial.DebugEditorMaterial","0","0","11","1","0.000000","0","0"
"/Engine/EditorMaterials/PhAT_NoCollisionMaterial.PhAT_NoCollisionMaterial","0","0","6","1","0.000000","0","0"
"/Engine/EditorMaterials/PhAT_UnselectedMaterial.PhAT_UnselectedMaterial","0","0","6","1","0.000000","0","0"
"/Engine/EngineDebugMaterials/DebugMeshMaterial.DebugMeshMaterial","0","0","8","1","0.000000","0","0"
"/Engine/EngineMaterials/RemoveSurfaceMaterial.RemoveSurfaceMaterial","0","0","7","1","0.000000","0","0"
"/ControlRig/Controls/ControlRigXRayMaterial.ControlRigXRayMaterial","0","0","12","1","0.000000","0","0"
"/Engine/EditorLandscapeResources/SplineEditorMeshMat.SplineEditorMeshMat","0","0","20","1","0.000000","0","0"
"/Engine/EngineDebugMaterials/M_SimpleUnlitTranslucent.M_SimpleUnlitTranslucent","0","0","6","1","0.000000","0","0"
"/Engine/EditorMaterials/Camera/CineMat.CineMat","0","0","34","1","0.000000","0","0"
"/Engine/VREditor/TransformGizmo/Xray.Xray","0","0","18","1","0.000000","0","0"
"/Engine/EngineMaterials/DefaultLightFunctionMaterial.DefaultLightFunctionMaterial","0","0","40","1","0.000000","0","0"
"/Engine/VREditor/TransformGizmo/Main.Main","0","0","6","1","0.000000","0","0"
"/Engine/VREditor/TransformGizmo/TranslucentTransformGizmoMaterial.TranslucentTransformGizmoMaterial","0","0","6","1","0.000000","0","0"
"/Game/Widgets/01-HUD/Heroes/Textures/M_RingCountFont.M_RingCountFont","0","0","11","1","0.000000","0","0"
"/Niagara/DefaultAssets/DefaultSpriteMaterial.DefaultSpriteMaterial","0","0","44","1","0.000000","0","0"
"/Game/StarterContent/Particles/Materials/m_flare.m_flare","0","0","30","1","0.000000","0","0"
"/Engine/BasicShapes/BasicShapeMaterial.BasicShapeMaterial","0","0","88","1","0.000000","0","0"
"/Game/Particles/Materials/Nothing.Nothing","0","0","15","1","0.000000","0","0"
"/Game/StarterContent/Materials/M_Basic_Wall.M_Basic_Wall","0","0","30","1","0.000000","0","0"
"/Engine/EngineMaterials/FlattenMaterial_WS_Normal_VT.FlattenMaterial_WS_Normal_VT","0","0","42","1","0.000000","0","0"
"/Engine/EngineMaterials/EmissiveMeshMaterial.EmissiveMeshMaterial","0","0","8","1","0.000000","0","0"
"/ControlRig/M_Manip.M_Manip","0","0","12","1","0.000000","0","0"
"/Engine/EngineDebugMaterials/M_VolumeRenderSphereTracePP.M_VolumeRenderSphereTracePP","0","0","6","1","0.000000","0","0"
"/Engine/VREditor/TransformGizmo/TransformGizmoMaterial.TransformGizmoMaterial","0","0","7","1","0.000000","0","0"
"/Engine/EngineMaterials/DefaultPostProcessMaterial.DefaultPostProcessMaterial","0","0","8","1","0.000000","0","0"
"/Engine/EngineMaterials/DefaultDeferredDecalMaterial.DefaultDeferredDecalMaterial","0","0","102","1","0.000000","0","0"
"/Engine/EngineMaterials/PhAT_JointLimitMaterial.PhAT_JointLimitMaterial","0","0","12","1","0.000000","0","0"
"/Engine/EngineMaterials/FlattenMaterial_VT.FlattenMaterial_VT","0","0","42","1","0.000000","0","0"
"/Engine/EngineMaterials/FlattenMaterial.FlattenMaterial","0","0","42","1","0.000000","0","0"
"/Engine/EngineMaterials/M_InvalidLightmapSettings.M_InvalidLightmapSettings","0","0","36","1","0.000000","0","0"
"/Paper2D/DefaultSpriteMaterial.DefaultSpriteMaterial","0","0","62","2","0.000000","0","0"
"/Engine/EngineMaterials/Widget3DPassThrough.Widget3DPassThrough","0","0","76","6","0.000000","0","6"
"/Engine/EngineMaterials/WorldGridMaterial.WorldGridMaterial","0","0","740","1","0.000000","0","0"
"/Engine/EngineMaterials/DefaultTextMaterialOpaque.DefaultTextMaterialOpaque","0","0","35","1","0.000000","0","0"
"/Engine/EngineMaterials/DefaultMaterial.DefaultMaterial","0","0","159","1","0.000000","0","0"
"/Engine/EngineMaterials/PPM_DefaultCalibrationGrayscale.PPM_DefaultCalibrationGrayscale","0","0","6","1","0.000000","0","0"
"/Engine/EngineMaterials/PPM_DefaultCalibrationColor.PPM_DefaultCalibrationColor","0","0","6","1","0.000000","0","0"
"/Engine/EditorMaterials/PreviewShadowIndicatorMaterial.PreviewShadowIndicatorMaterial","0","0","40","1","0.000000","0","0"
"/Game/Particles/Materials/M_SpecialTrail.M_SpecialTrail","0","0","12","1","0.000000","0","0"
"/Game/Objects/Assets/WaterMaterial.WaterMaterial","0","0","60","1","0.000000","0","120"
"/Game/StarterContent/Particles/Materials/M_Burst.M_Burst","0","0","26","1","0.000000","0","0"
"/Game/StarterContent/Particles/Materials/M_radial_ramp.M_radial_ramp","0","0","21","1","0.000000","0","0"
"/Game/Particles/Materials/ef_w01_com_loop_wind01_MAT.ef_w01_com_loop_wind01_MAT","0","0","30","1","0.000000","0","0"
"/Game/Characters/Wisps/CE_Wisp/M_CrimsonRibbon.M_CrimsonRibbon","0","0","24","1","0.000000","0","0"
"/Game/Characters/TeamSonic/Sonic/Models/Sonic/sonic_gm_cloth.sonic_gm_cloth","0","0","45","1","0.000000","0","0"
"/Game/Characters/Sonic/Particles/M_InstaShield_Fresnel.M_InstaShield_Fresnel","0","0","57","1","0.000000","0","0"
"/Game/Characters/Sonic/Particles/M_InstaShield_Wind.M_InstaShield_Wind","0","0","57","1","0.000000","0","0"
"/Game/Characters/CH_Assets/Actors/Mesh/Boost/emt_ch_sng_yh1_boom.emt_ch_sng_yh1_boom","0","0","152","1","0.000000","0","0"
"/Game/Characters/CH_Assets/Actors/Mesh/Boost/M_Boost1.M_Boost1","0","0","127","1","0.000000","0","0"
"/Game/Particles/Materials/HomingTrailMAT.HomingTrailMAT","0","0","111","1","0.000000","0","0"
"/Game/Objects/Assets/Rings/RingMaterial.RingMaterial","0","0","57","1","0.000000","0","0"
"/Game/Characters/TeamSonic/Sonic/Models/Sonic/M_Fur.M_Fur","0","0","42","1","0.000000","0","0"
"/Game/Characters/TeamSonic/Sonic/Models/Sonic/sonic_gm_shoes_belt.sonic_gm_shoes_belt","0","0","45","1","0.000000","0","0"
"/Game/StarterContent/Props/Materials/M_Rock.M_Rock","0","0","45","1","0.000000","0","0"
"/Game/Particles/Materials/TBurst_Mat.TBurst_Mat","0","0","38","1","0.000000","0","0"
"/Game/Objects/Assets/Springs/AirSpring/Top/cmn_obj_springair_HD_wing.cmn_obj_springair_HD_wing","0","0","30","1","0.000000","0","0"
"/Game/Objects/Assets/Springs/AirSpring/Top/cmn_obj_springair_HD_cutter.cmn_obj_springair_HD_cutter","0","0","30","1","0.000000","0","0"
"/Game/Objects/Assets/Springs/AirSpring/Bottom/cmn_obj_springair_HD_lite.cmn_obj_springair_HD_lite","0","0","30","1","0.000000","0","0"
"/Game/Particles/Materials/EggLogo.EggLogo","0","0","31","1","0.000000","0","0"
"/Game/Objects/Assets/Springs/EggSpring/cmn_obj_springegg_HD_egg.cmn_obj_springegg_HD_egg","0","0","30","1","0.000000","0","0"
"/Game/StarterContent/Particles/Materials/M_smoke_subUV.M_smoke_subUV","0","0","80","1","0.000000","0","0"
"/Game/Particles/Materials/SpringLines.SpringLines","0","0","35","1","0.000000","0","0"
"/Game/Characters/CH_Assets/Actors/Mesh/M_SpinBall.M_SpinBall","0","0","62","1","0.000000","0","0"
"/Game/Characters/CH_Assets/Actors/Mesh/Jump/Textures/M_BallSpin_Outter.M_BallSpin_Outter","0","0","44","1","0.000000","0","0"
"/Game/Characters/Wisps/CL_Wisp/Assets/M_LaserParticle_01.M_LaserParticle_01","0","0","44","1","0.000000","0","0"
"/Game/Particles/Materials/ef_ch_sng_yh1_rayring_Mat.ef_ch_sng_yh1_rayring_Mat","0","0","88","1","0.000000","0","0"
"/Game/Objects/Assets/Springs/EggSpring/cmn_obj_springegg_HD_body.cmn_obj_springegg_HD_body","0","0","30","1","0.000000","0","0"
"/Game/Particles/Materials/stompmat1.stompmat1","0","0","35","1","0.000000","0","0"
"/Game/TexturesAndMaterials/2_Materials/M_Gens_Master.M_Gens_Master","0","0","119","1","0.000000","0","0"
"/Game/Particles/Materials/KickTrail.KickTrail","0","0","45","1","0.000000","0","0"
"/Game/Particles/Materials/NewMaterials/M_Fire.M_Fire","0","0","41","1","0.000000","0","0"
"/Game/Particles/Materials/NewMaterials/M_Fire_Cloudy.M_Fire_Cloudy","0","0","96","1","0.000000","0","0"
"/Game/Characters/CH_Assets/Actors/Mesh/Jump/Textures/M_BallSpin.M_BallSpin","0","0","62","1","0.000000","0","0"
"/Engine/EngineSky/VolumetricClouds/m_SimpleVolumetricCloud.m_SimpleVolumetricCloud","0","0","71","1","0.000000","0","0"
"/Game/Objects/Assets/Springs/Spring/M_SpringM.M_SpringM","0","0","30","1","0.000000","0","0"
"/Engine/VREditor/SnapGrid/SnapGridMaterial.SnapGridMaterial","0","0","16","1","0.000000","0","0"
"/Game/Objects/Assets/Springs/Spring/cmn_obj_springred_HD_star.cmn_obj_springred_HD_star","0","0","30","1","0.000000","0","0"
"/Game/Objects/Assets/Springs/Spring/cmn_obj_springred_HD_star1.cmn_obj_springred_HD_star1","0","0","30","1","0.000000","0","0"
"/Game/Objects/Assets/Springs/Spring/cmn_obj_springred_HD_body.cmn_obj_springred_HD_body","0","0","30","1","0.000000","0","0"
"/Game/Characters/CH_Assets/MasterMaterials/M_MasterEyeMaterial.M_MasterEyeMaterial","0","0","42","1","0.000000","0","0"
"/Game/Characters/Mannequin_UE4/Materials/M_MannequinUE4_Body.M_MannequinUE4_Body","0","0","124","2","0.000000","0","0"
"/NinjaCharacter/Mannequin/Character/Materials/M_UE4Man_Body.M_UE4Man_Body","0","0","124","2","0.000000","0","0"
"/Game/TexturesAndMaterials/2_Materials/M_DropShadow.M_DropShadow","0","0","22","1","0.000000","0","22"
"/Interchange/gltf/M_Unlit.M_Unlit","0","0","84","6","0.000000","0","0"
"/Game/Particles/Materials/NewMaterials/M_Fire_Cloudy_Transparency.M_Fire_Cloudy_Transparency","0","0","96","1","0.000000","0","0"
"/SpeedTreeImporter/SpeedTree9/SpeedTreeBillboardMaster.SpeedTreeBillboardMaster","0","0","70","1","0.000000","0","0"
"/SpeedTreeImporter/SpeedTree9/SpeedTreeMaster.SpeedTreeMaster","0","0","102","1","0.000000","0","0"
"/Interchange/gltf/M_SpecularGlossiness.M_SpecularGlossiness","0","0","164","6","0.000000","0","0"
"/Interchange/gltf/M_ClearCoat.M_ClearCoat","0","0","164","6","0.000000","0","0"
"/Interchange/gltf/M_Transmission.M_Transmission","0","0","58","2","0.000000","0","0"
"/Interchange/gltf/M_Sheen.M_Sheen","0","0","164","6","0.000000","0","0"
"/Interchange/gltf/M_Default.M_Default","0","0","164","6","0.000000","0","0"
"/Game/Characters/Sonic/Particles/M_InstaShield_Spri.M_InstaShield_Spri","0","0","57","1","0.000000","0","0"
"/Game/LevelPrototyping/Materials/M_PrototypeGrid.M_PrototypeGrid","0","0","142","3","0.000000","0","32122"
"/Engine/EngineSky/M_Sky_Panning_Clouds2.M_Sky_Panning_Clouds2","0","0","7","1","0.000000","0","0"
"/Game/Enemies/OldMotora/Materials/enm_motora_body.enm_motora_body","0","0","30","1","0.000000","0","0"
"/Game/Objects/Assets/Spikes/SpikePanel/NewSpikeText.NewSpikeText","0","0","30","1","0.000000","0","0"
"/Game/TexturesAndMaterials/4-TeAndMa/LevelTexture/SHZ/M_SH_Path.M_SH_Path","0","0","58","1","0.000000","0","0"
"/Game/Meshes/NewMaterial3.NewMaterial3","0","0","30","1","0.000000","0","0"
"/Engine/EngineSky/M_SimpleSkyDome.M_SimpleSkyDome","0","0","7","1","0.000000","0","0"
"/Game/LevelPrototyping/Materials/M_PrototypeGridTUO.M_PrototypeGridTUO","0","0","30","1","0.000000","0","0"
"/Game/LevelPrototyping/Materials/M_Solid.M_Solid","0","0","30","1","0.000000","0","0"
"/Game/TexturesAndMaterials/M_PostProc_XRay.M_PostProc_XRay","0","0","6","1","0.000000","0","0"
"/Game/StarterContent/Materials/M_Glass.M_Glass","0","0","40","1","0.000000","0","0"
"/Game/TexturesAndMaterials/4-TeAndMa/LevelTexture/SHZ/M_SH_Rock.M_SH_Rock","0","0","58","1","0.000000","0","0"
"/Game/Enemies/Assets/M_BadnickMaterGlow.M_BadnickMaterGlow","0","0","30","1","0.000000","0","0"
"/Game/Enemies/Spinner/Material/enm_spina_ball_006.enm_spina_ball_006","0","0","38","1","0.000000","0","0"
"/Game/Meshes/NewMaterial.NewMaterial","0","0","30","1","0.000000","0","0"
"/Game/Enemies/Assets/M_BadnickMaster.M_BadnickMaster","0","0","30","1","0.000000","0","0"
"/Game/Enemies/Spinner/Material/enm_spina_light_006.enm_spina_light_006","0","0","38","1","0.000000","0","0"
"/ControlRig/Controls/ControlRigGizmoMaterial.ControlRigGizmoMaterial","49","0","7","1","0.000000","0","0"
"/MeshModelingToolset/Materials/M_DynamicMeshComponentVtxColor.M_DynamicMeshComponentVtxColor","49","0","24","1","0.000000","0","0"
"/Engine/EngineMaterials/GizmoMaterial.GizmoMaterial","49","0","11","1","0.000000","0","0"
"/Engine/EngineMaterials/NaniteHiddenSectionMaterial.NaniteHiddenSectionMaterial","49","0","35","1","0.000000","0","0"
"/Engine/EngineDebugMaterials/DebugEditorMaterial.DebugEditorMaterial","49","0","11","1","0.000000","0","0"
"/Engine/EditorMaterials/PhAT_NoCollisionMaterial.PhAT_NoCollisionMaterial","49","0","6","1","0.000000","0","0"
"/Engine/EditorMaterials/PhAT_UnselectedMaterial.PhAT_UnselectedMaterial","49","0","6","1","0.000000","0","0"
"/Engine/EngineDebugMaterials/DebugMeshMaterial.DebugMeshMaterial","49","0","8","1","0.000000","0","0"
"/Engine/EngineMaterials/RemoveSurfaceMaterial.RemoveSurfaceMaterial","49","0","7","1","0.000000","0","0"
"/ControlRig/Controls/ControlRigXRayMaterial.ControlRigXRayMaterial","49","0","12","1","0.000000","0","0"
"/Engine/EditorLandscapeResources/SplineEditorMeshMat.SplineEditorMeshMat","49","0","24","1","0.000000","0","0"
"/Engine/EngineDebugMaterials/M_SimpleUnlitTranslucent.M_SimpleUnlitTranslucent","49","0","6","1","0.000000","0","0"
"/Engine/EditorMaterials/Camera/CineMat.CineMat","49","0","34","1","0.000000","0","0"
"/Engine/VREditor/TransformGizmo/Xray.Xray","49","0","18","1","0.000000","0","0"
"/Engine/EngineMaterials/DefaultLightFunctionMaterial.DefaultLightFunctionMaterial","49","0","48","1","0.000000","0","0"
"/Engine/VREditor/TransformGizmo/Main.Main","49","0","6","1","0.000000","0","0"
"/Engine/VREditor/TransformGizmo/TranslucentTransformGizmoMaterial.TranslucentTransformGizmoMaterial","49","0","6","1","0.000000","0","0"
"/Game/Widgets/01-HUD/Heroes/Textures/M_RingCountFont.M_RingCountFont","49","0","11","1","0.000000","0","0"
"/Niagara/DefaultAssets/DefaultSpriteMaterial.DefaultSpriteMaterial","49","0","44","1","0.000000","0","0"
"/Game/StarterContent/Particles/Materials/m_flare.m_flare","49","0","30","1","0.000000","0","0"
"/Engine/BasicShapes/BasicShapeMaterial.BasicShapeMaterial","49","0","109","1","0.000000","0","0"
"/Game/Particles/Materials/Nothing.Nothing","49","0","15","1","0.000000","0","0"
"/Game/StarterContent/Materials/M_Basic_Wall.M_Basic_Wall","49","0","30","1","0.000000","0","0"
"/Engine/EngineMaterials/FlattenMaterial_WS_Normal_VT.FlattenMaterial_WS_Normal_VT","49","0","63","1","0.000000","0","0"
"/Engine/EngineMaterials/EmissiveMeshMaterial.EmissiveMeshMaterial","49","0","8","1","0.000000","0","0"
"/ControlRig/M_Manip.M_Manip","49","0","12","1","0.000000","0","0"
"/Engine/EngineDebugMaterials/M_VolumeRenderSphereTracePP.M_VolumeRenderSphereTracePP","49","0","6","1","0.000000","0","0"
"/Engine/VREditor/TransformGizmo/TransformGizmoMaterial.TransformGizmoMaterial","49","0","7","1","0.000000","0","0"
"/Engine/EngineMaterials/DefaultPostProcessMaterial.DefaultPostProcessMaterial","49","0","8","1","0.000000","0","0"
"/Engine/EngineMaterials/DefaultDeferredDecalMaterial.DefaultDeferredDecalMaterial","49","0","102","1","0.000000","0","0"
"/Engine/EngineMaterials/PhAT_JointLimitMaterial.PhAT_JointLimitMaterial","49","0","12","1","0.000000","0","0"
"/Engine/EngineMaterials/FlattenMaterial_VT.FlattenMaterial_VT","49","0","63","1","0.000000","0","0"
"/Engine/EngineMaterials/FlattenMaterial.FlattenMaterial","49","0","63","1","0.000000","0","0"
"/Engine/EngineMaterials/M_InvalidLightmapSettings.M_InvalidLightmapSettings","49","0","36","1","0.000000","0","0"
"/Paper2D/DefaultSpriteMaterial.DefaultSpriteMaterial","49","0","66","2","0.000000","0","0"
"/Engine/EngineMaterials/Widget3DPassThrough.Widget3DPassThrough","49","0","80","6","0.000000","0","6"
"/Engine/EngineMaterials/WorldGridMaterial.WorldGridMaterial","49","0","907","1","0.000000","0","0"
"/Engine/EngineMaterials/DefaultTextMaterialOpaque.DefaultTextMaterialOpaque","49","0","37","1","0.000000","0","0"
"/Engine/EngineMaterials/DefaultMaterial.DefaultMaterial","49","0","159","1","0.000000","0","0"
"/Engine/EngineMaterials/PPM_DefaultCalibrationGrayscale.PPM_DefaultCalibrationGrayscale","49","0","6","1","0.000000","0","0"
"/Engine/EngineMaterials/PPM_DefaultCalibrationColor.PPM_DefaultCalibrationColor","49","0","6","1","0.000000","0","0"
"/Engine/EditorMaterials/PreviewShadowIndicatorMaterial.PreviewShadowIndicatorMaterial","49","0","48","1","0.000000","0","0"
"/Game/Particles/Materials/M_SpecialTrail.M_SpecialTrail","49","0","12","1","0.000000","0","0"
"/Game/Objects/Assets/WaterMaterial.WaterMaterial","49","0","60","1","0.000000","0","120"
"/Game/StarterContent/Particles/Materials/M_Burst.M_Burst","49","0","26","1","0.000000","0","0"
"/Game/StarterContent/Particles/Materials/M_radial_ramp.M_radial_ramp","49","0","21","1","0.000000","0","0"
"/Game/Particles/Materials/ef_w01_com_loop_wind01_MAT.ef_w01_com_loop_wind01_MAT","49","0","30","1","0.000000","0","0"
"/Game/Characters/Wisps/CE_Wisp/M_CrimsonRibbon.M_CrimsonRibbon","49","0","24","1","0.000000","0","0"
"/Game/Characters/Sonic/Models/Sonic/sonic_gm_cloth.sonic_gm_cloth","49","0","45","1","0.000000","0","0"
"/Game/Characters/Sonic/Particles/M_InstaShield_Fresnel.M_InstaShield_Fresnel","49","0","57","1","0.000000","0","0"
"/Game/Characters/Sonic/Particles/M_InstaShield_Wind.M_InstaShield_Wind","49","0","57","1","0.000000","0","0"
"/Game/Characters/CH_Assets/Actors/Mesh/Boost/emt_ch_sng_yh1_boom.emt_ch_sng_yh1_boom","49","0","152","1","0.000000","0","0"
"/Game/Characters/CH_Assets/Actors/Mesh/Boost/M_Boost1.M_Boost1","49","0","127","1","0.000000","0","0"
"/Game/Particles/Materials/HomingTrailMAT.HomingTrailMAT","49","0","111","1","0.000000","0","0"
"/Game/Objects/Assets/Rings/RingMaterial.RingMaterial","49","0","57","1","0.000000","0","0"
"/Game/Characters/TeamSonic/Sonic/Models/Sonic/M_Fur.M_Fur","49","0","42","1","0.000000","0","0"
"/Game/Characters/Sonic/Models/Sonic/sonic_gm_shoes_belt.sonic_gm_shoes_belt","49","0","45","1","0.000000","0","0"
"/Game/StarterContent/Props/Materials/M_Rock.M_Rock","49","0","45","1","0.000000","0","0"
"/Game/Particles/Materials/TBurst_Mat.TBurst_Mat","49","0","38","1","0.000000","0","0"
"/Game/Objects/Assets/Springs/AirSpring/Top/cmn_obj_springair_HD_wing.cmn_obj_springair_HD_wing","49","0","30","1","0.000000","0","0"
"/Game/Objects/Assets/Springs/AirSpring/Top/cmn_obj_springair_HD_cutter.cmn_obj_springair_HD_cutter","49","0","30","1","0.000000","0","0"
"/Game/Objects/Assets/Springs/AirSpring/Bottom/cmn_obj_springair_HD_lite.cmn_obj_springair_HD_lite","49","0","30","1","0.000000","0","0"
"/Game/Particles/Materials/EggLogo.EggLogo","49","0","31","1","0.000000","0","0"
"/Game/Objects/Assets/Springs/EggSpring/cmn_obj_springegg_HD_egg.cmn_obj_springegg_HD_egg","49","0","30","1","0.000000","0","0"
"/Game/StarterContent/Particles/Materials/M_smoke_subUV.M_smoke_subUV","49","0","80","1","0.000000","0","0"
"/Game/Particles/Materials/SpringLines.SpringLines","49","0","35","1","0.000000","0","0"
"/Game/Characters/CH_Assets/Actors/Mesh/M_SpinBall.M_SpinBall","49","0","66","1","0.000000","0","0"
"/Game/Characters/CH_Assets/Actors/Mesh/Jump/Textures/M_BallSpin_Outter.M_BallSpin_Outter","49","0","44","1","0.000000","0","0"
"/Game/Characters/Wisps/CL_Wisp/Assets/M_LaserParticle_01.M_LaserParticle_01","49","0","44","1","0.000000","0","0"
"/Game/Particles/Materials/ef_ch_sng_yh1_rayring_Mat.ef_ch_sng_yh1_rayring_Mat","49","0","88","1","0.000000","0","0"
"/Game/Objects/Assets/Springs/EggSpring/cmn_obj_springegg_HD_body.cmn_obj_springegg_HD_body","49","0","30","1","0.000000","0","0"
"/Game/Particles/Materials/stompmat1.stompmat1","49","0","35","1","0.000000","0","0"
"/Game/TexturesAndMaterials/2_Materials/M_Gens_Master.M_Gens_Master","49","0","119","1","0.000000","0","0"
"/Game/Particles/Materials/KickTrail.KickTrail","49","0","45","1","0.000000","0","0"
"/Game/Particles/Materials/NewMaterials/M_Fire.M_Fire","49","0","45","1","0.000000","0","0"
"/Game/Particles/Materials/NewMaterials/M_Fire_Cloudy.M_Fire_Cloudy","49","0","102","1","0.000000","0","0"
"/Game/Characters/CH_Assets/Actors/Mesh/Jump/Textures/M_BallSpin.M_BallSpin","49","0","66","1","0.000000","0","0"
"/Engine/EngineSky/VolumetricClouds/m_SimpleVolumetricCloud.m_SimpleVolumetricCloud","49","0","71","1","0.000000","0","0"
"/Game/Objects/Assets/Springs/Spring/M_SpringM.M_SpringM","49","0","30","1","0.000000","0","0"
"/Engine/VREditor/SnapGrid/SnapGridMaterial.SnapGridMaterial","49","0","16","1","0.000000","0","0"
"/Game/Objects/Assets/Springs/Spring/cmn_obj_springred_HD_star.cmn_obj_springred_HD_star","49","0","30","1","0.000000","0","0"
"/Game/Objects/Assets/Springs/Spring/cmn_obj_springred_HD_star1.cmn_obj_springred_HD_star1","49","0","30","1","0.000000","0","0"
"/Game/Objects/Assets/Springs/Spring/cmn_obj_springred_HD_body.cmn_obj_springred_HD_body","49","0","30","1","0.000000","0","0"
"/Game/Characters/CH_Assets/MasterMaterials/M_MasterEyeMaterial.M_MasterEyeMaterial","49","0","42","1","0.000000","0","0"
"/Game/Characters/Mannequin_UE4/Materials/M_MannequinUE4_Body.M_MannequinUE4_Body","49","0","132","2","0.000000","0","0"
"/NinjaCharacter/Mannequin/Character/Materials/M_UE4Man_Body.M_UE4Man_Body","49","0","132","2","0.000000","0","0"
"/Game/TexturesAndMaterials/2_Materials/M_DropShadow.M_DropShadow","49","0","22","1","0.000000","0","22"
"/Interchange/gltf/M_Unlit.M_Unlit","49","0","88","6","0.000000","0","0"
"/Game/Particles/Materials/NewMaterials/M_Fire_Cloudy_Transparency.M_Fire_Cloudy_Transparency","49","0","102","1","0.000000","0","0"
"/SpeedTreeImporter/SpeedTree9/SpeedTreeBillboardMaster.SpeedTreeBillboardMaster","49","0","74","1","0.000000","0","0"
"/SpeedTreeImporter/SpeedTree9/SpeedTreeMaster.SpeedTreeMaster","49","0","106","1","0.000000","0","0"
"/Interchange/gltf/M_SpecularGlossiness.M_SpecularGlossiness","49","0","168","6","0.000000","0","0"
"/Interchange/gltf/M_ClearCoat.M_ClearCoat","49","0","168","6","0.000000","0","0"
"/Interchange/gltf/M_Transmission.M_Transmission","49","0","58","2","0.000000","0","0"
"/Interchange/gltf/M_Sheen.M_Sheen","49","0","168","6","0.000000","0","0"
"/Interchange/gltf/M_Default.M_Default","49","0","168","6","0.000000","0","0"
"/Game/Characters/Sonic/Particles/M_InstaShield_Spri.M_InstaShield_Spri","49","0","57","1","0.000000","0","0"
"/Game/LevelPrototyping/Materials/M_PrototypeGrid.M_PrototypeGrid","49","0","142","3","0.000000","0","32122"
"/Engine/EngineSky/M_Sky_Panning_Clouds2.M_Sky_Panning_Clouds2","49","0","7","1","0.000000","0","0"
"/Game/Enemies/OldMotora/Materials/enm_motora_body.enm_motora_body","49","0","30","1","0.000000","0","0"
"/Game/Objects/Assets/Spikes/SpikePanel/NewSpikeText.NewSpikeText","49","0","30","1","0.000000","0","0"
"/Game/TexturesAndMaterials/4-TeAndMa/LevelTexture/SHZ/M_SH_Path.M_SH_Path","49","0","58","1","0.000000","0","0"
"/Game/Meshes/NewMaterial3.NewMaterial3","49","0","30","1","0.000000","0","0"
"/Engine/EngineSky/M_SimpleSkyDome.M_SimpleSkyDome","49","0","7","1","0.000000","0","0"
"/Game/LevelPrototyping/Materials/M_PrototypeGridTUO.M_PrototypeGridTUO","49","0","30","1","0.000000","0","0"
"/Game/LevelPrototyping/Materials/M_Solid.M_Solid","49","0","30","1","0.000000","0","0"
"/Game/TexturesAndMaterials/M_PostProc_XRay.M_PostProc_XRay","49","0","6","1","0.000000","0","0"
"/Game/StarterContent/Materials/M_Glass.M_Glass","49","0","40","1","0.000000","0","0"
"/Game/TexturesAndMaterials/4-TeAndMa/LevelTexture/SHZ/M_SH_Rock.M_SH_Rock","49","0","58","1","0.000000","0","0"
"/Game/Enemies/Assets/M_BadnickMaterGlow.M_BadnickMaterGlow","49","0","30","1","0.000000","0","0"
"/Game/Enemies/Spinner/Material/enm_spina_ball_006.enm_spina_ball_006","49","0","38","1","0.000000","0","0"
"/Game/Meshes/NewMaterial.NewMaterial","49","0","30","1","0.000000","0","0"
"/Game/Enemies/Assets/M_BadnickMaster.M_BadnickMaster","49","0","30","1","0.000000","0","0"
"/Game/Enemies/Spinner/Material/enm_spina_light_006.enm_spina_light_006","49","0","38","1","0.000000","0","0"
