"C:\Users\mapur\OneDrive\Desktop\UE5Sonic\ProtoSonic 5.3\Source\ProtoSonic\ProtoSonic.cpp"
/FI"C:\Users\mapur\OneDrive\Desktop\UE5Sonic\ProtoSonic 5.3\Intermediate\Build\Win64\x64\UnrealEditor\DebugGame\ProtoSonic\Definitions.ProtoSonic.h"
/Fo"C:\Users\mapur\OneDrive\Desktop\UE5Sonic\ProtoSonic 5.3\Intermediate\Build\Win64\x64\UnrealEditor\DebugGame\ProtoSonic\SingleFile\ProtoSonic.cpp.obj"
/sourceDependencies "C:\Users\mapur\OneDrive\Desktop\UE5Sonic\ProtoSonic 5.3\Intermediate\Build\Win64\x64\UnrealEditor\DebugGame\ProtoSonic\SingleFile\ProtoSonic.cpp.dep.json"
@"C:\Users\mapur\OneDrive\Desktop\UE5Sonic\ProtoSonic 5.3\Intermediate\Build\Win64\x64\UnrealEditor\DebugGame\ProtoSonic\ProtoSonic.Shared.rsp"
/Zc:inline
/nologo
/Oi
/FC
/c
/Gw
/Gy
/utf-8
/wd4819
/Zc:hiddenFriend
/Zc:__cplusplus
/D_CRT_STDIO_LEGACY_WIDE_SPECIFIERS=1
/D_SILENCE_STDEXT_HASH_DEPRECATION_WARNINGS=1
/D_WINDLL
/D_DISABLE_EXTENDED_ALIGNED_STORAGE
/Ob2
/Od
/errorReport:prompt
/EHsc
/DPLATFORM_EXCEPTIONS_DISABLED=0
/Z7
/MD
/bigobj
/fp:fast
/Zp8
/we4456
/we4458
/we4459
/we4668
/wd4244
/wd4838
/TP
/GR-
/W4
/std:c++17
