"C:\Users\mapur\OneDrive\Desktop\UE5Sonic\ProtoSonic 5.3\Intermediate\Build\Win64\x64\ProtoSonic\DebugGame\Engine\SharedPCH.Engine.Exceptions.Cpp20.cpp"
/I "."
/I "..\Intermediate\Build\Win64\UnrealGame\Inc\Engine\UHT"
/I "..\Shaders\Shared"
/I "Runtime\Engine\Classes"
/I "Runtime\Engine\Public"
/I "Runtime\Engine\Internal"
/I "Runtime\Core\Public"
/I "Runtime\Core\Internal"
/I "Runtime\TraceLog\Public"
/I "..\Intermediate\Build\Win64\UnrealGame\Inc\CoreOnline\UHT"
/I "Runtime\CoreOnline\Public"
/I "..\Intermediate\Build\Win64\UnrealGame\Inc\CoreUObject\UHT"
/I "Runtime\CoreUObject\Public"
/I "Runtime\CoreUObject\Internal"
/I "..\Intermediate\Build\Win64\UnrealGame\Inc\FieldNotification\UHT"
/I "Runtime\FieldNotification\Public"
/I "..\Intermediate\Build\Win64\UnrealGame\Inc\NetCore\UHT"
/I "Runtime\Net\Core\Classes"
/I "Runtime\Net\Core\Public"
/I "Runtime\Net\Common\Public"
/I "Runtime\ImageCore\Public"
/I "Runtime\Json\Public"
/I "..\Intermediate\Build\Win64\UnrealGame\Inc\JsonUtilities\UHT"
/I "Runtime\JsonUtilities\Public"
/I "..\Intermediate\Build\Win64\UnrealGame\Inc\SlateCore\UHT"
/I "Runtime\SlateCore\Public"
/I "..\Intermediate\Build\Win64\UnrealGame\Inc\InputCore\UHT"
/I "Runtime\InputCore\Classes"
/I "Runtime\InputCore\Public"
/I "Runtime\ApplicationCore\Public"
/I "Runtime\RHI\Public"
/I "..\Intermediate\Build\Win64\UnrealGame\Inc\Slate\UHT"
/I "Runtime\Slate\Public"
/I "Runtime\ImageWrapper\Public"
/I "Runtime\Messaging\Public"
/I "Runtime\MessagingCommon\Public"
/I "Runtime\RenderCore\Public"
/I "Runtime\Analytics\AnalyticsET\Public"
/I "Runtime\Analytics\Analytics\Public"
/I "Runtime\Sockets\Public"
/I "..\Intermediate\Build\Win64\UnrealGame\Inc\AssetRegistry\UHT"
/I "Runtime\AssetRegistry\Public"
/I "Runtime\AssetRegistry\Internal"
/I "..\Intermediate\Build\Win64\UnrealGame\Inc\EngineMessages\UHT"
/I "Runtime\EngineMessages\Public"
/I "..\Intermediate\Build\Win64\UnrealGame\Inc\EngineSettings\UHT"
/I "Runtime\EngineSettings\Classes"
/I "Runtime\EngineSettings\Public"
/I "Runtime\SynthBenchmark\Public"
/I "..\Intermediate\Build\Win64\UnrealGame\Inc\GameplayTags\UHT"
/I "Runtime\GameplayTags\Classes"
/I "Runtime\GameplayTags\Public"
/I "..\Intermediate\Build\Win64\UnrealGame\Inc\DeveloperSettings\UHT"
/I "Runtime\DeveloperSettings\Public"
/I "..\Intermediate\Build\Win64\UnrealGame\Inc\PacketHandler\UHT"
/I "Runtime\PacketHandlers\PacketHandler\Classes"
/I "Runtime\PacketHandlers\PacketHandler\Public"
/I "Runtime\PacketHandlers\ReliabilityHandlerComponent\Public"
/I "..\Intermediate\Build\Win64\UnrealGame\Inc\AudioPlatformConfiguration\UHT"
/I "Runtime\AudioPlatformConfiguration\Public"
/I "..\Intermediate\Build\Win64\UnrealGame\Inc\MeshDescription\UHT"
/I "Runtime\MeshDescription\Public"
/I "..\Intermediate\Build\Win64\UnrealGame\Inc\StaticMeshDescription\UHT"
/I "Runtime\StaticMeshDescription\Public"
/I "Runtime\SkeletalMeshDescription\Public"
/I "..\Intermediate\Build\Win64\UnrealGame\Inc\AnimationCore\UHT"
/I "Runtime\AnimationCore\Public"
/I "Runtime\PakFile\Public"
/I "Runtime\PakFile\Internal"
/I "Runtime\RSA\Public"
/I "Runtime\NetworkReplayStreaming\NetworkReplayStreaming\Public"
/I "..\Intermediate\Build\Win64\UnrealGame\Inc\PhysicsCore\UHT"
/I "Runtime\PhysicsCore\Public"
/I "Runtime\Experimental\ChaosCore\Public"
/I "..\Intermediate\Build\Win64\UnrealGame\Inc\Chaos\UHT"
/I "Runtime\Experimental\Chaos\Public"
/I "Runtime\Experimental\Voronoi\Public"
/I "Runtime\GeometryCore\Public"
/I "Runtime\SignalProcessing\Public"
/I "..\Intermediate\Build\Win64\UnrealGame\Inc\AudioExtensions\UHT"
/I "Runtime\AudioExtensions\Public"
/I "Runtime\AudioMixerCore\Public"
/I "..\Intermediate\Build\Win64\UnrealGame\Inc\AudioMixer\UHT"
/I "Runtime\AudioMixer\Classes"
/I "Runtime\AudioMixer\Public"
/I "Developer\TargetPlatform\Public"
/I "Developer\TextureFormat\Public"
/I "Developer\DesktopPlatform\Public"
/I "Developer\DesktopPlatform\Internal"
/I "..\Intermediate\Build\Win64\UnrealGame\Inc\AudioLinkEngine\UHT"
/I "Runtime\AudioLink\AudioLinkEngine\Public"
/I "..\Intermediate\Build\Win64\UnrealGame\Inc\AudioLinkCore\UHT"
/I "Runtime\AudioLink\AudioLinkCore\Public"
/I "Runtime\CookOnTheFly\Internal"
/I "Runtime\Networking\Public"
/I "Runtime\Experimental\IoStoreOnDemand\Public"
/I "..\Intermediate\Build\Win64\UnrealGame\Inc\ClothSysRuntimeIntrfc\UHT"
/I "Runtime\ClothingSystemRuntimeInterface\Public"
/I "..\Intermediate\Build\Win64\UnrealGame\Inc\IrisCore\UHT"
/I "Runtime\Experimental\Iris\Core\Public"
/I "..\Intermediate\Build\Win64\UnrealGame\Inc\MovieSceneCapture\UHT"
/I "Runtime\MovieSceneCapture\Public"
/I "..\Intermediate\Build\Win64\UnrealGame\Inc\Renderer\UHT"
/I "Runtime\Renderer\Public"
/I "..\Intermediate\Build\Win64\UnrealGame\Inc\TypedElementFramework\UHT"
/I "Runtime\TypedElementFramework\Public"
/I "..\Intermediate\Build\Win64\UnrealGame\Inc\TypedElementRuntime\UHT"
/I "Runtime\TypedElementRuntime\Public"
/external:W0
/external:I "ThirdParty\mimalloc\include"
/external:I "ThirdParty\LibTiff\Source\Win64"
/external:I "ThirdParty\LibTiff\Source"
/external:I "C:\Program Files\Microsoft Visual Studio\2022\Professional\VC\Tools\MSVC\14.35.32215\INCLUDE"
/external:I "C:\Program Files (x86)\Windows Kits\10\include\10.0.22621.0\ucrt"
/external:I "C:\Program Files (x86)\Windows Kits\10\include\10.0.22621.0\shared"
/external:I "C:\Program Files (x86)\Windows Kits\10\include\10.0.22621.0\um"
/external:I "C:\Program Files (x86)\Windows Kits\10\include\10.0.22621.0\winrt"
/Yc"C:\Users\mapur\OneDrive\Desktop\UE5Sonic\ProtoSonic 5.3\Intermediate\Build\Win64\x64\ProtoSonic\DebugGame\Engine\SharedPCH.Engine.Exceptions.Cpp20.h"
/Fp"C:\Users\mapur\OneDrive\Desktop\UE5Sonic\ProtoSonic 5.3\Intermediate\Build\Win64\x64\ProtoSonic\DebugGame\Engine\SharedPCH.Engine.Exceptions.Cpp20.h.pch"
/Fo"C:\Users\mapur\OneDrive\Desktop\UE5Sonic\ProtoSonic 5.3\Intermediate\Build\Win64\x64\ProtoSonic\DebugGame\Engine\SharedPCH.Engine.Exceptions.Cpp20.h.obj"
/sourceDependencies "C:\Users\mapur\OneDrive\Desktop\UE5Sonic\ProtoSonic 5.3\Intermediate\Build\Win64\x64\ProtoSonic\DebugGame\Engine\SharedPCH.Engine.Exceptions.Cpp20.h.dep.json"
/Zc:inline
/nologo
/Oi
/FC
/c
/Gw
/Gy
/utf-8
/wd4819
/Zc:hiddenFriend
/Zc:__cplusplus
/D_CRT_STDIO_LEGACY_WIDE_SPECIFIERS=1
/D_SILENCE_STDEXT_HASH_DEPRECATION_WARNINGS=1
/D_DISABLE_EXTENDED_ALIGNED_STORAGE
/Ob2
/Ox
/Ot
/GF
/errorReport:prompt
/EHsc
/DPLATFORM_EXCEPTIONS_DISABLED=0
/Z7
/MD
/bigobj
/fp:fast
/Zo
/Zp8
/we4668
/wd4244
/wd4838
/TP
/GR-
/W4
/std:c++20
/Zc:preprocessor
/wd5054