"C:\Users\mapur\OneDrive\Desktop\UE5Sonic\ProtoSonic 5.3\Intermediate\Build\Win64\UnrealGame\Inc\ProtoSonic\UHT\SonicCharacter.gen.cpp"
/FI"C:\Users\mapur\OneDrive\Desktop\UE5Sonic\ProtoSonic 5.3\Intermediate\Build\Win64\x64\ProtoSonic\Development\Engine\SharedPCH.Engine.Cpp17.InclOrderUnreal5_0.h"
/FI"C:\Users\mapur\OneDrive\Desktop\UE5Sonic\ProtoSonic 5.3\Intermediate\Build\Win64\x64\UnrealGame\Development\ProtoSonic\Definitions.ProtoSonic.h"
/Yu"C:\Users\mapur\OneDrive\Desktop\UE5Sonic\ProtoSonic 5.3\Intermediate\Build\Win64\x64\ProtoSonic\Development\Engine\SharedPCH.Engine.Cpp17.InclOrderUnreal5_0.h"
/Fp"C:\Users\mapur\OneDrive\Desktop\UE5Sonic\ProtoSonic 5.3\Intermediate\Build\Win64\x64\ProtoSonic\Development\Engine\SharedPCH.Engine.Cpp17.InclOrderUnreal5_0.h.pch"
/Fo"C:\Users\mapur\OneDrive\Desktop\UE5Sonic\ProtoSonic 5.3\Intermediate\Build\Win64\x64\UnrealGame\Development\ProtoSonic\SonicCharacter.gen.cpp.obj"
/sourceDependencies "C:\Users\mapur\OneDrive\Desktop\UE5Sonic\ProtoSonic 5.3\Intermediate\Build\Win64\x64\UnrealGame\Development\ProtoSonic\SonicCharacter.gen.cpp.dep.json"
@"C:\Users\mapur\OneDrive\Desktop\UE5Sonic\ProtoSonic 5.3\Intermediate\Build\Win64\x64\UnrealGame\Development\ProtoSonic\ProtoSonic.Shared.rsp"
/Zc:inline
/nologo
/Oi
/FC
/c
/Gw
/Gy
/utf-8
/wd4819
/Zc:hiddenFriend
/Zc:__cplusplus
/D_CRT_STDIO_LEGACY_WIDE_SPECIFIERS=1
/D_SILENCE_STDEXT_HASH_DEPRECATION_WARNINGS=1
/D_DISABLE_EXTENDED_ALIGNED_STORAGE
/Ob2
/Ox
/Ot
/GF
/errorReport:prompt
/D_HAS_EXCEPTIONS=0
/DPLATFORM_EXCEPTIONS_DISABLED=1
/Z7
/MD
/bigobj
/fp:fast
/Zo
/Zp8
/we4456
/we4458
/we4459
/we4668
/wd4244
/wd4838
/TP
/GR-
/W4
/std:c++17