{
	"AssetInfoVersion": 2,
	"ShaderCodeToAssets": [
		{
			"ShaderMapHash": "93CD1100A63827BC47CDDAEC2C2E0F8D8C8E0C4E",
			"Assets": [
				"/Game/Particles/Materials/HomingTrailMAT"
			]
		},
		{
			"ShaderMapHash": "9608B400C5CDEEACE4B2C7E37A74B081BB248C81",
			"Assets": [
				"/Game/Objects/Assets/Spikes/SpikePanel/cmn_obj_thornpanel_HD"
			]
		},
		{
			"ShaderMapHash": "49EE5B0143E6DA7DCE251391858F96B8FC21AC13",
			"Assets": [
				"/Game/Meshes/GreenHill/ghz_tn_woodbridgewoodhold_001"
			]
		},
		{
			"ShaderMapHash": "7BEE6903C113AA4F72F12AC3ECD51E3755A6665A",
			"Assets": [
				"/Game/Characters/CH_Assets/Actors/Mesh/Boost/M_Boost1"
			]
		},
		{
			"ShaderMapHash": "5CEDFD034B9AF116164E0F08A618CFF3B30F61A2",
			"Assets": [
				"/Game/TexturesAndMaterials/4-TeAndMa/UI_Textures/Theme_Unleashed/M_UI_Unleashed"
			]
		},
		{
			"ShaderMapHash": "3EAA590474751BD8289EE79657869485E96A6C9A",
			"Assets": [
				"/Game/TexturesAndMaterials/4-TeAndMa/Textures/M_Checkerboard"
			]
		},
		{
			"ShaderMapHash": "A9516704E93EF22F737B9F443AB0DF13AD732E90",
			"Assets": [
				"/Game/Objects/Assets/Spikes/SpikePanel/cmn_obj_thorn_HD"
			]
		},
		{
			"ShaderMapHash": "D99D830484EC06C25294F76978C40860B0F71B4D",
			"Assets": [
				"/Game/StarterContent/Props/Materials/M_Bush"
			]
		},
		{
			"ShaderMapHash": "6F2441053F34CC416521D284F6F97BB520F60B13",
			"Assets": [
				"/Game/Meshes/GreenHill/ghz_km_palm_04",
				"/Game/Objects/Assets/Spikes/SpikeCylinder/cmn_obj_thornsc_HD_side"
			]
		},
		{
			"ShaderMapHash": "3B1E8C05AE7B8821F5B7D37E7C8BB3B3AB90EEC8",
			"Assets": [
				"/Game/Objects/Assets/Spikes/SpikeCylinder/cmn_obj_thornsc_HD_body"
			]
		},
		{
			"ShaderMapHash": "BF4164062337338922CF25CA2E06BC6A3EC8ED65",
			"Assets": [
				"/Game/Objects/Assets/Balloon/Balloon1"
			]
		},
		{
			"ShaderMapHash": "E0E69F064D009750554ACA45C44B99FDAE741301",
			"Assets": [
				"/Engine/EngineMaterials/EmissiveMeshMaterial"
			]
		},
		{
			"ShaderMapHash": "98710C0752992C4D727D8C5DFEEED2F29CF22232",
			"Assets": [
				"/Game/StarterContent/Materials/M_Concrete_Tiles"
			]
		},
		{
			"ShaderMapHash": "DAEE48071436C07E3423D0378D519E0B567A3690",
			"Assets": [
				"/Game/Meshes/GreenHill/ghz_tn_purplerock_001",
				"/Game/Meshes/GreenHill/Meshes/ghz_km_totemB"
			]
		},
		{
			"ShaderMapHash": "DBE0590892B6CE67EEA4ACDFE354C6D578FDFA71",
			"Assets": [
				"/Game/Particles/AddedParticles/NewShields/M_Trans_Trail_2Sided_Pan_Base_Emis_Master"
			]
		},
		{
			"ShaderMapHash": "B21FC908EE969267B3D1B6E38A8BC195FD69CC0B",
			"Assets": [
				"/Game/Particles/Materials/ef_n01_com_ripple03_Mat"
			]
		},
		{
			"ShaderMapHash": "0D4C20099A31FC2CE488AF41BBE93EF39D8590A4",
			"Assets": [
				"/Game/Objects/Assets/Balloon/Material"
			]
		},
		{
			"ShaderMapHash": "0F13D50910291F056DAB89531DED31F96DDC1BFD",
			"Assets": [
				"/Game/Enemies/Spinner/Material/enm_spina_eye_7",
				"/Game/Enemies/Spinner/Material/enm_spina_eye_006"
			]
		},
		{
			"ShaderMapHash": "461D330C65CF0F3E148633EECA631188386688A8",
			"Assets": [
				"/Game/Particles/Materials/stompmat4"
			]
		},
		{
			"ShaderMapHash": "8EAF8D0CEF8C2575D4950121923407F718C1BCED",
			"Assets": [
				"/Game/Meshes/SeasideHill/ssh_plant_in1_bush01_Common_d_017"
			]
		},
		{
			"ShaderMapHash": "AE291F0DBB45628FE9A5FA03150982E4EDBB240E",
			"Assets": [
				"/Game/Particles/AddedParticles/Shield/ElecShield_mat1"
			]
		},
		{
			"ShaderMapHash": "4662560DB9F6E74EB3BEE1833052D20B55A0C421",
			"Assets": [
				"/Game/Particles/Materials/MusicLogo"
			]
		},
		{
			"ShaderMapHash": "0AB9E00DAA49DC5A4DADDAD78D9C41E1B95EE86E",
			"Assets": [
				"/Game/StarterContent/Materials/M_Metal_Gold"
			]
		},
		{
			"ShaderMapHash": "9291F70FBBDE06D9A07A6E11D0272CA3C2EB9145",
			"Assets": [
				"/Game/Enemies/Spinner/Material/enm_spina_body_7",
				"/Game/Enemies/Spinner/Material/enm_spina_metal_7"
			]
		},
		{
			"ShaderMapHash": "DE0A0310F343BDB0BE1823539AACF65E830FD8DB",
			"Assets": [
				"/Game/Particles/Niagara/fx_TornadoSpin"
			]
		},
		{
			"ShaderMapHash": "43F0B312D6008CFA6C6EA4CB5077698F8E1BB7F5",
			"Assets": [
				"/Game/Widgets/Materials/M_UI_RadialBar"
			]
		},
		{
			"ShaderMapHash": "ED55D312F7DA351BE3749ECEB915B97272E06DC8",
			"Assets": [
				"/Game/StarterContent/Blueprints/Assets/M_LightStage_Skybox_HDRI"
			]
		},
		{
			"ShaderMapHash": "C23DD412B091A7E04EABDC0F2ED9C5C82AE3F2DE",
			"Assets": [
				"/Game/StarterContent/Particles/Materials/M_Radial_Gradient"
			]
		},
		{
			"ShaderMapHash": "93B294136384ACD89D4D57012FC5821EB6900E5C",
			"Assets": [
				"/Game/StarterContent/Materials/M_Metal_Steel"
			]
		},
		{
			"ShaderMapHash": "C00DAB14D4638294947A6FF396E3A5003031DD45",
			"Assets": [
				"/Game/StarterContent/Materials/M_Concrete_Poured"
			]
		},
		{
			"ShaderMapHash": "8B3126162E494B56076E658A57264ACF0FFE2EE9",
			"Assets": [
				"/Game/Characters/CH_Assets/Actors/Mesh/Boost/M_Boost3"
			]
		},
		{
			"ShaderMapHash": "71F33C169839AF32F6E9639B777EDB4BF93CB71F",
			"Assets": [
				"/Engine/EngineMaterials/Widget3DPassThrough_Opaque"
			]
		},
		{
			"ShaderMapHash": "1D3D8317EC3170574D863CF1167F8646EC2DFED6",
			"Assets": [
				"/Game/Particles/Niagara/fx_MachIncSystem"
			]
		},
		{
			"ShaderMapHash": "D5FDF517531CDA564F2E296876643A11871A800D",
			"Assets": [
				"/Game/StarterContent/Materials/M_Tech_Hex_Tile_Pulse"
			]
		},
		{
			"ShaderMapHash": "2EF11A18C3F5A718F6DA1BF6E2485F0B522D09C3",
			"Assets": [
				"/Game/StarterContent/Particles/Materials/M_explosion_subUV"
			]
		},
		{
			"ShaderMapHash": "56341E18DA9BB6F14AD913E5358DF9B13C3711A3",
			"Assets": [
				"/ControlRig/Controls/ControlRigXRayMaterial"
			]
		},
		{
			"ShaderMapHash": "2C103F1847B65E6C8A699416D78B7B9273A28342",
			"Assets": [
				"/Game/Meshes/SeasideHill/ssh_plant_in1_integratedplants_LumiV_dn_018",
				"/Game/Meshes/SeasideHill/ssh_plant_in1_shida_Common_dn_003"
			]
		},
		{
			"ShaderMapHash": "67B1E318277463D4064C5A9CA5DA2718FE7F0E0D",
			"Assets": [
				"/Game/StarterContent/Materials/M_Ceramic_Tile_Checker"
			]
		},
		{
			"ShaderMapHash": "4A383119B125079C3C48393BF494B48F9B77C77F",
			"Assets": [
				"/Game/StarterContent/Materials/M_Brick_Cut_Stone"
			]
		},
		{
			"ShaderMapHash": "F8311E1A3F51F8DBE956F639A73C27B19FF019A2",
			"Assets": [
				"/Game/Particles/Niagara/Wisp/M_P_Smoke"
			]
		},
		{
			"ShaderMapHash": "981A101B638E63F681CAB3B8C88CFA68C740BA45",
			"Assets": [
				"/Game/Particles/Effects/Materials/M_ElectricalGlow"
			]
		},
		{
			"ShaderMapHash": "825D101D6964E4DB9B52932EA4830DDFF8764E80",
			"Assets": [
				"/Interchange/gltf/MaterialInstances/MI_SpecularGlossiness_Mask_DS"
			]
		},
		{
			"ShaderMapHash": "6F26271D7E1D16148B1FE495DC33B6F65CB5D1A6",
			"Assets": [
				"/Game/Particles/Niagara/Wisp/KnucklesFire"
			]
		},
		{
			"ShaderMapHash": "CD4E781D7D0BDB765BF960ADD9E394C5CF0E73BA",
			"Assets": [
				"/Game/TexturesAndMaterials/4-TeAndMa/LevelTexture/SHZ/M_SH_Rock"
			]
		},
		{
			"ShaderMapHash": "6B2F001EFC4DE969CBCE8F412255222EA5944666",
			"Assets": [
				"/Game/Meshes/GreenHill/ghz_tn_purplerock_002"
			]
		},
		{
			"ShaderMapHash": "78270F1EB3AE2110B56A487B3FC91293F476C7F5",
			"Assets": [
				"/Game/Meshes/GreenHill/ghz_wood_yy1_grindb_cmn_dpn"
			]
		},
		{
			"ShaderMapHash": "E7F85E1E6A9728FDD8623FC112D54EDAAA227475",
			"Assets": [
				"/Engine/VREditor/TransformGizmo/Main"
			]
		},
		{
			"ShaderMapHash": "A84D1F1FD68D7A32C3C957A38D3337D2CA245270",
			"Assets": [
				"/Game/Characters/CH_Assets/Actors/Mesh/Boost/M_Boost2"
			]
		},
		{
			"ShaderMapHash": "6B207D1F61533178126871DE9F2562BFA199B035",
			"Assets": [
				"/Game/Particles/Materials/fx_slash"
			]
		},
		{
			"ShaderMapHash": "8A7D732099A501C83362F36F6EB42EBCF4D7CA9F",
			"Assets": [
				"/Engine/EngineMaterials/PPM_DefaultCalibrationColor"
			]
		},
		{
			"ShaderMapHash": "DFEDBF20FB9A5F6A80D52FED6334732F0C707EDE",
			"Assets": [
				"/Game/StarterContent/Materials/M_Rock_Basalt"
			]
		},
		{
			"ShaderMapHash": "9F915F2190D7FAB0822F68DF2597F42C56A222A1",
			"Assets": [
				"/Game/Meshes/SpringPole/Textures/M_SpringArm",
				"/Game/Meshes/SpringPole/Textures/M_SpringArmEasy"
			]
		},
		{
			"ShaderMapHash": "2FAE8021371BC05F716912E9E1A8769FEF0CAE94",
			"Assets": [
				"/Engine/EngineMaterials/DefaultPostProcessMaterial"
			]
		},
		{
			"ShaderMapHash": "55C3F0211754DD960411CD699832DA2B51A5FA72",
			"Assets": [
				"/Game/Meshes/GreenHill/Meshes/ghz_km_logbridge03"
			]
		},
		{
			"ShaderMapHash": "6AEA3022C0DADCC395D7B541B31910E224813BD6",
			"Assets": [
				"/Game/Objects/Assets/Springs/AirSpring/Top/cmn_obj_springair_HD_cutter"
			]
		},
		{
			"ShaderMapHash": "BCF167223C7F227ED422D08F5F433F4504A06F09",
			"Assets": [
				"/Game/StarterContent/Materials/M_Metal_Chrome"
			]
		},
		{
			"ShaderMapHash": "F648AC24D13F52105715C2B38C078BB33F3CCD4B",
			"Assets": [
				"/Game/StarterContent/Particles/Materials/M_Burst"
			]
		},
		{
			"ShaderMapHash": "5A75D224EF85DDF01BBD1BBC6471C1FAE29C3917",
			"Assets": [
				"/Game/Objects/Assets/Rings/RingMaterial",
				"/Game/Particles/Niagara/Objects/Assets/Rings/RingMaterial"
			]
		},
		{
			"ShaderMapHash": "B0DDE4248D31A3001449CC44F41F0663D76A4E37",
			"Assets": [
				"/Interchange/gltf/MaterialInstances/MI_ClearCoat_Mask_DS"
			]
		},
		{
			"ShaderMapHash": "C40E4E2618CF4035CA9AC485A02394A07512AB54",
			"Assets": [
				"/Interchange/gltf/MaterialInstances/MI_Unlit_Blend"
			]
		},
		{
			"ShaderMapHash": "B983512689707EA30F4CB7AA027E277BA445666A",
			"Assets": [
				"/Game/StarterContent/Props/Materials/M_Frame"
			]
		},
		{
			"ShaderMapHash": "1FEB7D261B7CA6DD0889DB11BA01297EEFC27703",
			"Assets": [
				"/Engine/EngineMaterials/DefaultLightFunctionMaterial"
			]
		},
		{
			"ShaderMapHash": "1955B726AC7575ADC87F12AA29E144BA43076C01",
			"Assets": [
				"/Game/Characters/CH_Assets/NS_DrillCombo"
			]
		},
		{
			"ShaderMapHash": "6D12B427AE6C85E330C5C218156696DF1BE12998",
			"Assets": [
				"/Game/StarterContent/Materials/M_Basic_Floor"
			]
		},
		{
			"ShaderMapHash": "408B01291FA883C3828489417D3BD54F2E40B0A8",
			"Assets": [
				"/Game/Characters/Sonic/Particles/M_InstaShield_Wind"
			]
		},
		{
			"ShaderMapHash": "CD770929EE2B10C2F939AE9F50EEB0AEFB279959",
			"Assets": [
				"/Game/Characters/Sonic/1-Model/chip",
				"/Game/Characters/TeamSonic/Sonic/1-Model/chip"
			]
		},
		{
			"ShaderMapHash": "D1D6B629EA864518B4E381CF33568A7822EC03CA",
			"Assets": [
				"/Game/Characters/Mannequins/Materials/Instances/Manny/MI_Manny_02",
				"/Game/Characters/Mannequins/Materials/Instances/Quinn/MI_Quinn_02"
			]
		},
		{
			"ShaderMapHash": "75B8E92922CB0D13A8CB586EDB61803CE57B8974",
			"Assets": [
				"/Game/Particles/Materials/MGSEX"
			]
		},
		{
			"ShaderMapHash": "2016372ADBF915B9BF5BF0232DA7DFB13ED57EC1",
			"Assets": [
				"/Game/Enemies/Spinner/lightning"
			]
		},
		{
			"ShaderMapHash": "FEE7A62A36C62F109B2CFFE65C291494D805538A",
			"Assets": [
				"/Game/Particles/Niagara/Wisp/KnucklesFire"
			]
		},
		{
			"ShaderMapHash": "87FEE52A90DD8186627AC10FC48C69E7C016472C",
			"Assets": [
				"/Game/StarterContent/Props/Materials/M_StatueGlass"
			]
		},
		{
			"ShaderMapHash": "DF0D082B54F9F503BC754EFC24084C844EB25CBD",
			"Assets": [
				"/Game/Particles/Materials/EggLogo"
			]
		},
		{
			"ShaderMapHash": "90D4172BDA0440C55854132B3B56AE860EC94F22",
			"Assets": [
				"/Game/Objects/Assets/Springs/EggSpring/cmn_obj_springegg_HD_body",
				"/Game/Objects/Assets/Springs/EggSpring/cmn_obj_springegg_HD_egg"
			]
		},
		{
			"ShaderMapHash": "1C97392B75D46608AA2BD26AEBA75EB1F54B3070",
			"Assets": [
				"/Paper2D/OpaqueUnlitSpriteMaterial"
			]
		},
		{
			"ShaderMapHash": "3629732BC1BC19C8DEBAEE8AED030D85BF9D0CE9",
			"Assets": [
				"/Game/Particles/Niagara/fx_Windmill_Kick_System"
			]
		},
		{
			"ShaderMapHash": "79CE942B9AB80683C762D719332A77D845B52F1F",
			"Assets": [
				"/Interchange/gltf/MaterialInstances/MI_ClearCoat_Mask"
			]
		},
		{
			"ShaderMapHash": "56DBFB2B6C87E6F92C3E26A8B836ECF6C83B197A",
			"Assets": [
				"/Game/Meshes/M_ReactiveFloor"
			]
		},
		{
			"ShaderMapHash": "C1F12C2C8653DC7BF200BE694BAF7B769A014D1C",
			"Assets": [
				"/Game/Characters/CH_Assets/NS_DrillCombo_EX"
			]
		},
		{
			"ShaderMapHash": "79A2DE2D3E70E1378B12F689CA98D346BAF61BAF",
			"Assets": [
				"/Game/StarterContent/Materials/M_Brick_Clay_Old"
			]
		},
		{
			"ShaderMapHash": "6F63F72D630778AC5F479C134298295B96567455",
			"Assets": [
				"/Game/Characters/TeamSol/Silver/NS_SilverAura"
			]
		},
		{
			"ShaderMapHash": "1C48152E9BFCB1F812EF292E431591948DCD237E",
			"Assets": [
				"/Game/Enemies/Assets/ProjectileMAT"
			]
		},
		{
			"ShaderMapHash": "32A56C2E7EDAB9AC2F1E67FF8EEC94F51C6030FD",
			"Assets": [
				"/Interchange/gltf/MaterialInstances/MI_ClearCoat_Blend_DS"
			]
		},
		{
			"ShaderMapHash": "5912AA2F7A1DDC1A702ABDE144D59B7D5F91FA28",
			"Assets": [
				"/Game/Meshes/SeasideHill/ssh_rock_ay2_road02_Cmn_dpn_029",
				"/Game/Meshes/SeasideHill/ssh_rock_ay2_road03_Cmn_dpn_051",
				"/Game/Meshes/SeasideHill/ssh_rock_ay2_road04_Cmn_dpn_054",
				"/Game/Meshes/SeasideHill/ssh_rock_tn1_insidepillarA_292",
				"/Game/Meshes/SeasideHill/ssh_rock_tn1_insidewallA_323"
			]
		},
		{
			"ShaderMapHash": "869B1C3170D88BC6E7A99324BD2F60EB196A67CC",
			"Assets": [
				"/Game/Particles/Materials/ef_ch_sng_yh1_rayring_Mat"
			]
		},
		{
			"ShaderMapHash": "6812D1314D28888EA6B1C613F85EFF48E938BA0D",
			"Assets": [
				"/Game/Characters/CH_Assets/NS_DrillCombo_EX"
			]
		},
		{
			"ShaderMapHash": "129BFF31EB8CC72B4BFAB57CFB20851AF8BB71E6",
			"Assets": [
				"/Game/Particles/Effects/Materials/M_ElectricalNoise_Vert"
			]
		},
		{
			"ShaderMapHash": "DD599D32BF5478F4429C060524ED61944A3F73EE",
			"Assets": [
				"/Game/Characters/CH_Assets/Actors/Generic_Target2",
				"/Game/Characters/TeamSonic/Sonic/UIAssets/HomingTarget/Target2"
			]
		},
		{
			"ShaderMapHash": "964B8633B88E0F7E48A05820B0406D589CADBB6A",
			"Assets": [
				"/Game/Meshes/Button/Light"
			]
		},
		{
			"ShaderMapHash": "2ECE3B34AAD4413671EA1D49FCCE76DF8297FF59",
			"Assets": [
				"/Game/Particles/Effects/Materials/M_ElectricalNoise_Vert"
			]
		},
		{
			"ShaderMapHash": "3C4DDA348073DD840DB8C124134244F3AB91F155",
			"Assets": [
				"/Game/Characters/TeamSol/Silver/TestEffect/SilverAura_Test"
			]
		},
		{
			"ShaderMapHash": "00EA1435CAF2BCE5C883D4C95CAE88874428BFA9",
			"Assets": [
				"/Engine/EngineMaterials/M_InvalidLightmapSettings"
			]
		},
		{
			"ShaderMapHash": "25CD5235DA4A1653F1D1F7567B0C1D6710BA37FB",
			"Assets": [
				"/Game/Particles/Materials/SpringSpiral"
			]
		},
		{
			"ShaderMapHash": "BE947B3528DC6E749B2208B1C7810CF591E0078C",
			"Assets": [
				"/Game/Objects/Assets/ChaosEmerald/EmeraldMAT"
			]
		},
		{
			"ShaderMapHash": "221F8A3554360D325A761E52B9FC839E71A069C7",
			"Assets": [
				"/Game/TexturesAndMaterials/4-TeAndMa/UI_Textures/Theme_SA2/M_UI_Adventure"
			]
		},
		{
			"ShaderMapHash": "4BC43B36E10C390214D66D85D839212C7FBD57D4",
			"Assets": [
				"/Game/Meshes/Bumper/BumperPlastic",
				"/Game/Objects/Assets/Springs/Spring/cmn_obj_springred_HD_body",
				"/Game/Objects/Assets/Springs/Spring/cmn_obj_springred_HD_body1",
				"/Game/Objects/Assets/Springs/WideSpring/cmn_obj_widespring_HD_body"
			]
		},
		{
			"ShaderMapHash": "D47A56378ED7D675783FC4389E2E635E12ECCB83",
			"Assets": [
				"/Engine/EngineDebugMaterials/DebugEditorMaterial"
			]
		},
		{
			"ShaderMapHash": "31140B380194F9378BCF2BBE64CA06E2AEEFAE82",
			"Assets": [
				"/Game/Characters/TeamSonic/Sonic/Particles/BlueTornado_Mat"
			]
		},
		{
			"ShaderMapHash": "6D9B0C3A44CFCC24B73D8C56406E1174EE6A52BC",
			"Assets": [
				"/Game/Objects/Assets/DashRamp/cmn_obj_jumppanel_HD_shadow",
				"/Game/Objects/Assets/TrickRamp/cmn_obj_trickpanel_HD_shadow"
			]
		},
		{
			"ShaderMapHash": "23597C3CAA3BA068E60C626147CA0CE5DB517047",
			"Assets": [
				"/Game/Particles/Niagara/Wisp/fx_CL_Flash"
			]
		},
		{
			"ShaderMapHash": "D1AE953C0E9BA16EF523D1802FA0728DB18E07A4",
			"Assets": [
				"/Game/Characters/CH_Assets/Particles/NS_Foot_Lava"
			]
		},
		{
			"ShaderMapHash": "D7F0A03C334EA5209E61EAEF879EBD7EE04040F3",
			"Assets": [
				"/Game/Particles/Materials/fx_FarAwayFlash",
				"/Game/Particles/Materials/fx_toon_flash"
			]
		},
		{
			"ShaderMapHash": "54779D3DA89973A97113DD5D09ED904D43D32A8E",
			"Assets": [
				"/Game/Particles/Materials/fx_machwind"
			]
		},
		{
			"ShaderMapHash": "352CCF3D5E015AFA661DA67DC574FD47D6B9239F",
			"Assets": [
				"/Paper2D/DefaultSpriteMaterial"
			]
		},
		{
			"ShaderMapHash": "A1B3DA3D8C27F8EBA8B51DD5F6DC5E5CAA0663A3",
			"Assets": [
				"/Interchange/gltf/MaterialInstances/MI_Unlit_Opaque_DS"
			]
		},
		{
			"ShaderMapHash": "86820F3FD1F3CB095C19EB1B0C7EE422952816E8",
			"Assets": [
				"/Game/Characters/TeamSol/Blaze/Model/M_BL_Pants",
				"/Game/Objects/Assets/GoalRing/M_GR_Start",
				"/Game/Objects/Assets/Springs/AirSpring/Top/cmn_obj_springair_HD_wing"
			]
		},
		{
			"ShaderMapHash": "68DD4D3F830669CF9D2FC2A908138D64236D88DC",
			"Assets": [
				"/Engine/EngineSky/VolumetricClouds/m_SimpleVolumetricCloud"
			]
		},
		{
			"ShaderMapHash": "258EF13FA34D4DC5024FBAB421052BF919B088A6",
			"Assets": [
				"/Game/PostProcessShaders/RadialBlur"
			]
		},
		{
			"ShaderMapHash": "433B17403830303BC9E058069FCC971DE787122A",
			"Assets": [
				"/Game/TexturesAndMaterials/WaterMaterials/Materials/M_River_Rock"
			]
		},
		{
			"ShaderMapHash": "DDD078407F972E0DBB0E8C465EC8842E3A85C418",
			"Assets": [
				"/Game/Meshes/GreenHill/Meshes/ghz_km_mountain01"
			]
		},
		{
			"ShaderMapHash": "2D2B2A41AAAB7CC8512EED8DB85344247D25D019",
			"Assets": [
				"/Game/Characters/TeamMetal/MetalKnuckles/Model/M_MK_Eyes"
			]
		},
		{
			"ShaderMapHash": "1625CE4133C5CC039C069A294593AF03998F1AEB",
			"Assets": [
				"/Game/Particles/Materials/NewMaterials/M_Fire_Cloudy"
			]
		},
		{
			"ShaderMapHash": "D9831243B21AF82B2AB55DD50A05C68BAAF1301C",
			"Assets": [
				"/Interchange/gltf/MaterialInstances/MI_Transmission_DS"
			]
		},
		{
			"ShaderMapHash": "38C31243FCE85B3D7FE0427832BE8A30A4E670D4",
			"Assets": [
				"/Game/Characters/CH_Assets/NS_DrillCombo_EX"
			]
		},
		{
			"ShaderMapHash": "B87730436935BBA8935AFB413ED37BFA349A47C7",
			"Assets": [
				"/Game/Characters/TeamSonic/Knuckles/3-Particles/K_Burrow_System_Start"
			]
		},
		{
			"ShaderMapHash": "DD474F437FBA3474A9F36FC0BD25CC527A6ECCAF",
			"Assets": [
				"/Game/Particles/Niagara/fx_TornadoSpin",
				"/Game/Particles/Niagara/fx_Windmill_Kick_System"
			]
		},
		{
			"ShaderMapHash": "31063F44D1BDA0C5FDCA34B85DAC8DFF28A6D151",
			"Assets": [
				"/Game/Characters/CH_Assets/Particles/Textures/M_GrassPart"
			]
		},
		{
			"ShaderMapHash": "4B7DF844C130C15654AD47EFEB6262949C098B16",
			"Assets": [
				"/Engine/EngineMaterials/PPM_DefaultCalibrationGrayscale"
			]
		},
		{
			"ShaderMapHash": "E7025D45D9228D8D152B025AFE7774F088812EFE",
			"Assets": [
				"/Game/Particles/Materials/NewMaterials/M_Snowflake"
			]
		},
		{
			"ShaderMapHash": "1E00E64522CF73B5D39BD650FD89AA49029F8404",
			"Assets": [
				"/Game/TexturesAndMaterials/1_Textures/Particles/Invincible/M_Invinc_SubUV1"
			]
		},
		{
			"ShaderMapHash": "8FAC274679C88CB3E9A1600D5DC20CEB897DC3EA",
			"Assets": [
				"/Interchange/gltf/MaterialInstances/MI_SpecularGlossiness_Blend"
			]
		},
		{
			"ShaderMapHash": "DF2A4C48F9125FC15676E5FAA9EB406621E4837D",
			"Assets": [
				"/Game/Characters/Wisps/IL_Wisp/Assets/M_P_Bolt",
				"/Game/Particles/Materials/ef_y01_com_burst01_Mat"
			]
		},
		{
			"ShaderMapHash": "66649748EF2ECF66DB207D5B2DC566166CB24778",
			"Assets": [
				"/Game/StarterContent/Materials/M_Tech_Hex_Tile"
			]
		},
		{
			"ShaderMapHash": "DD5E9948EDB714D62963C166B109689AD7C23448",
			"Assets": [
				"/Paper2D/TranslucentUnlitSpriteMaterial"
			]
		},
		{
			"ShaderMapHash": "391FFB4868DA3718ECCF7E4D3677B715E918CCF6",
			"Assets": [
				"/Engine/EngineMaterials/DefaultTextMaterialOpaque",
				"/Game/Fonts/M_F_Square",
				"/Game/Fonts/Square721_BT_Bold_Material"
			]
		},
		{
			"ShaderMapHash": "CD75F74934EEE341F54EA26857F103EEF25F7D8A",
			"Assets": [
				"/Game/Characters/TeamSol/Blaze/Model/M_BL_BurnSuit2"
			]
		},
		{
			"ShaderMapHash": "6814FA4A0535004855886407847DE7DA59B22DB1",
			"Assets": [
				"/Interchange/gltf/MaterialInstances/MI_Unlit_Mask_DS"
			]
		},
		{
			"ShaderMapHash": "CAC6564B400F49BB98D89CFDC6E85CE92EA7D1EC",
			"Assets": [
				"/Game/StarterContent/Materials/M_CobbleStone_Rough"
			]
		},
		{
			"ShaderMapHash": "664F714B13E0715E81E1DE54596C3DD269D075E3",
			"Assets": [
				"/Game/TexturesAndMaterials/2_Materials/M_IceBlock"
			]
		},
		{
			"ShaderMapHash": "9EB09C4B76FCF382DD52B4810E11539E3528183B",
			"Assets": [
				"/Game/StarterContent/Materials/M_Metal_Brushed_Nickel"
			]
		},
		{
			"ShaderMapHash": "29CAA04B2A053F1954678D188ECC0706ECB40B82",
			"Assets": [
				"/Game/Objects/Assets/ItemBox/M_Glass"
			]
		},
		{
			"ShaderMapHash": "D1F8C24BD10A1C9CB2B76AF99B9D987FCEAA2863",
			"Assets": [
				"/Game/Particles/Materials/KickTrail"
			]
		},
		{
			"ShaderMapHash": "D00DE34B7CE9A3FA70C891F6753272DBA18B6F03",
			"Assets": [
				"/Game/Meshes/Crates/obj_boxc"
			]
		},
		{
			"ShaderMapHash": "EF96FC4C610F813DCB487FD3DC5BCC3CD7B75836",
			"Assets": [
				"/Game/Enemies/Assets/M_BadnickMaterGlow"
			]
		},
		{
			"ShaderMapHash": "28127B4DEA4E9730BD8FC16CC4E169838E60C54C",
			"Assets": [
				"/Game/Particles/Niagara/Explosions-Fire/Toon_Explosion/fx_cloudyExplosion_System"
			]
		},
		{
			"ShaderMapHash": "C033344F1BA7D09A734F53E6A01C71F0AE30420D",
			"Assets": [
				"/Engine/EngineMaterials/AntiAliasedTextMaterialTranslucent"
			]
		},
		{
			"ShaderMapHash": "37ADC750854F7BC4CA78059EA46D9A1F4DA2F475",
			"Assets": [
				"/Game/Particles/Effects/Materials/MI_ArcSpark_01_Round"
			]
		},
		{
			"ShaderMapHash": "2B253051C2D91C35F463CA1DB48A0C0FF1DC1E5E",
			"Assets": [
				"/Game/Particles/Niagara/fx_machaura_System"
			]
		},
		{
			"ShaderMapHash": "2B518651B3E66F10945570ECB8C38A60430BBAC2",
			"Assets": [
				"/Game/Meshes/GreenHill/ghz_km_palm_01"
			]
		},
		{
			"ShaderMapHash": "95B186526DCC50D1AC5CBEE35351AE6A8B974AD1",
			"Assets": [
				"/Game/Meshes/SeasideHill/ssh_rock_in1_mosswall01_Blend_dndpn_016"
			]
		},
		{
			"ShaderMapHash": "0C6076538D218A4F4027DA4C94647D8B4B4DC1C3",
			"Assets": [
				"/Game/StarterContent/Materials/M_CobbleStone_Smooth"
			]
		},
		{
			"ShaderMapHash": "57F68B53E127E303855C14D8B881DCE978456DC5",
			"Assets": [
				"/Game/Objects/Assets/Balloon/TenRing_MATInfinity",
				"/Game/Particles/Materials/ef_ch_sns_yh1_grind_shock1_Mat"
			]
		},
		{
			"ShaderMapHash": "D7A133543EA0540AADB3D267561B84528871DBB3",
			"Assets": [
				"/Game/Meshes/SeasideHill/ssh_water_ay2_sidewater02b_Comn_d_010"
			]
		},
		{
			"ShaderMapHash": "444767544BE2E0BEF4AA44AF93D668C767653559",
			"Assets": [
				"/Interchange/gltf/M_Transmission"
			]
		},
		{
			"ShaderMapHash": "6BD253558D17D313168026DE0D8538FA0E92D0CA",
			"Assets": [
				"/Engine/EditorMaterials/Thumbnails/SkySphereMaterial"
			]
		},
		{
			"ShaderMapHash": "584E68557EBEF2908DBB5CBF156C9ACF52F6D93D",
			"Assets": [
				"/Engine/EngineMaterials/DefaultMaterial"
			]
		},
		{
			"ShaderMapHash": "2173B855DE35DFF262C5D09DDD8E981EA4173D77",
			"Assets": [
				"/Game/Particles/Materials/hit_MAT",
				"/Game/Particles/Materials/Shockwave_MAT",
				"/Game/Particles/Materials/TenRing_MAT1"
			]
		},
		{
			"ShaderMapHash": "1BB56456DE6644AD632296BAD9786916598E4C5E",
			"Assets": [
				"/Game/Characters/TeamSonic/Knuckles/3-Particles/K_Burrow_System"
			]
		},
		{
			"ShaderMapHash": "82C9D656C02AA1625B30F50AEA29610B47461B84",
			"Assets": [
				"/Game/Objects/Assets/ItemBox/ContainedMeshes/NewMaterial",
				"/Game/Objects/Assets/Spikes/SpikePanel/NewSpikeText"
			]
		},
		{
			"ShaderMapHash": "BEC0EA571915F7377660DE514D38DA50DD8E412B",
			"Assets": [
				"/Game/Characters/TeamSonic/Knuckles/3-Particles/K_Burrow_System"
			]
		},
		{
			"ShaderMapHash": "FBD2D458CCF54DE539BD9BA979056B26DE69D06C",
			"Assets": [
				"/Game/Particles/Materials/M_SpecialTrail"
			]
		},
		{
			"ShaderMapHash": "E22EE15800BD8438DE2383D318DCC5FCC0D5C92B",
			"Assets": [
				"/Game/Meshes/Button/obj_dsr2_Mat"
			]
		},
		{
			"ShaderMapHash": "AE4C1B5A588D6FF5B3F81E3201C43CC10F5465FA",
			"Assets": [
				"/Game/TexturesAndMaterials/2_Materials/Instances/SHZ/M_SHZ_BuoyLight"
			]
		},
		{
			"ShaderMapHash": "315CA95A4E800A616BDED7373C3FD39D9F10B65F",
			"Assets": [
				"/Game/Meshes/NewMaterial",
				"/Game/Meshes/NewMaterial1",
				"/Game/Meshes/NewMaterial2",
				"/Game/Meshes/NewMaterial3"
			]
		},
		{
			"ShaderMapHash": "3F2C595B95A3C3D0FFD94B813595C9DA7B31C029",
			"Assets": [
				"/Game/Characters/TeamSol/Silver/Model/ForcesModel/Fur2"
			]
		},
		{
			"ShaderMapHash": "3FB2935B740DF4B4ED97ECDE2C938B7FE3240387",
			"Assets": [
				"/Game/Meshes/GreenHill/ghz_rock_sk_wall01",
				"/Game/TexturesAndMaterials/2_Materials/Old/GH_Rock"
			]
		},
		{
			"ShaderMapHash": "72D4145CB98C52816862CB5FE9C053B4C54C6AC5",
			"Assets": [
				"/Game/TexturesAndMaterials/2_Materials/M_GensTransparent_Master"
			]
		},
		{
			"ShaderMapHash": "5819A25C813F85B2DD39AC91004CBD0F40A6BA69",
			"Assets": [
				"/Game/Characters/Sonic/Models/Sonic/sonic_gm_shoes_red",
				"/Game/Characters/TeamSonic/Sonic/Models/Sonic/sonic_gm_shoes_red"
			]
		},
		{
			"ShaderMapHash": "570ECC5C6652AC3FBDD1D401123C26F1DC455E5B",
			"Assets": [
				"/Engine/EngineDebugMaterials/M_VolumeRenderSphereTracePP"
			]
		},
		{
			"ShaderMapHash": "313EDE5CF6CC9182175F20DF2B434FADBA0C24AA",
			"Assets": [
				"/Interchange/gltf/MaterialInstances/MI_Sheen_Mask_DS"
			]
		},
		{
			"ShaderMapHash": "9561A55DC2F49045D04358BDE2FCBC7494FE38E5",
			"Assets": [
				"/Game/StarterContent/Materials/M_Concrete_Panels"
			]
		},
		{
			"ShaderMapHash": "0BE0AE5D356596D60755A9A41E486974E68922B2",
			"Assets": [
				"/Game/Enemies/OldMotora/Materials/enm_motora_body"
			]
		},
		{
			"ShaderMapHash": "83342E5E734D9F0A9D031EA05E8081815DFE906A",
			"Assets": [
				"/Game/Objects/Assets/GoalRing/M_GR_Rainbow"
			]
		},
		{
			"ShaderMapHash": "0D27AF5E6A343B01123205860D733400869DFE5F",
			"Assets": [
				"/Engine/EditorMaterials/PhAT_UnselectedMaterial"
			]
		},
		{
			"ShaderMapHash": "9FFD436020CB76E63DE24DDD318E31A1395C45D8",
			"Assets": [
				"/Engine/EngineMaterials/PhAT_JointLimitMaterial"
			]
		},
		{
			"ShaderMapHash": "B3B9C560E8F092ADB2645EAA790209007C5226AD",
			"Assets": [
				"/Game/Enemies/Spinner/ReinforcedAnim/enm_spina_ball_014",
				"/Game/Enemies/Spinner/ReinforcedAnim/enm_spina_body_014",
				"/Game/Enemies/Spinner/ReinforcedAnim/enm_spina_eye_014",
				"/Game/Enemies/Spinner/ReinforcedAnim/enm_spina_light_014",
				"/Game/Enemies/Spinner/ReinforcedAnim/enm_spina_metal_014",
				"/Game/Meshes/Button/Star"
			]
		},
		{
			"ShaderMapHash": "37C3C2611CA692D76E647D86B19F970262ABD096",
			"Assets": [
				"/Game/Characters/Wisps/RB_Wisp/NS_BurstReady"
			]
		},
		{
			"ShaderMapHash": "F9F96A62E14957364F76AA7207DDD44881DA008C",
			"Assets": [
				"/Game/Characters/Mannequin_UE4/Materials/M_MannequinUE4_ChestLogo"
			]
		},
		{
			"ShaderMapHash": "3C979B62B6F952E62F5C0DE4A886B0CA67CF485C",
			"Assets": [
				"/Game/Objects/Assets/DashRamp/cmn_obj_jumppanel_HD_body02",
				"/Game/Objects/Assets/TrickRamp/cmn_obj_trickpanel_HD_body02"
			]
		},
		{
			"ShaderMapHash": "50AA6463F8A5543B9784120DEB81F642448AFA4B",
			"Assets": [
				"/Engine/EditorMeshes/ColorCalibrator/M_ClearCoat"
			]
		},
		{
			"ShaderMapHash": "EA70CC64F534B70D9FACE057C144D30CE1ADF4B3",
			"Assets": [
				"/Game/Characters/Sonic/Particles/IS_Particle"
			]
		},
		{
			"ShaderMapHash": "D7B40365DDCCD7255AADBA52822A60CEAF45899B",
			"Assets": [
				"/Game/Characters/TeamSonic/Sonic/Particles/BlueTornado2_Mat"
			]
		},
		{
			"ShaderMapHash": "7E482B669C5FBB3B8261298FF8B169E9D030D0A8",
			"Assets": [
				"/Game/Enemies/GUNHunter/Model/enm_ghunter_mark"
			]
		},
		{
			"ShaderMapHash": "3D486567355400109FEF2872D786A5DD93ECFC16",
			"Assets": [
				"/Game/Particles/Materials/SpringLines"
			]
		},
		{
			"ShaderMapHash": "1BC888670B701846047D9C3B1AE18267C5C5FE87",
			"Assets": [
				"/Engine/EngineSky/M_Sky_Panning_Clouds2"
			]
		},
		{
			"ShaderMapHash": "B6529F67B2BB4629A411041D8EA7B2CC7E083509",
			"Assets": [
				"/Game/Characters/Mannequins/Materials/Instances/Manny/MI_Manny_01",
				"/Game/Characters/Mannequins/Materials/M_Mannequin"
			]
		},
		{
			"ShaderMapHash": "E67FA968680F31420EA2A220BBF87BF87BDF24A9",
			"Assets": [
				"/Game/Objects/Assets/DashRamp/cmn_obj_jumppanel_HD_arrow",
				"/Game/Objects/Assets/TrickRamp/cmn_obj_trickpanel_HD_arrow"
			]
		},
		{
			"ShaderMapHash": "353FB468C3CE986F76D51E9F5F2CB5BA9FCAD744",
			"Assets": [
				"/Game/StarterContent/Materials/M_Rock_Slate"
			]
		},
		{
			"ShaderMapHash": "F18D0A69D8BF9BDABA807BC0A3E1B87AA9E4A86C",
			"Assets": [
				"/Game/TexturesAndMaterials/2_Materials/Old/GH_RockDark"
			]
		},
		{
			"ShaderMapHash": "3E221969C24A0FA7066F96B9D7AC4E5A00FFB09B",
			"Assets": [
				"/Engine/EngineDebugMaterials/DebugMeshMaterial"
			]
		},
		{
			"ShaderMapHash": "8DDA2069AFD44A7955CB43BC68FA2EF62BEC9129",
			"Assets": [
				"/Game/Characters/Wisps/RB_Wisp/CapsuleAssets/M_RB_EyeNew"
			]
		},
		{
			"ShaderMapHash": "543B39698FC29C019A874A17CB89A074056906DC",
			"Assets": [
				"/Game/Particles/Materials/EnemyEyeLens_Mat"
			]
		},
		{
			"ShaderMapHash": "E9E7CA6A1527659176488380AA23543527B63DD2",
			"Assets": [
				"/Game/Meshes/Bumper/Bumperstar",
				"/Game/Objects/Assets/Springs/Spring/cmn_obj_springred_HD_star",
				"/Game/Objects/Assets/Springs/Spring/cmn_obj_springred_HD_star1"
			]
		},
		{
			"ShaderMapHash": "241AE96A9D1C10CD4E15E03A89512D735E378AD0",
			"Assets": [
				"/Game/StarterContent/Particles/Materials/m_flare_01"
			]
		},
		{
			"ShaderMapHash": "F816606BA52EC69FEFDF8509B535D81FB9F5571F",
			"Assets": [
				"/Game/StarterContent/Particles/Materials/M_Fire_SubUV"
			]
		},
		{
			"ShaderMapHash": "97A0616BC67657DE1C0274E223F98D668FAA6773",
			"Assets": [
				"/Game/Meshes/SeasideHill/ssh_plant_in1_coralparts_007"
			]
		},
		{
			"ShaderMapHash": "CF22C96B577249FF8FF38C2A6EA5A905EF3E9460",
			"Assets": [
				"/Game/Particles/Effects/Materials/M_ArcSpark_01",
				"/Game/Particles/Effects/Materials/MI_ArcSpark_01_Inst"
			]
		},
		{
			"ShaderMapHash": "4959EA6B09AB4638C8B704C0236377B56DBB1EA0",
			"Assets": [
				"/Game/Enemies/Spinner/Material/Material_004",
				"/Game/Meshes/M_PanningWall"
			]
		},
		{
			"ShaderMapHash": "B34A796C5ECAD5F07FE4511E3F61D1798240D825",
			"Assets": [
				"/Game/LevelPrototyping/Materials/MI_PrototypeGrid_TopDark"
			]
		},
		{
			"ShaderMapHash": "5685336D3CA6B095853BA7EF07CBDC85B8EE0C38",
			"Assets": [
				"/Game/Meshes/GreenHill/TextMaterial"
			]
		},
		{
			"ShaderMapHash": "953B4C6D55881DFE1F7200D93CB891527069E181",
			"Assets": [
				"/Interchange/gltf/MaterialInstances/MI_Sheen_Opaque_DS"
			]
		},
		{
			"ShaderMapHash": "AC57746DCB6578A7B01B1BC2B92C7EADFF42EDFF",
			"Assets": [
				"/Engine/EditorMeshes/ColorCalibrator/M_GreyBall"
			]
		},
		{
			"ShaderMapHash": "DEF6F76D09423FB01140FE4E26279D0DE4C739BC",
			"Assets": [
				"/Game/StarterContent/Materials/M_Water_Lake"
			]
		},
		{
			"ShaderMapHash": "B045236F8B73A717281DB0A840EC67060653C6F7",
			"Assets": [
				"/Game/Objects/Assets/DashRings/HoopRain_Mat"
			]
		},
		{
			"ShaderMapHash": "71B7726F9366241B584C40848D6EE12BB39F4777",
			"Assets": [
				"/Game/TexturesAndMaterials/2_Materials/M_SoapBubble"
			]
		},
		{
			"ShaderMapHash": "B0E07070EC7BA1E9A4CE4BE0DA18FC47EAEAB356",
			"Assets": [
				"/Game/Characters/CH_Assets/Actors/Mesh/Boost/emt_ch_sng_yh1_boom"
			]
		},
		{
			"ShaderMapHash": "DE3B9170BA4625225047FF42F1467138F6DE91EE",
			"Assets": [
				"/Game/TexturesAndMaterials/M_PostProc_XRay"
			]
		},
		{
			"ShaderMapHash": "8161AF7235E9D803F918BFAEBD0BDBE6EF1400C0",
			"Assets": [
				"/Game/LevelPrototyping/Materials/M_Solid"
			]
		},
		{
			"ShaderMapHash": "15A9A973877D4C3DB80752D4A524A607861F9605",
			"Assets": [
				"/Engine/BasicShapes/BasicShapeMaterial"
			]
		},
		{
			"ShaderMapHash": "AB02607445CE0A16DD75E8D161B3BE63A25FF719",
			"Assets": [
				"/Interchange/gltf/MaterialInstances/MI_Default_Blend"
			]
		},
		{
			"ShaderMapHash": "F5965F753301788563787532A1A7AF7717DB0F31",
			"Assets": [
				"/Game/StarterContent/Materials/M_Metal_Copper"
			]
		},
		{
			"ShaderMapHash": "99D97A76B607C816B5A4C6637DF5A8155319DD97",
			"Assets": [
				"/Game/StarterContent/Props/Materials/M_Shelf"
			]
		},
		{
			"ShaderMapHash": "77BCD876CD0114A45C3DEEB2BFD4414873B0B12D",
			"Assets": [
				"/Game/Characters/CH_Assets/Actors/Generic_Target1",
				"/Game/Characters/TeamSonic/Sonic/UIAssets/HomingTarget/Target1"
			]
		},
		{
			"ShaderMapHash": "EC72DF76A34D2AD9638212A86BC845E2A371A2F0",
			"Assets": [
				"/Game/Characters/TeamSol/Blaze/Particles/Niagara/CloudParticle"
			]
		},
		{
			"ShaderMapHash": "85F50F77DEFB577A18988D085BCA16908E054675",
			"Assets": [
				"/Game/Objects/Assets/Balloon/BalloonBase"
			]
		},
		{
			"ShaderMapHash": "C3CDAE78C36208D264E5C60399B8946519090764",
			"Assets": [
				"/Game/Objects/Assets/Springs/AirSpring/Bottom/cmn_obj_springair_HD_lite"
			]
		},
		{
			"ShaderMapHash": "54D9E97887C9BD15B94DC1397D0DAB3504F869A4",
			"Assets": [
				"/Game/StarterContent/Particles/Materials/M_Dust_Particle"
			]
		},
		{
			"ShaderMapHash": "D44C1279C0A748EE4AA8913BDBEB9F19552AE23A",
			"Assets": [
				"/Game/Characters/TeamSol/Blaze/1-Model/Materials/M_BL_BaseCuffs"
			]
		},
		{
			"ShaderMapHash": "9280247991801691830C9573978AE04EC473DF9E",
			"Assets": [
				"/Game/Characters/CH_Assets/Actors/Generic_Target4",
				"/Game/Characters/TeamSonic/Sonic/UIAssets/HomingTarget/Target4"
			]
		},
		{
			"ShaderMapHash": "0FE06A79E0C81DF8DC157DDC5E689308FC06160E",
			"Assets": [
				"/Interchange/gltf/MaterialInstances/MI_SpecularGlossiness_Opaque_DS"
			]
		},
		{
			"ShaderMapHash": "6346367A4DA9D87BAB4630BE77E03932E2F6F958",
			"Assets": [
				"/Game/StarterContent/Props/Materials/M_Lamp"
			]
		},
		{
			"ShaderMapHash": "B628537BC575A608549BA7D1FDD0E45C365B62A7",
			"Assets": [
				"/Game/Characters/CH_Assets/Actors/Mesh/M_SpinBall"
			]
		},
		{
			"ShaderMapHash": "5E639B7C65F371E1066E504134FA03085EB9641D",
			"Assets": [
				"/Game/Particles/Materials/stompmat"
			]
		},
		{
			"ShaderMapHash": "3A2B097D8983CB69FB2A39E7D80E38BC08438103",
			"Assets": [
				"/Game/Enemies/Assets/M_BadnickMaster",
				"/Game/Enemies/EggPawn/Mesh/M_EP_Body",
				"/Game/Enemies/EggPawn/Mesh/M_EP_Shield",
				"/Game/Enemies/EggPawn/Mesh/M_EP_Weapon"
			]
		},
		{
			"ShaderMapHash": "D36D507D5B2B5307412195DEAF7C5193FEA3303B",
			"Assets": [
				"/Game/TexturesAndMaterials/2_Materials/ArrowMaterial"
			]
		},
		{
			"ShaderMapHash": "91F9D17D9A287F2A904996338E0FA1EAD108FD2B",
			"Assets": [
				"/Game/StarterContent/Materials/M_Glass"
			]
		},
		{
			"ShaderMapHash": "3A19077F66B6AED23E2564C7DADE3D4C6A6DEB1B",
			"Assets": [
				"/Game/Particles/Effects/Materials/M_ElectricalGlow"
			]
		},
		{
			"ShaderMapHash": "ED4C3D7F95AC35751219EB10376C6BD63A419731",
			"Assets": [
				"/Game/StarterContent/Blueprints/Assets/M_LightStage_Arrows"
			]
		},
		{
			"ShaderMapHash": "81B2F47F224A592AE240D0934720E804EC0AC5C9",
			"Assets": [
				"/Interchange/gltf/MaterialInstances/MI_SpecularGlossiness_Blend_DS"
			]
		},
		{
			"ShaderMapHash": "C818C281A6B1ED1CE101100A1F5C9466C2349237",
			"Assets": [
				"/Game/Particles/Materials/ef_ch_sns_yh1_water_ripple1_Mat"
			]
		},
		{
			"ShaderMapHash": "FB40D581A9BC5FD7DFCCFD7E13CBE855D5B7392A",
			"Assets": [
				"/Game/Characters/TeamSonic/Knuckles/3-Particles/K_Burrow_System"
			]
		},
		{
			"ShaderMapHash": "C74697829F483909E64FCB0574D3F1304D61FD3B",
			"Assets": [
				"/Interchange/gltf/MaterialInstances/MI_Default_Blend_DS"
			]
		},
		{
			"ShaderMapHash": "1ACE0D838398164C24BB6F2F713EE1EDFEDBE0A0",
			"Assets": [
				"/Game/Characters/TeamSol/Silver/M_PreviewObjectMaterial"
			]
		},
		{
			"ShaderMapHash": "5F770E83DF0F8B1A8997044A04694EE3291152FA",
			"Assets": [
				"/Game/Meshes/RedRing/M_RSR_G"
			]
		},
		{
			"ShaderMapHash": "6DAE538386107BE14F3C5D603C4D20F7B304ED2E",
			"Assets": [
				"/Game/Characters/CH_Assets/Actors/Generic_Target3",
				"/Game/Characters/TeamSonic/Sonic/UIAssets/HomingTarget/Target3"
			]
		},
		{
			"ShaderMapHash": "3D185F843885911FC34AFF665EE71C8E8AA25339",
			"Assets": [
				"/Game/Characters/TeamSol/Blaze/Model/M_BL_BurnNecklace"
			]
		},
		{
			"ShaderMapHash": "B62FE584B8372DA25E8AC72E5DADDDF49753767C",
			"Assets": [
				"/Engine/EditorMaterials/PreviewShadowIndicatorMaterial"
			]
		},
		{
			"ShaderMapHash": "3BE3748517AB1C662C705043654501DF5FE0227A",
			"Assets": [
				"/Game/StarterContent/Materials/M_Brick_Clay_New"
			]
		},
		{
			"ShaderMapHash": "B278A4857D30D6AC316875EB6515D4E885358636",
			"Assets": [
				"/Interchange/gltf/M_Default"
			]
		},
		{
			"ShaderMapHash": "904CAF85F69C1CA3C16EFE5C7EB589407E266ABD",
			"Assets": [
				"/Game/StarterContent/Materials/M_Ground_Grass"
			]
		},
		{
			"ShaderMapHash": "8D9BE1856512F142AFB6B4391E60F4CA253296A4",
			"Assets": [
				"/Game/Characters/Wisps/VV_Wisp/VoidSpawn"
			]
		},
		{
			"ShaderMapHash": "BC4BFC850917F0BFFF17B24CDC95B12D9C3D9A3B",
			"Assets": [
				"/Interchange/gltf/MaterialInstances/MI_Default_Mask"
			]
		},
		{
			"ShaderMapHash": "0FDCA486B07512635BEEC17C81E8199E07726AD1",
			"Assets": [
				"/Engine/EditorLandscapeResources/SplineEditorMeshMat"
			]
		},
		{
			"ShaderMapHash": "2BA9E88655C4474D1158935A04F8213BD02782F9",
			"Assets": [
				"/Game/Meshes/GreenHill/ghz_ground_sk_grass01_alpha",
				"/Game/TexturesAndMaterials/2_Materials/Old/M_GHZ_Grass4"
			]
		},
		{
			"ShaderMapHash": "AF59E48737964BDAE14681CC45BA6AF692032BFF",
			"Assets": [
				"/Game/LevelPrototyping/Materials/MI_PrototypeGrid_Gray"
			]
		},
		{
			"ShaderMapHash": "E4887A89387496632346C4BE651A22D66C8449F5",
			"Assets": [
				"/Game/Particles/Materials/ef_ob_com_yh1_cross_ray1_Mat"
			]
		},
		{
			"ShaderMapHash": "8AA2BD8933AAFDB1F305647D9D84184429FB4188",
			"Assets": [
				"/Game/Characters/CH_Assets/Actors/Mesh/M_AdventureBall"
			]
		},
		{
			"ShaderMapHash": "B762E6896054346CBC17192E1C91F6F5B92F6617",
			"Assets": [
				"/Game/TexturesAndMaterials/4-TeAndMa/LevelTexture/SHZ/ssh_rock_in1_wall05_dif_Mat"
			]
		},
		{
			"ShaderMapHash": "99FDFB89D73F6BEF92890F2A63782AFD07C18E96",
			"Assets": [
				"/Game/StarterContent/Props/Materials/M_Door"
			]
		},
		{
			"ShaderMapHash": "CD09648A2E2B6B6C57022CB80FA35B101C9AF258",
			"Assets": [
				"/Game/Enemies/GUNHunter/Model/enm_ghunter_bodyA",
				"/Game/Enemies/GUNHunter/Model/enm_ghunter_bodyB"
			]
		},
		{
			"ShaderMapHash": "DB9AB08ABDA5EADAF5C2B2E18FC4864DD2A7D225",
			"Assets": [
				"/Game/StarterContent/Props/Materials/M_TableRound"
			]
		},
		{
			"ShaderMapHash": "D24AD88A508EF21E8F777B1B09AD64B80B61CA40",
			"Assets": [
				"/Game/TexturesAndMaterials/2_Materials/Instances/GHZ/M_GHZ_PalmLeaf",
				"/Game/TexturesAndMaterials/2_Materials/Instances/SHZ/M_SHZ_BananaB",
				"/Game/TexturesAndMaterials/2_Materials/Instances/SHZ/M_SHZ_Bush",
				"/Game/TexturesAndMaterials/2_Materials/Instances/SHZ/M_SHZ_Ivy",
				"/Game/TexturesAndMaterials/2_Materials/Instances/SHZ/M_SHZ_Leaf1",
				"/Game/TexturesAndMaterials/2_Materials/Instances/SHZ/M_SHZ_Leaf2",
				"/Game/TexturesAndMaterials/2_Materials/Instances/SHZ/M_SHZ_PalmLeaf",
				"/Game/TexturesAndMaterials/2_Materials/Instances/SHZ/M_SHZ_Plant1",
				"/Game/TexturesAndMaterials/2_Materials/Instances/SHZ/M_SHZ_Shida"
			]
		},
		{
			"ShaderMapHash": "3F24318B76C42C5E352ECFF81CBE51207B070E20",
			"Assets": [
				"/Engine/EngineMaterials/Widget3DPassThrough",
				"/Engine/EngineMaterials/Widget3DPassThrough_Translucent_OneSided"
			]
		},
		{
			"ShaderMapHash": "514A3F8B2C845B540C913245950DFDA040E1950B",
			"Assets": [
				"/Game/Objects/Assets/Balloon/BallonString"
			]
		},
		{
			"ShaderMapHash": "A9D54A8BCE07F8A8DEDAA5112D4EF3D8BFEB20A3",
			"Assets": [
				"/Game/Characters/TeamSonic/Knuckles/3-Particles/K_Burrow_System"
			]
		},
		{
			"ShaderMapHash": "FEA5668B71EC6E73525514B9A5EF7630CEB58183",
			"Assets": [
				"/Game/Objects/Assets/GrindBooster/Body"
			]
		},
		{
			"ShaderMapHash": "58D4098C530D361FABDB63A80CBFA92B28810EA3",
			"Assets": [
				"/Game/Characters/CH_Assets/MasterMaterials/M_CH_MasterShoe"
			]
		},
		{
			"ShaderMapHash": "BD882B8C7253AE1584553CA544790E186E0A380E",
			"Assets": [
				"/Game/Characters/Character_Objects/Flight_Objects/BombAssets/M_ProjectileLine"
			]
		},
		{
			"ShaderMapHash": "7D2E738C06833038EDE33D10DEF3B223CC0D92F9",
			"Assets": [
				"/Game/StarterContent/Materials/M_Wood_Floor_Walnut_Worn"
			]
		},
		{
			"ShaderMapHash": "3F17FC8C64C986B7993C3EB5F90B8D067129101A",
			"Assets": [
				"/Game/Characters/Sonic/M_Glasses",
				"/Game/Characters/TeamSonic/Sonic/M_Glasses"
			]
		},
		{
			"ShaderMapHash": "366C038DFAB53509393C4BCD062CD162D83B3DFB",
			"Assets": [
				"/Game/Characters/CH_Assets/Actors/Mesh/Jump/Textures/M_BallSpin"
			]
		},
		{
			"ShaderMapHash": "CF36AE8DDA9905A76398A625453F7A6BF2BE2C59",
			"Assets": [
				"/Game/Particles/AddedParticles/Confetti/Confetti_M"
			]
		},
		{
			"ShaderMapHash": "CC3DFA8D40607947E072A07E0C0E6A45CD890A0B",
			"Assets": [
				"/Game/Meshes/Button/o_on_Mat"
			]
		},
		{
			"ShaderMapHash": "4F960E8EB418E996517CA0AF94029AB7E508BA1B",
			"Assets": [
				"/Game/Characters/Sonic/1-Model/event_obj_km_chipring01",
				"/Game/Characters/TeamSonic/Sonic/1-Model/event_obj_km_chipring01"
			]
		},
		{
			"ShaderMapHash": "9D1D328E0F027E903C6BE1EDF9B73EC62A398070",
			"Assets": [
				"/Game/Particles/Materials/stompmat1"
			]
		},
		{
			"ShaderMapHash": "1CBE6E8E41A3089392E4E710FD8706B6D94A43EA",
			"Assets": [
				"/Game/Particles/Niagara/New_Fire/M_NewFire"
			]
		},
		{
			"ShaderMapHash": "F9322D8F332FF3CEB03AE9D9C01E825557148EF4",
			"Assets": [
				"/Engine/EngineMaterials/GizmoMaterial"
			]
		},
		{
			"ShaderMapHash": "D9190A90FD11B93D51878EBEE0E51CCE8EC6E9E7",
			"Assets": [
				"/Game/Meshes/Crates/M_PHDESBoxGlow"
			]
		},
		{
			"ShaderMapHash": "0847D49022DFF61B24D40C4EDE0F25BDB27A759C",
			"Assets": [
				"/Game/Characters/Mannequin_UE4/Materials/M_MannequinUE4_Body"
			]
		},
		{
			"ShaderMapHash": "97E8C59178D746E9F2310245E8F85FE4E5F53E28",
			"Assets": [
				"/Interchange/gltf/MaterialInstances/MI_ClearCoat_Opaque_DS"
			]
		},
		{
			"ShaderMapHash": "F1A4C8915348630EA4E64FF0CF022F9F2722155B",
			"Assets": [
				"/Game/Meshes/GreenHill/ghz_plant_km1_ivy_common_dpn"
			]
		},
		{
			"ShaderMapHash": "EA7C0A926E9D42EDDA96566975DE0653A79C3E99",
			"Assets": [
				"/Game/Characters/TeamSol/Blaze/1-Model/Materials/M_BL_Cuffs"
			]
		},
		{
			"ShaderMapHash": "D579E19261F8D886EB6405F1F795605E9B80C1AF",
			"Assets": [
				"/Interchange/gltf/MaterialInstances/MI_Sheen_Mask"
			]
		},
		{
			"ShaderMapHash": "73269593952C290538E392438B564D6CC2806FC3",
			"Assets": [
				"/Game/Particles/Materials/NewMaterials/M_Fire_Cloudy_Transparency"
			]
		},
		{
			"ShaderMapHash": "500D5C94B8B276B71E3B3EECF014470EC0B22E64",
			"Assets": [
				"/Game/Meshes/RedRing/M_RSR"
			]
		},
		{
			"ShaderMapHash": "DFAA66948B27171B2133A350976677DC77E96B73",
			"Assets": [
				"/Game/Enemies/Assets/M_BadnickFlash"
			]
		},
		{
			"ShaderMapHash": "6F1DA694F2CA0AD708083FBDBF0AB59735613F19",
			"Assets": [
				"/Game/Characters/Wisps/RB_Wisp/CapsuleAssets/M_RB_BodyW"
			]
		},
		{
			"ShaderMapHash": "F7A9C394A543A5F9400755D897D00844F26C25A3",
			"Assets": [
				"/Engine/EngineDebugMaterials/M_SimpleUnlitTranslucent"
			]
		},
		{
			"ShaderMapHash": "5E052295468FE3BF880628F4D70966CC7CA99D42",
			"Assets": [
				"/Game/Characters/Wisps/PF_Wisp/FrenzySpawn"
			]
		},
		{
			"ShaderMapHash": "C568459531BA6723171F3C6B5E5FA5A6FFD99EFD",
			"Assets": [
				"/Interchange/gltf/MaterialInstances/MI_Sheen_Blend_DS"
			]
		},
		{
			"ShaderMapHash": "C9105795979024FFD60692F2131CA34D016BFA78",
			"Assets": [
				"/Game/StarterContent/Materials/M_Brick_Hewn_Stone"
			]
		},
		{
			"ShaderMapHash": "D33A6395F5288A9B3E8C59A6291ADE1AF9AECA0D",
			"Assets": [
				"/Game/StarterContent/Materials/M_Rock_Sandstone"
			]
		},
		{
			"ShaderMapHash": "7F60B99520FC696626E70943DB331591F8F94933",
			"Assets": [
				"/Game/Enemies/Assets/Projectile1MAT",
				"/Game/Enemies/Assets/Projectile2MAT"
			]
		},
		{
			"ShaderMapHash": "B73FE595941D492BDF0D9E161C7AABE381F55075",
			"Assets": [
				"/Engine/EngineSky/M_SimpleSkyDome"
			]
		},
		{
			"ShaderMapHash": "B42F1997E7F8939E588134152413F66AA3D38209",
			"Assets": [
				"/Game/Meshes/SeasideHill/ssh_grass_in1_ground05_Common_dn_061",
				"/Game/Meshes/SeasideHill/ssh_plant_in1_palm02_Common_dn_105",
				"/Game/Meshes/SeasideHill/ssh_rock_ay2_grayrelief01_Cmn_dpn_051",
				"/Game/Meshes/SeasideHill/ssh_rock_ay2_grayrelief02_Cmn_dpn_260",
				"/Game/Meshes/SeasideHill/ssh_rock_ay2_grayrelief03_Cmn_dpn_214",
				"/Game/Meshes/SeasideHill/ssh_rock_ay2_grayrelief05_Cmn_dpn_049",
				"/Game/Meshes/SeasideHill/ssh_rock_ay2_redrelief01_Cmn_dpn_173",
				"/Game/Meshes/SeasideHill/ssh_rock_ay2_redrelief02_Cmn_dpn_224",
				"/Game/Meshes/SeasideHill/ssh_rock_ay2_redrelief03_Cmn_dpn_116",
				"/Game/Meshes/SeasideHill/ssh_rock_ay2_redrelief05_Cmn_dpn_005",
				"/Game/Meshes/SeasideHill/ssh_rock_ay2_relief01_Cmn_dpn_270",
				"/Game/Meshes/SeasideHill/ssh_rock_ay2_relief02_Cmn_dpn_098",
				"/Game/Meshes/SeasideHill/ssh_rock_ay2_relief03_Cmn_dpn_274",
				"/Game/Meshes/SeasideHill/ssh_rock_ay2_relief04_Cmn_dpn_257",
				"/Game/Meshes/SeasideHill/ssh_rock_ay2_relief05_Cmn_dpn_066",
				"/Game/Meshes/SeasideHill/ssh_rock_ay2_relief06_Cmn_dpn_225",
				"/Game/Meshes/SeasideHill/ssh_rock_ay2_relief07_Cmn_dpn_697",
				"/Game/Meshes/SeasideHill/ssh_rock_ay2_relief08_Cmn_dpn_073",
				"/Game/Meshes/SeasideHill/ssh_rock_ay2_wall01_Cmn_dpn_178",
				"/Game/Meshes/SeasideHill/ssh_rock_ay2_wall02_Cmn_dpn_125",
				"/Game/Meshes/SeasideHill/ssh_rock_ay2_wall04_Cmn_dpn_192",
				"/Game/Meshes/SeasideHill/ssh_rock_ay2_wall05_Cmn_dpn_226",
				"/Game/Meshes/SeasideHill/ssh_rock_ay2_wall06_Cmn_dpn_426",
				"/Game/Meshes/SeasideHill/ssh_rock_ay2_wall07_Cmn_dpn_004",
				"/Game/Meshes/SeasideHill/ssh_rock_ay2_wall08_Cmn_dpn_024",
				"/Game/Meshes/SeasideHill/ssh_rock_ay2_wall09_Cmn_dpn_011",
				"/Game/Meshes/SeasideHill/ssh_rock_ay2_whale01_Cmn_dpn_002",
				"/Game/Meshes/SeasideHill/ssh_rock_ay2_whale02_Cmn_dpn_012",
				"/Game/Meshes/SeasideHill/ssh_rock_in1_corridor01_Common_dn_163",
				"/Game/Meshes/SeasideHill/ssh_rock_in1_corridor03_Common_dn_005",
				"/Game/Meshes/SeasideHill/ssh_rock_in1_Criff01_Common_dpn_009",
				"/Game/Meshes/SeasideHill/ssh_rock_in1_debris01_common_dn_085",
				"/Game/Meshes/SeasideHill/ssh_rock_in1_handrail01_common_dn_359",
				"/Game/Meshes/SeasideHill/ssh_rock_in1_wall05_Common_dn_063",
				"/Game/Meshes/SeasideHill/ssh_rock_in1_wetwall04_Common_dn_009"
			]
		},
		{
			"ShaderMapHash": "02CF1898802CAB1D193CA558AD2B549A988E3296",
			"Assets": [
				"/Interchange/gltf/MaterialInstances/MI_Default_Mask_DS"
			]
		},
		{
			"ShaderMapHash": "1AC5E198A82B3CF1F9CF25141E75361150D4EBA2",
			"Assets": [
				"/Game/Meshes/HintRing/M_HintRing_Dots"
			]
		},
		{
			"ShaderMapHash": "7932F198E400C9B2CF9B0BAC38B31791B1DC4D3D",
			"Assets": [
				"/Game/Particles/Niagara/Explosions-Fire/Toon_Missile/fx_toon_missile"
			]
		},
		{
			"ShaderMapHash": "031A7F99F4A92E5525A24C9685E141F3C80138D5",
			"Assets": [
				"/Engine/EditorMeshes/ColorCalibrator/M_ColorGrid"
			]
		},
		{
			"ShaderMapHash": "BE70F0998A821EE4F7CDBCBF49AE3CE9C7314646",
			"Assets": [
				"/Game/Characters/Character_Objects/Flight_Objects/BombAssets/Texture"
			]
		},
		{
			"ShaderMapHash": "9B8C399A271EC7F29C75DE2271F9C1EB423C5C74",
			"Assets": [
				"/Game/Particles/Niagara/Explosions-Fire/Toon_Missile/fx_toon_missile"
			]
		},
		{
			"ShaderMapHash": "1308B49A79787F00D9F5C3849A9F48F5F7F8873D",
			"Assets": [
				"/Game/Characters/TeamSol/Silver/Model/ForcesModel/Fur1"
			]
		},
		{
			"ShaderMapHash": "5455359B480D246D944E909D7D8E86A89E4AEFDB",
			"Assets": [
				"/Game/StarterContent/Materials/M_Basic_Wall"
			]
		},
		{
			"ShaderMapHash": "4B1E599BC1A7C835DD7B7C3BD13DE1F3BBB38368",
			"Assets": [
				"/Game/Characters/CH_Assets/Actors/Mesh/Jump/M_BallSpin_Outter"
			]
		},
		{
			"ShaderMapHash": "54C4BE9E1A677B0D4D392E7B67DAAD209AEF81DD",
			"Assets": [
				"/Game/TexturesAndMaterials/2_Materials/Instances/GHZ/M_GHZ_Ivy",
				"/Game/TexturesAndMaterials/2_Materials/Instances/SHZ/M_SHZ_RoundLeaf"
			]
		},
		{
			"ShaderMapHash": "8123129F52AC3C85A75AC79DF8B0603D94C6A86C",
			"Assets": [
				"/Game/StarterContent/Materials/M_Wood_Oak"
			]
		},
		{
			"ShaderMapHash": "8CB7669F5C3953DE391737F3FA8A63BF89941A00",
			"Assets": [
				"/Game/Meshes/Bumper/M_BumperMetal"
			]
		},
		{
			"ShaderMapHash": "222D689F4330BCDB131336281FF55410D3C5059E",
			"Assets": [
				"/Engine/EngineMaterials/Widget3DPassThrough_Translucent"
			]
		},
		{
			"ShaderMapHash": "8695759F3B5F1720760F56EA0504223B37C0FB8B",
			"Assets": [
				"/Game/Characters/CH_Assets/MasterMaterials/M_MasterEyeMaterial"
			]
		},
		{
			"ShaderMapHash": "00383AA02E0AFB1C2A8BDDE0DA953EED1CF499AC",
			"Assets": [
				"/Game/Meshes/SeasideHill/ssh_rock_ay2_redrelief04_Cmn_dpn_130",
				"/Game/Meshes/SeasideHill/ssh_rock_ay2_relief09_Cmn_dpn_244"
			]
		},
		{
			"ShaderMapHash": "9DCB31A1483C70648EE9AE39C18B73BDBC6BC200",
			"Assets": [
				"/Game/Particles/Materials/NewMaterials/AirShieldTest_mat"
			]
		},
		{
			"ShaderMapHash": "883438A17D501598831E76CA3E5774C310AD00DD",
			"Assets": [
				"/Game/Meshes/Crates/obj_boxm"
			]
		},
		{
			"ShaderMapHash": "84BAC9A184E539A6A3A77549D0C0F2CE9AE17A14",
			"Assets": [
				"/Game/Characters/CH_Assets/MasterMaterials/M_CH_FurMaster"
			]
		},
		{
			"ShaderMapHash": "1464ECA1464349F25AEC586BAFD0B019A2948589",
			"Assets": [
				"/Game/TexturesAndMaterials/4-TeAndMa/UI_Textures/Theme_Heroes/M_UI_HeroesScroll"
			]
		},
		{
			"ShaderMapHash": "7AFCBEA2EF8D1EEDCB6A7F57727700EBBB8D8CC7",
			"Assets": [
				"/Interchange/gltf/M_Unlit"
			]
		},
		{
			"ShaderMapHash": "88C6F5A233B485B5A89A318EC809988935EDF773",
			"Assets": [
				"/NinjaCharacter/Mannequin/Character/Materials/M_UE4Man_ChestLogo"
			]
		},
		{
			"ShaderMapHash": "DE2E0FA3B970425E4212AB18610417D008B0C527",
			"Assets": [
				"/Game/StarterContent/Materials/M_Wood_Floor_Walnut_Polished"
			]
		},
		{
			"ShaderMapHash": "4BF62DA3BA3BA73D9540558CA8423CABD339F2E2",
			"Assets": [
				"/Game/StarterContent/Materials/M_Ground_Gravel"
			]
		},
		{
			"ShaderMapHash": "6B0BC1A3E62A9D2F45AE09E36CEEBF931C3BF6DC",
			"Assets": [
				"/Game/Characters/Wisps/PF_Wisp/NS_FrenzySmog"
			]
		},
		{
			"ShaderMapHash": "CA32EEA3E00FAF31EF2624CE5CBFF2AB59BFF0EB",
			"Assets": [
				"/Engine/EngineMaterials/FlattenMaterial_WS_Normal_VT"
			]
		},
		{
			"ShaderMapHash": "5DA1FFA40A5BA1CE0D831E94D08C1719461E1078",
			"Assets": [
				"/Engine/EngineMaterials/Widget3DPassThrough_Opaque_OneSided"
			]
		},
		{
			"ShaderMapHash": "C35B48A5EF60A4DE28695A2FCEAF436E96E72C56",
			"Assets": [
				"/Game/Meshes/GreenHill/ghz_km_totemB",
				"/Game/Meshes/GreenHill/ghz_tn_woodbridgeboard_001",
				"/Game/Meshes/GreenHill/ghz_tn_woodbridgeboard_002",
				"/Game/Meshes/GreenHill/ghz_tn_woodbridgelog_001",
				"/Game/Meshes/GreenHill/Meshes/ghz_km_logbridge02"
			]
		},
		{
			"ShaderMapHash": "34E938A6CDD7F6CA88D7C73721928D712C0876BA",
			"Assets": [
				"/Game/Objects/Assets/WaterMaterial"
			]
		},
		{
			"ShaderMapHash": "8CA6DAA737B278EFD8D97699424A0E633C3EE0AA",
			"Assets": [
				"/Game/StarterContent/Materials/M_AssetPlatform"
			]
		},
		{
			"ShaderMapHash": "AF3F0EA8CE177DAB258FE7DA2DB6738DA1BF0B07",
			"Assets": [
				"/Game/Characters/CH_Assets/NS_DrillCombo"
			]
		},
		{
			"ShaderMapHash": "E794AFA828D881A75116D0E1AFB18C3807DD074B",
			"Assets": [
				"/Game/Particles/Materials/ef_n01_com_bubble01_Mat"
			]
		},
		{
			"ShaderMapHash": "453002A92000455BDFED500AA46AE31A5D13F2CE",
			"Assets": [
				"/Game/Particles/AddedParticles/Textures/IE+"
			]
		},
		{
			"ShaderMapHash": "0C1670A95613B2B36619003D797148C03E036B7A",
			"Assets": [
				"/Engine/EngineMaterials/DefaultDeferredDecalMaterial"
			]
		},
		{
			"ShaderMapHash": "A0EB59AABFEA4CE6496A9DB2E59C269DF7236521",
			"Assets": [
				"/Game/Enemies/GUNHunter/Model/enm_ghunter_camera",
				"/Game/Enemies/GUNHunter/Model/enm_ghunter_lamp"
			]
		},
		{
			"ShaderMapHash": "35F4CCAB596018A8DE25F26CC7B4D6A69FDD1EFE",
			"Assets": [
				"/Game/Meshes/SeasideHill/ssh_plant_in1_bananaB_Common_d"
			]
		},
		{
			"ShaderMapHash": "036B2BAC71E00A20B87ED7DEF806A7983F10F241",
			"Assets": [
				"/Game/Meshes/GreenHill/ghz_ground_sk_earth02"
			]
		},
		{
			"ShaderMapHash": "DB8A3BAD42DD0634F9AC321AB154B9D5E3396859",
			"Assets": [
				"/Game/Characters/CH_Assets/NS_DrillCombo_EX"
			]
		},
		{
			"ShaderMapHash": "61D80EAEDD9F7D001341EBF52621646441028490",
			"Assets": [
				"/Game/LevelPrototyping/Materials/M_PrototypeGrid",
				"/Game/LevelPrototyping/Materials/M_PrototypeGridTUO",
				"/Game/LevelPrototyping/Materials/MI_PrototypeGrid_Gray_02"
			]
		},
		{
			"ShaderMapHash": "82C736AE25119D86A2651C8649DDA54153BA6874",
			"Assets": [
				"/Engine/EngineMaterials/Widget3DPassThrough_Masked_OneSided"
			]
		},
		{
			"ShaderMapHash": "8D4082AE52C55F05A52FBFC842333E4409759583",
			"Assets": [
				"/Game/Meshes/Crates/M_DestShine"
			]
		},
		{
			"ShaderMapHash": "928A7CB046132F7F20752496C545CA6D4D5E8830",
			"Assets": [
				"/Game/TexturesAndMaterials/2_Materials/M_WorldPositionTest"
			]
		},
		{
			"ShaderMapHash": "B58DCEB070E8690B1E5ABEF19139B65B29181044",
			"Assets": [
				"/Niagara/DefaultAssets/DefaultSpriteMaterial"
			]
		},
		{
			"ShaderMapHash": "C131FBB097462167E69A0996432E8DF998E17BD5",
			"Assets": [
				"/Game/Particles/Materials/ef_w01_com_loop_wind01_MAT"
			]
		},
		{
			"ShaderMapHash": "F60CF9B12D9D2D733960EDBE9E42B04E020EA334",
			"Assets": [
				"/Game/StarterContent/Particles/Materials/m_flare_B"
			]
		},
		{
			"ShaderMapHash": "8171A6B26EA13E331EACDE542719EAF65ED371FE",
			"Assets": [
				"/Game/Particles/Materials/TailTrail"
			]
		},
		{
			"ShaderMapHash": "8DE0E4B3DB3DD769F0730863C75F1F1225B58E63",
			"Assets": [
				"/NinjaCharacter/Mannequin/Character/Materials/M_UE4Man_Body"
			]
		},
		{
			"ShaderMapHash": "B22094B4AF1D9A60BA70BBDFB5737E4D7DEA0D64",
			"Assets": [
				"/Engine/EngineMaterials/FlattenMaterial",
				"/Engine/EngineMaterials/FlattenMaterial_VT"
			]
		},
		{
			"ShaderMapHash": "57E8D4B4E4FA09F91AF73142788DFD267D6F4F5D",
			"Assets": [
				"/Game/Particles/AddedParticles/NewShields/M_Add_Sprite_Master_DepthFade"
			]
		},
		{
			"ShaderMapHash": "E7B1ECB4A84AD64C5A937D799A0BADA07885C961",
			"Assets": [
				"/Game/Objects/Assets/DashPanel/cmn_body_ms_dashpanel_dif",
				"/Game/Objects/Assets/DashPanel/cmn_metal_ms_dashpanel_dif",
				"/Game/Objects/Assets/DashRamp/cmn_obj_jumppanel_HD_body01",
				"/Game/Objects/Assets/TrickRamp/cmn_obj_trickpanel_HD_body01"
			]
		},
		{
			"ShaderMapHash": "094A23B5D4D3B7C5505C6C5260B191C300774D00",
			"Assets": [
				"/Game/Particles/Materials/Nothing"
			]
		},
		{
			"ShaderMapHash": "B1F938B573A86FD25B5F3832056DF1D0224076A0",
			"Assets": [
				"/Game/Characters/CH_Assets/NS_DrillCombo_EX"
			]
		},
		{
			"ShaderMapHash": "05D8F1B5AC360DFB72D2469C1E2CDD496CA8CB21",
			"Assets": [
				"/Interchange/gltf/MaterialInstances/MI_Default_Opaque_DS"
			]
		},
		{
			"ShaderMapHash": "FF6706B6C261C93AE1EA711CA4F3AE57CE54F7B9",
			"Assets": [
				"/Game/Particles/Materials/ScreenRippleM"
			]
		},
		{
			"ShaderMapHash": "A6F081B62D959EC489D68F5315FFB28797FCB3C1",
			"Assets": [
				"/Game/StarterContent/Materials/M_Concrete_Grime"
			]
		},
		{
			"ShaderMapHash": "67899DB6004926BD9B3A0B1E9215BEDA165C82AA",
			"Assets": [
				"/Game/StarterContent/Materials/M_CobbleStone_Pebble"
			]
		},
		{
			"ShaderMapHash": "2608BDB775BDCACCDE98659BD20E0114731F9C2C",
			"Assets": [
				"/Engine/EngineMaterials/WorldGridMaterial"
			]
		},
		{
			"ShaderMapHash": "5DB10CB8C8582F41DDFAD857B6A5CFE2AEBB19A0",
			"Assets": [
				"/Game/Particles/AddedParticles/BlazeParticles/NewFireLit"
			]
		},
		{
			"ShaderMapHash": "D4AE21B8D71BC384ED94E781543654C55C9FC15A",
			"Assets": [
				"/Game/TexturesAndMaterials/4-TeAndMa/LevelTexture/SHZ/M_SH_Path",
				"/Game/TexturesAndMaterials/4-TeAndMa/LevelTexture/SHZ/M_SH_Path1"
			]
		},
		{
			"ShaderMapHash": "99F618B9A9E47F06F0F625639E6F05E054C2B0B5",
			"Assets": [
				"/Game/Particles/Materials/P_DmcLens"
			]
		},
		{
			"ShaderMapHash": "4062E1B9C5F1A5D5572647529BD07241C09C8D87",
			"Assets": [
				"/Game/Objects/Assets/ItemBox/M_ItemBox_Modern"
			]
		},
		{
			"ShaderMapHash": "950CFBBA0526397FA57E4675969BE23DEAFB6698",
			"Assets": [
				"/Game/Meshes/HintRing/M_HintRing_Main"
			]
		},
		{
			"ShaderMapHash": "65FC0BBB24C65FE6D10C98736EF90DBA7CB871A5",
			"Assets": [
				"/Game/Enemies/Spinner/Material/enm_spina_ball_006",
				"/Game/Enemies/Spinner/Material/enm_spina_light_006"
			]
		},
		{
			"ShaderMapHash": "56465ABB00138B62A5CC8E29DA383943C8653FB3",
			"Assets": [
				"/Game/Characters/TeamSol/Blaze/Particles/Niagara/NS_BlazeDoubleJumpSparks"
			]
		},
		{
			"ShaderMapHash": "5C9A6EBBD30A791FF237BF1A59B222B32BC398F1",
			"Assets": [
				"/Interchange/gltf/MaterialInstances/MI_Sheen_Blend"
			]
		},
		{
			"ShaderMapHash": "6E2521BC1920BC5FEC4C0D69C3EB450122E2A875",
			"Assets": [
				"/Game/Enemies/Spinner/Material/NewMaterial",
				"/Game/Meshes/Button/obj_a0_Mat",
				"/Game/Meshes/Button/obj_bob0_Mat",
				"/Game/Meshes/Button/obj_bob1_Mat",
				"/Game/Meshes/Button/obj_net_Mat",
				"/Game/Meshes/Crates/obj_boxu",
				"/Game/Meshes/Flickys/Materials/M_ani_eye_spc",
				"/Game/Meshes/GreenHill/ghz_km_palm_05",
				"/Game/Meshes/SeasideHill/ssh_ground_in1_background01_IgnoreLight_d_003",
				"/Game/Meshes/SeasideHill/ssh_rock_in1_wall04_dif_Mat",
				"/Game/TexturesAndMaterials/2_Materials/ScWnNormalStar_StarC"
			]
		},
		{
			"ShaderMapHash": "857C5CBC16358864EF0B18FCD61FE8F763753678",
			"Assets": [
				"/Game/Characters/CH_Assets/NS_DrillCombo"
			]
		},
		{
			"ShaderMapHash": "E3C3B5BC1DF18DB4DE6A9DFD29AFF589DD4686BD",
			"Assets": [
				"/Engine/EngineMaterials/Widget3DPassThrough_Masked"
			]
		},
		{
			"ShaderMapHash": "9A30BBBC18784BFDDCF69BFA313C7DB8204DFDA8",
			"Assets": [
				"/Game/Enemies/Spinner/Material/enm_spina_body_006"
			]
		},
		{
			"ShaderMapHash": "1C3BEBBDA1BAC593621FEE350FD8361AC1B2763D",
			"Assets": [
				"/Game/Characters/Wisps/RB_Wisp/NS_BurstPreview"
			]
		},
		{
			"ShaderMapHash": "E25A51BE6E1618FB780735E7941E27B441E50C92",
			"Assets": [
				"/Game/StarterContent/Particles/Materials/m_flare"
			]
		},
		{
			"ShaderMapHash": "7125ACBF64728C7AD2C3527DA4DB3A2F9D09A106",
			"Assets": [
				"/Game/Characters/CH_Assets/Actors/Mesh/Jump/M_BallSpin"
			]
		},
		{
			"ShaderMapHash": "1E7955C0807140B9F17427AD23A436B1E5A9C08B",
			"Assets": [
				"/Game/Characters/CH_Assets/Actors/Mesh/M_ForcesBall"
			]
		},
		{
			"ShaderMapHash": "1D2370C078AB112621C3E0955792D7B698F38D52",
			"Assets": [
				"/Game/Meshes/SeasideHill/ssh_water_ay2_sidewater03_Distortion_dsne1_051"
			]
		},
		{
			"ShaderMapHash": "07008FC09FAB9DDC17A59AB5BF0AA303B8C0017E",
			"Assets": [
				"/Game/Meshes/SeasideHill/ssh_plant_in1_palm01_Common_d_105"
			]
		},
		{
			"ShaderMapHash": "F2F118C1A2FD75C74189D08F3DC4DB3709C6170F",
			"Assets": [
				"/Interchange/gltf/M_SpecularGlossiness"
			]
		},
		{
			"ShaderMapHash": "6824ACC26919A6C40142BFA1A9872998547B292F",
			"Assets": [
				"/Interchange/gltf/M_Sheen"
			]
		},
		{
			"ShaderMapHash": "E5BE5CC3E5F2DCF2F458233637F71937417A4E29",
			"Assets": [
				"/Game/Characters/Wisps/OR_Wisp/fx_RocketPlumeSplash"
			]
		},
		{
			"ShaderMapHash": "BC4BF4C35701F63A6FE642DDC8DD005DF5768AD1",
			"Assets": [
				"/Interchange/gltf/M_ClearCoat"
			]
		},
		{
			"ShaderMapHash": "7C61A0C4DFCE5C7AE9B6C51BE510175433B5D533",
			"Assets": [
				"/Game/StarterContent/Particles/Materials/M_Spark"
			]
		},
		{
			"ShaderMapHash": "0FBB43C516075698FFA784173CEA280283FC9622",
			"Assets": [
				"/Game/Particles/LaserBeam_Mat"
			]
		},
		{
			"ShaderMapHash": "39F960C62C4591E7FFB888B5ED5392FE7272EAAC",
			"Assets": [
				"/Engine/VREditor/TransformGizmo/Xray",
				"/Game/Enemies/Spinner/Material/Material_001",
				"/Game/Enemies/Spinner/Material/Material_002",
				"/Game/Enemies/Spinner/Material/Material_003",
				"/Game/Enemies/Spinner/Material/Material_005",
				"/Game/Meshes/GreenHill/ghz_ground_sk_grass01_panch",
				"/Game/Meshes/GreenHill/ghz_km1_medium",
				"/Game/Meshes/GreenHill/ghz_rock_yy_wall01_dif",
				"/Game/Meshes/GreenHill/Grass",
				"/Game/Meshes/GreenHill/GrassEdge",
				"/Game/Meshes/GreenHill/Ground",
				"/Game/Meshes/LevelMeshes/SHZ/TempNew/ssh_obj_buoy_body_006",
				"/Game/Meshes/LevelMeshes/SHZ/TempNew/ssh_obj_buoy_light_006",
				"/Game/Meshes/Material",
				"/Game/Objects/Assets/ItemBox/ContainedMeshes/Invinc"
			]
		},
		{
			"ShaderMapHash": "175D7AC6E4F00F4BF55F833285319E8681BD773E",
			"Assets": [
				"/Game/Meshes/mis_obj_ani_eye",
				"/Game/Meshes/mis_obj_ani_flickyA_body"
			]
		},
		{
			"ShaderMapHash": "5F7024C737C4044340805A27D5CA3FF8BDE0C8EC",
			"Assets": [
				"/Game/Characters/TeamSol/Blaze/Particles/Niagara/CloudParticle"
			]
		},
		{
			"ShaderMapHash": "A4864CC7E3C29B8F1F55712FED7FC6F76525F191",
			"Assets": [
				"/Game/Characters/Sonic/Particles/M_InstaShield_Fresnel"
			]
		},
		{
			"ShaderMapHash": "12D456C7D2C55271C6AE46DB80EE6679F77A93E9",
			"Assets": [
				"/Game/Widgets/01-HUD/Heroes/Textures/M_FontTest",
				"/Game/Widgets/01-HUD/Heroes/Textures/M_RingCountFont"
			]
		},
		{
			"ShaderMapHash": "6F3490C74F2D833A65E04F00F7A4A510DE266C0E",
			"Assets": [
				"/Game/Characters/Sonic/Models/Sonic/sonic_gm_cloth",
				"/Game/Characters/Sonic/Models/Sonic/sonic_gm_shoes_belt",
				"/Game/Characters/TeamSonic/Sonic/Models/Sonic/sonic_gm_cloth",
				"/Game/Characters/TeamSonic/Sonic/Models/Sonic/sonic_gm_shoes_belt"
			]
		},
		{
			"ShaderMapHash": "8F6BBFC87BCE66E7C6C2FA564D32D6AB0A3AA2A3",
			"Assets": [
				"/Game/TexturesAndMaterials/Decals/GroundCrackDecal"
			]
		},
		{
			"ShaderMapHash": "C659A1C90A09461F37E98228883D17CD7B592DBD",
			"Assets": [
				"/Game/Particles/Materials/NewMaterials/M_Fire_subsurface"
			]
		},
		{
			"ShaderMapHash": "DF5C25CAFB3E342B509F4358E173FD0DE458BF26",
			"Assets": [
				"/Game/StarterContent/Particles/Materials/M_radial_ramp"
			]
		},
		{
			"ShaderMapHash": "A9B630CAE1E9849F72AC85C5C5F6CC69D1511CBD",
			"Assets": [
				"/Game/Characters/TeamSol/Blaze/Particles/Niagara/CloudParticle"
			]
		},
		{
			"ShaderMapHash": "A00CD9CAFD8142A4A214059DED7E2EC58747522B",
			"Assets": [
				"/Game/Particles/Materials/fx_sphere_smoke"
			]
		},
		{
			"ShaderMapHash": "16DC38CB181344556F661982651F9AADEFDCC1E6",
			"Assets": [
				"/Game/Characters/TeamSol/Blaze/1-Model/Materials/M_BL_Necklace"
			]
		},
		{
			"ShaderMapHash": "6DB078CD55222DBBF7B03C371F20AB32B7506760",
			"Assets": [
				"/Game/Characters/Sonic/Particles/M_InstaShield_Spri"
			]
		},
		{
			"ShaderMapHash": "BEF386CDF2B7B8302C6336251C024BFCA4CC4EE6",
			"Assets": [
				"/Game/Particles/Niagara/Wisp/KnucklesFire"
			]
		},
		{
			"ShaderMapHash": "AFFF8FCD794816814BBF976E26419AA70B882F33",
			"Assets": [
				"/Game/StarterContent/Materials/M_Brick_Clay_Beveled"
			]
		},
		{
			"ShaderMapHash": "64300CCE19D20E24223F99804BF7731ECF7A8346",
			"Assets": [
				"/Game/Particles/AddedParticles/BlazeParticles/NewFireUnlit"
			]
		},
		{
			"ShaderMapHash": "1AD49FCE38785C309C2D4E78870BEFD11A9D9DB4",
			"Assets": [
				"/Engine/VREditor/SnapGrid/SnapGridMaterial"
			]
		},
		{
			"ShaderMapHash": "43E736CF34C4FA831F66398C6BBB4DD217673F86",
			"Assets": [
				"/Game/Characters/CH_Assets/Actors/Mesh/Boost/M_Boost4"
			]
		},
		{
			"ShaderMapHash": "5930E3D12DF88F8F278B584AC4B06FAAC2BDD6B8",
			"Assets": [
				"/Engine/EditorMaterials/PhAT_NoCollisionMaterial"
			]
		},
		{
			"ShaderMapHash": "746423D224E38E886B541B48C3ECC5DCABE8621A",
			"Assets": [
				"/Game/Particles/Effects/Materials/M_ElectricalNoise_Vert"
			]
		},
		{
			"ShaderMapHash": "ED017AD2441C5875C16BA486404C7DED3EA0FB76",
			"Assets": [
				"/Game/StarterContent/Materials/M_Wood_Pine"
			]
		},
		{
			"ShaderMapHash": "6BB08CD287D282087FACB8A45CA5443B6B06898D",
			"Assets": [
				"/ControlRig/Controls/ControlRigGizmoMaterial"
			]
		},
		{
			"ShaderMapHash": "EBD1F6D206B4EC2F91AD6375EA598559696C94E6",
			"Assets": [
				"/Game/Meshes/GreenHill/ghz_ground_sk_earth05"
			]
		},
		{
			"ShaderMapHash": "A78BA3D37B5FDBC7C2C5380A214EC7DE6FBDDAFA",
			"Assets": [
				"/Game/Objects/Assets/M_EmeraldShard"
			]
		},
		{
			"ShaderMapHash": "946CE6D31C3590569F4AFF53EAEAD65ACD0DD8D5",
			"Assets": [
				"/Interchange/gltf/MaterialInstances/MI_ClearCoat_Blend"
			]
		},
		{
			"ShaderMapHash": "CECD44D47EB0726D22907F6E2245B8297BF415F3",
			"Assets": [
				"/Game/Characters/Wisps/CL_Wisp/Assets/M_LaserParticle_01"
			]
		},
		{
			"ShaderMapHash": "65EEC0D42C37DCCDE9718D5F31B3544C7E38AFCE",
			"Assets": [
				"/Engine/VREditor/TransformGizmo/TransformGizmoMaterial"
			]
		},
		{
			"ShaderMapHash": "A9DAC4D4A3D54E2A683FD8538049360D2A3966A0",
			"Assets": [
				"/Game/Meshes/SeasideHill/ssh_plant_in1_moss01_trans_Common_dn_017"
			]
		},
		{
			"ShaderMapHash": "29EB8FD55DB94EADDF665004BA9790AFBF467BFF",
			"Assets": [
				"/Game/Characters/TeamSol/Blaze/1-Model/Materials/M_BL_Shoe"
			]
		},
		{
			"ShaderMapHash": "97F98DD691D9368154E430EABEB5D75A73FE4E45",
			"Assets": [
				"/Game/Characters/Wisps/PS_Wisp/Wisp/M_Spike_Spin"
			]
		},
		{
			"ShaderMapHash": "4139ABD6080F68E1E0057F49014A5DDD0E6C04B3",
			"Assets": [
				"/Game/StarterContent/Materials/M_Water_Ocean"
			]
		},
		{
			"ShaderMapHash": "A95DE5D6AD91ED88D2EBFE08853E13E143CD8F27",
			"Assets": [
				"/Game/TexturesAndMaterials/Decals/ExplosionDecal"
			]
		},
		{
			"ShaderMapHash": "DEC82ED7B099DFFBE3CA300683D70EDC10B23894",
			"Assets": [
				"/Game/Particles/Effects/Materials/M_ElectricalGlow"
			]
		},
		{
			"ShaderMapHash": "C54C39D7CE40BDD895D2530433DA7DCAAFEC0E53",
			"Assets": [
				"/Game/StarterContent/Materials/M_Rock_Marble_Polished"
			]
		},
		{
			"ShaderMapHash": "DE245BD745B811C9D1022110A83336CF0A1F5260",
			"Assets": [
				"/Game/TexturesAndMaterials/2_Materials/Flare_M"
			]
		},
		{
			"ShaderMapHash": "B4E1ADD7CCC9B510AF046FEC5A3699152D6DFD49",
			"Assets": [
				"/Game/Characters/TeamSol/Blaze/Model/M_BL_BurnSuit1"
			]
		},
		{
			"ShaderMapHash": "0C2CF3D77BEA65AB398EDC27F4394C0046ED9533",
			"Assets": [
				"/Game/Objects/Assets/ItemBox/M_IB_Box"
			]
		},
		{
			"ShaderMapHash": "B0844ED82B090AFAE2FE715A6C967645A61AB0DF",
			"Assets": [
				"/Game/Characters/Wisps/CE_Wisp/M_CrimsonRibbon"
			]
		},
		{
			"ShaderMapHash": "8C5C59D842A01B480ED142DB08E9AE2A2B41D2A3",
			"Assets": [
				"/Game/Particles/Materials/AfterimageMAT"
			]
		},
		{
			"ShaderMapHash": "50E7C5D864934BBCE612CC4D7A4F57FFD9A04C57",
			"Assets": [
				"/Interchange/gltf/MaterialInstances/MI_Unlit_Mask"
			]
		},
		{
			"ShaderMapHash": "240843D9BB4C6BAEDE4E6F8B2A144085F784DAAE",
			"Assets": [
				"/Game/Characters/CH_Assets/NS_DrillCombo"
			]
		},
		{
			"ShaderMapHash": "BF45CFD90CBD932F78709BE3CF8C9B65BAFF4A4F",
			"Assets": [
				"/Game/TexturesAndMaterials/DefaultAssets/DefaultSpriteMaterial"
			]
		},
		{
			"ShaderMapHash": "161D65DA2A87641CCB1CC27CBE6E2FF606220653",
			"Assets": [
				"/Game/TexturesAndMaterials/2_Materials/M_Crate"
			]
		},
		{
			"ShaderMapHash": "261CE4DB4AA7BB46A3170B2EB4F622B0922DE99D",
			"Assets": [
				"/Game/Particles/AddedParticles/Shield/Textures/FireShield_MAT"
			]
		},
		{
			"ShaderMapHash": "1D1C7DDC0A6B500919D027FDCC544C9AFECB9D69",
			"Assets": [
				"/Game/Characters/TeamSonic/Knuckles/3-Particles/K_Burrow_System_Start"
			]
		},
		{
			"ShaderMapHash": "00A292DD9B8DC6E03CCC1F9C6C99F386197180C1",
			"Assets": [
				"/Niagara/DefaultAssets/DefaultRIbbonMaterial"
			]
		},
		{
			"ShaderMapHash": "201BB2DD52D663BA1193220D1E78C3FF936C21DB",
			"Assets": [
				"/Game/ThirdPerson/Maps/ThirdPersonMap"
			]
		},
		{
			"ShaderMapHash": "C604CADD47525837A020A5A1FD085016823FE824",
			"Assets": [
				"/Game/Meshes/M_WorldGridMaterialCustom"
			]
		},
		{
			"ShaderMapHash": "B31B0BDECD07791CA088651150FB5EF3E774EEF0",
			"Assets": [
				"/Game/StarterContent/Particles/Materials/M_Heat_Distortion"
			]
		},
		{
			"ShaderMapHash": "E47F26DEB4EAE6B62C47695EF646FC9BBD3DB5F2",
			"Assets": [
				"/Game/StarterContent/Materials/M_Metal_Rust"
			]
		},
		{
			"ShaderMapHash": "C9A35BDE6319CEB393FEFB239637759BA78BE417",
			"Assets": [
				"/Game/Objects/Assets/Springs/Spring/M_SpringM"
			]
		},
		{
			"ShaderMapHash": "12828EDECCC95500F8AA55A45D13D15A1D349610",
			"Assets": [
				"/Game/StarterContent/Props/Materials/M_Statue"
			]
		},
		{
			"ShaderMapHash": "9B0BBADEC69ABB75ABB689D1A925C0B401ECF649",
			"Assets": [
				"/Game/Meshes/Crates/M_PropMaster"
			]
		},
		{
			"ShaderMapHash": "6E254EDFAE7EE9004F0FF7B538E918811FE1431E",
			"Assets": [
				"/Game/StarterContent/Props/Materials/M_Rock"
			]
		},
		{
			"ShaderMapHash": "3A16DEDF2B7691250674D6184A1C6601A9FFE4D0",
			"Assets": [
				"/Game/Objects/Assets/DashRamp/cmn_obj_jumppanel_HD_belt",
				"/Game/Objects/Assets/TrickRamp/cmn_obj_trickpanel_HD_belt"
			]
		},
		{
			"ShaderMapHash": "AFDC15E0EEA3CFD6032F81223E23369B90331604",
			"Assets": [
				"/Engine/VREditor/TransformGizmo/TranslucentTransformGizmoMaterial"
			]
		},
		{
			"ShaderMapHash": "BFD7CDE1F325C0DA2883F9C7EFE3F8B954B5657D",
			"Assets": [
				"/Engine/EngineMaterials/NaniteHiddenSectionMaterial"
			]
		},
		{
			"ShaderMapHash": "DF1417E250566AE8CE519A463BD13C8C820FA51A",
			"Assets": [
				"/Game/Particles/Materials/ef_ch_sns_yh1_water_splash2",
				"/Game/Particles/Materials/ef_ch_sns_yh1_water_splash3",
				"/Game/Particles/Materials/ef_ch_sns_yh1_water_splash4"
			]
		},
		{
			"ShaderMapHash": "2AF64BE2E4FF584E0E56D4FDE6F2B4D9C1319D0E",
			"Assets": [
				"/Game/Particles/Materials/ef_ch_sns_yh1_ringget2_Mat"
			]
		},
		{
			"ShaderMapHash": "A3DBC3E2CEF2F87852620F01B758FA8ADAEE4A27",
			"Assets": [
				"/Game/Characters/CH_Assets/NS_DrillCombo"
			]
		},
		{
			"ShaderMapHash": "EE2C86E338D45C9098CBF4373B1BC703ED718351",
			"Assets": [
				"/Game/StarterContent/Materials/M_Wood_Walnut"
			]
		},
		{
			"ShaderMapHash": "4C7C98E32D4727A33A2B020A41F9ED215F237141",
			"Assets": [
				"/Interchange/gltf/MaterialInstances/MI_SpecularGlossiness_Mask"
			]
		},
		{
			"ShaderMapHash": "8DBD0BE55AAB73CFB3AD7DA8C60C1581AEED1CD1",
			"Assets": [
				"/Interchange/gltf/MaterialInstances/MI_Unlit_Blend_DS"
			]
		},
		{
			"ShaderMapHash": "843052E58C35F244D1146FAAC3863D6376D6D1DB",
			"Assets": [
				"/Engine/EditorMeshes/ColorCalibrator/M_ChromeBall"
			]
		},
		{
			"ShaderMapHash": "25C5CFE5F6AC4C9D119E0D4BAF1A74C1DCC83289",
			"Assets": [
				"/Game/Objects/Assets/GrindBooster/Arrow"
			]
		},
		{
			"ShaderMapHash": "DE5F6CE668094B6381E69A66084E278A21DCB08F",
			"Assets": [
				"/Game/TexturesAndMaterials/2_Materials/M_Gens_Master"
			]
		},
		{
			"ShaderMapHash": "D42066E79C6CB3BA847D8AA6F3DC70D1227DC9A9",
			"Assets": [
				"/Game/Particles/AddedParticles/NewShields/M_Add_Sprite_Master"
			]
		},
		{
			"ShaderMapHash": "C47F11E8F75480942D582FBBD3ACB8F7A45C6FE9",
			"Assets": [
				"/Game/Particles/Materials/Speedlines"
			]
		},
		{
			"ShaderMapHash": "F91B20E80C4D8009C5F60B7A93E602C326834EA4",
			"Assets": [
				"/Game/Objects/Assets/DashRings/Hooptt_Mat"
			]
		},
		{
			"ShaderMapHash": "8EB233E9E6CC81B788083F2A091F47F1A3735AAD",
			"Assets": [
				"/Game/Characters/Wisps/CL_Wisp/Assets/M_LaserParticle_02",
				"/Game/Particles/Niagara/M_Smoke"
			]
		},
		{
			"ShaderMapHash": "CF1A02EAE6C838628E87B3C78E5CC270DA2FD9A4",
			"Assets": [
				"/Game/Particles/Niagara/Explosions-Fire/Toon_Missile/fx_toon_missile"
			]
		},
		{
			"ShaderMapHash": "C38909EAD52D6524063EC367BAE6BFBEDE7FF296",
			"Assets": [
				"/Game/Characters/Sonic/Models/Glass",
				"/Game/Characters/TeamSonic/Sonic/Models/Glass"
			]
		},
		{
			"ShaderMapHash": "35F13FEA041C1A6A46019BF7059A6CD7879CD55F",
			"Assets": [
				"/Game/Characters/CH_Assets/Actors/Mesh/Jump/Textures/M_BallSpin_Outter"
			]
		},
		{
			"ShaderMapHash": "804C47EA1E3CD5E993F5B38132C5E62A9860448D",
			"Assets": [
				"/Game/Meshes/Button/SwitchMat"
			]
		},
		{
			"ShaderMapHash": "64DF5FEA430B0FF0825E97170875B96B11D7B377",
			"Assets": [
				"/ControlRig/M_Manip"
			]
		},
		{
			"ShaderMapHash": "E19A8BEA766C3980EA5C5951745EF98D67B2025D",
			"Assets": [
				"/Game/StarterContent/Materials/M_Tech_Checker_Dot"
			]
		},
		{
			"ShaderMapHash": "F8EA53EB95CAE77426F8A30895259A4E82F25B56",
			"Assets": [
				"/Game/StarterContent/Materials/M_Metal_Burnished_Steel"
			]
		},
		{
			"ShaderMapHash": "3FE1C5ECB344CD29FBE8FF4ECE7AA139A44B418E",
			"Assets": [
				"/Game/TexturesAndMaterials/2_Materials/M_DropShadow",
				"/Game/TexturesAndMaterials/2_Materials/M_DropShadow_Inst"
			]
		},
		{
			"ShaderMapHash": "150742ED021854640D05802B76E6DBCBA765081B",
			"Assets": [
				"/Game/Characters/CH_Assets/NS_DoubleJumpSparks",
				"/Game/Characters/CH_Assets/NS_DoubleJumpSparks_White"
			]
		},
		{
			"ShaderMapHash": "73CE5CED6F175F1554AC0EA702172B9CD8804AE1",
			"Assets": [
				"/Game/Meshes/GreenHill/ghz_ground_sk_earth01",
				"/Game/TexturesAndMaterials/2_Materials/Old/M_GHZ_Grass"
			]
		},
		{
			"ShaderMapHash": "6D0DC9ED2294588A00F575D5CE19BFAC733FC49D",
			"Assets": [
				"/Game/Characters/TeamSonic/Knuckles/3-Particles/K_Burrow_System_Start"
			]
		},
		{
			"ShaderMapHash": "0774D2EDEA4FC212061DA87DFB7B46A536CC9F6F",
			"Assets": [
				"/Game/Particles/Materials/fx_hurricane"
			]
		},
		{
			"ShaderMapHash": "56E289EE7087F846E5CE56E150006C908C2EA5A9",
			"Assets": [
				"/Game/Particles/Materials/NewMaterials/M_Fire"
			]
		},
		{
			"ShaderMapHash": "A4B0CCEEAC743B874D5BA468A0ED7854B349ABC8",
			"Assets": [
				"/Game/Objects/Assets/ItemBox/M_IB_Screen"
			]
		},
		{
			"ShaderMapHash": "B9B6DAEE835ECB331BB4DAB7CEC340E0549A0090",
			"Assets": [
				"/Game/Meshes/Flickys/Materials/M_ani_eye",
				"/Game/Meshes/Flickys/Materials/M_cookieA_body",
				"/Game/Meshes/Flickys/Materials/M_flickyA_body",
				"/Game/Meshes/Flickys/Materials/M_peckyA_body",
				"/Game/Meshes/Flickys/Materials/M_pickyA_body",
				"/Game/Meshes/SpringPole/M_SpringPoleEasy"
			]
		},
		{
			"ShaderMapHash": "8C393EF085701ADE0C4257DAC3E77E1489BC13B1",
			"Assets": [
				"/Game/StarterContent/Props/Materials/M_Chair"
			]
		},
		{
			"ShaderMapHash": "C97853F0117EF50A31F25FCDE4873DB4333C62D5",
			"Assets": [
				"/Game/Characters/Sonic/Models/Sonic/M_Fur",
				"/Game/Characters/TeamSonic/Sonic/Models/Sonic/M_Fur"
			]
		},
		{
			"ShaderMapHash": "03C38FF040F9BDDC7C4CB8390BDFE9D4E0676E05",
			"Assets": [
				"/Game/Particles/Materials/RippleRefraction"
			]
		},
		{
			"ShaderMapHash": "BF498DF183C67F5652EC0881A6730F457D5F6E3E",
			"Assets": [
				"/Game/StarterContent/Materials/M_ColorGrid_LowSpec"
			]
		},
		{
			"ShaderMapHash": "8F0B8EF338ACF4ABE7E96AF4ADCAE0AF1616C629",
			"Assets": [
				"/Engine/EngineMaterials/RemoveSurfaceMaterial",
				"/Game/StarterContent/Blueprints/Assets/M_LightStage_Skybox_Master"
			]
		},
		{
			"ShaderMapHash": "BD0618F40265E72632391E1EF545287760061F61",
			"Assets": [
				"/Game/StarterContent/Materials/M_Tech_Panel"
			]
		},
		{
			"ShaderMapHash": "B52298F494AC9F4F839F2E30C7C781E636E1B02E",
			"Assets": [
				"/Game/Meshes/Crates/M_Crate_Metal",
				"/Game/Meshes/Crates/M_Crate_Wood"
			]
		},
		{
			"ShaderMapHash": "6B9AC7F4B09F498411DF8BEA8260E11898600B1A",
			"Assets": [
				"/Game/Characters/CH_Assets/Actors/Mesh/Boost/emt_ch_sng_yh1_boost_1"
			]
		},
		{
			"ShaderMapHash": "177CCAF4CC7BC6B03953482DE8AF776E7A792E21",
			"Assets": [
				"/Engine/EditorMaterials/Camera/CineMat"
			]
		},
		{
			"ShaderMapHash": "68E41DF5C9F77A945FE7A20B986BC332746A19FA",
			"Assets": [
				"/Game/StarterContent/Particles/Materials/M_smoke_subUV"
			]
		},
		{
			"ShaderMapHash": "903FD7F6099A6C457821DB213F82826661A08E5D",
			"Assets": [
				"/Game/Characters/CH_Assets/MasterMaterials/M_SonicFake"
			]
		},
		{
			"ShaderMapHash": "4C6EE0F6AD215E8D7482F7D07190D94392C2959F",
			"Assets": [
				"/Game/Particles/Materials/TBurst_Mat"
			]
		},
		{
			"ShaderMapHash": "AB8A1EF7BA332D7DE88A14045358BB8122E8C988",
			"Assets": [
				"/Game/Particles/Niagara/Explosions-Fire/Toon_Missile/fx_toon_missile"
			]
		},
		{
			"ShaderMapHash": "1F8F5EF8AC48164D56789B03FB3A52113FB95BF9",
			"Assets": [
				"/Game/Particles/Materials/ef_y01_com_shock_circle02_Mat"
			]
		},
		{
			"ShaderMapHash": "7972B0F9BC566C5E1672C47FE999F9A979AA7B74",
			"Assets": [
				"/Game/Enemies/Spinner/ElecShield_mat"
			]
		},
		{
			"ShaderMapHash": "5BBAD8F96132CB87881AF2A9F248DF029F965063",
			"Assets": [
				"/Game/Meshes/Bumper/BumperRainbow"
			]
		},
		{
			"ShaderMapHash": "02FADAFA1C6491B60F8542CDB804BFE0E5DFD4D3",
			"Assets": [
				"/Game/StarterContent/Materials/M_Ground_Moss"
			]
		},
		{
			"ShaderMapHash": "A31099FB7F72BDA183E869000077459B1190A433",
			"Assets": [
				"/SpeedTreeImporter/SpeedTree9/SpeedTreeBillboardMaster"
			]
		},
		{
			"ShaderMapHash": "810CB2FBD6948BB3DAFC4C46DE654B7A25A1B734",
			"Assets": [
				"/Game/TexturesAndMaterials/M_PostProcOutline"
			]
		},
		{
			"ShaderMapHash": "A41D33FCFCBB144E3BA5D09707EC1DD37B9EEC50",
			"Assets": [
				"/Game/TexturesAndMaterials/2_Materials/M_S_"
			]
		},
		{
			"ShaderMapHash": "C8D883FC3E10F54582790B817F8DEE07428B516B",
			"Assets": [
				"/Game/Characters/TeamSonic/Knuckles/3-Particles/K_Burrow_System_Start"
			]
		},
		{
			"ShaderMapHash": "B90AACFC39C157AB5F95849C07E3C472FBA71F15",
			"Assets": [
				"/Engine/EditorMeshes/ColorCalibrator/M_ClearCoatBlack"
			]
		},
		{
			"ShaderMapHash": "37F346FD8982B2F673E84A234F03A29145C20DD6",
			"Assets": [
				"/SpeedTreeImporter/SpeedTree9/SpeedTreeMaster"
			]
		},
		{
			"ShaderMapHash": "DE6F57FDB081B2569D2413A4F61DDF0B7DFC4D16",
			"Assets": [
				"/Game/Meshes/M_WallGrid"
			]
		},
		{
			"ShaderMapHash": "EFABCDFE4A89A59653097C6C23DE3F5FC021AD30",
			"Assets": [
				"/MeshModelingToolset/Materials/M_DynamicMeshComponentVtxColor"
			]
		},
		{
			"ShaderMapHash": "A2370DFFDB6AF315BC8C7A01BB8D434237E818E1",
			"Assets": [
				"/Game/Characters/TeamSol/Silver/Model/ForcesModel/Light"
			]
		},
		{
			"ShaderMapHash": "D019DEFFAE62F567E33CD562945217D19C84CD2E",
			"Assets": [
				"/Game/Meshes/SeasideHill/ssh_plant_in1_bananaA_TransThin_dpnt"
			]
		}
	]
}