{
	"version": 1,
	"changelists": [
		{
			"guid": "00000000000000000000000000000000",
			"description": "Default Uncontrolled Changelist",
			"files": [
				"C:/Program Files/Epic Games/UE_5.3/Engine/Plugins/Marketplace/NinjaCharacter/Content/NinjaCharacter/Blueprints/NinjaPlayerCharacter_BP.uasset",
				"C:/Program Files/Epic Games/UE_5.3/Engine/Plugins/Marketplace/NinjaCharacter/Content/Assets/Audio/Text_Pop_Cue.uasset",
				"C:/Program Files/Epic Games/UE_5.3/Engine/Plugins/Marketplace/NinjaCharacter/Content/Assets/Audio/Text_Pop.uasset",
				"C:/Program Files/Epic Games/UE_5.3/Engine/Plugins/Marketplace/NinjaCharacter/Content/Assets/Audio/Blueprints_TextPop03.uasset",
				"C:/Program Files/Epic Games/UE_5.3/Engine/Plugins/Marketplace/NinjaCharacter/Content/Assets/Audio/Blueprints_TextPop01.uasset",
				"C:/Program Files/Epic Games/UE_5.3/Engine/Plugins/Marketplace/NinjaCharacter/Content/Assets/Materials/M_TextMaterial_Opaque_Emissive.uasset",
				"C:/Program Files/Epic Games/UE_5.3/Engine/Plugins/Marketplace/NinjaCharacter/Content/Assets/Materials/M_TextBox_Icon_Info.uasset",
				"C:/Program Files/Epic Games/UE_5.3/Engine/Plugins/Marketplace/NinjaCharacter/Content/Assets/Materials/M_TextBox_Color.uasset",
				"C:/Program Files/Epic Games/UE_5.3/Engine/Plugins/Marketplace/NinjaCharacter/Content/Assets/Materials/M_TextBox_Background_Color_Edge_Inst.uasset",
				"C:/Program Files/Epic Games/UE_5.3/Engine/Plugins/Marketplace/NinjaCharacter/Content/Assets/Materials/M_TextBox_Background_Color.uasset",
				"C:/Program Files/Epic Games/UE_5.3/Engine/Plugins/Marketplace/NinjaCharacter/Content/Assets/Materials/M_Particle_Effect_Ring.uasset",
				"C:/Program Files/Epic Games/UE_5.3/Engine/Plugins/Marketplace/NinjaCharacter/Content/Assets/Meshes/SM_TextBox_Icon_Info.uasset",
				"C:/Program Files/Epic Games/UE_5.3/Engine/Plugins/Marketplace/NinjaCharacter/Content/Assets/Meshes/SM_TextBox_Border_Segment.uasset",
				"C:/Program Files/Epic Games/UE_5.3/Engine/Plugins/Marketplace/NinjaCharacter/Content/Assets/Meshes/SM_TextBox_Border_Corner.uasset",
				"C:/Program Files/Epic Games/UE_5.3/Engine/Plugins/Marketplace/NinjaCharacter/Content/Assets/Meshes/SM_TextBox_Border_Background.uasset",
				"C:/Program Files/Epic Games/UE_5.3/Engine/Plugins/Marketplace/NinjaCharacter/Content/Assets/Textures/T_TextBox_Icon_M.uasset",
				"C:/Program Files/Epic Games/UE_5.3/Engine/Plugins/Marketplace/NinjaCharacter/Content/Assets/Textures/T_Effect_Ring.uasset",
				"C:/Program Files/Epic Games/UE_5.3/Engine/Plugins/Marketplace/NinjaCharacter/Content/Blueprints/BP_Commentary_Box.uasset",
				"C:/Program Files/Epic Games/UE_5.3/Engine/Plugins/Marketplace/NinjaCharacter/Content/Characters/HeroTPP/Animations/Run_Rt.uasset",
				"C:/Program Files/Epic Games/UE_5.3/Engine/Plugins/Marketplace/NinjaCharacter/Content/Characters/HeroTPP/Animations/Run_Lt.uasset",
				"C:/Program Files/Epic Games/UE_5.3/Engine/Plugins/Marketplace/NinjaCharacter/Content/Characters/HeroTPP/Animations/Run_Fwd.uasset",
				"C:/Program Files/Epic Games/UE_5.3/Engine/Plugins/Marketplace/NinjaCharacter/Content/Characters/HeroTPP/Animations/Run_Bwd.uasset",
				"C:/Program Files/Epic Games/UE_5.3/Engine/Plugins/Marketplace/NinjaCharacter/Content/Characters/HeroTPP/Animations/RunTPP.uasset",
				"C:/Program Files/Epic Games/UE_5.3/Engine/Plugins/Marketplace/NinjaCharacter/Content/Characters/HeroTPP/Animations/JumpStart.uasset",
				"C:/Program Files/Epic Games/UE_5.3/Engine/Plugins/Marketplace/NinjaCharacter/Content/Characters/HeroTPP/Animations/JumpLoop.uasset",
				"C:/Program Files/Epic Games/UE_5.3/Engine/Plugins/Marketplace/NinjaCharacter/Content/Characters/HeroTPP/Animations/JumpEnd.uasset",
				"C:/Program Files/Epic Games/UE_5.3/Engine/Plugins/Marketplace/NinjaCharacter/Content/Characters/HeroTPP/Animations/Idle.uasset",
				"C:/Program Files/Epic Games/UE_5.3/Engine/Plugins/Marketplace/NinjaCharacter/Content/Characters/HeroTPP/Animations/HeroTPP_AnimBP.uasset",
				"C:/Program Files/Epic Games/UE_5.3/Engine/Plugins/Marketplace/NinjaCharacter/Content/Characters/HeroTPP/Meshes/HeroTPP_Skeleton.uasset",
				"C:/Program Files/Epic Games/UE_5.3/Engine/Plugins/Marketplace/NinjaCharacter/Content/Characters/HeroTPP/Meshes/HeroTPP_Physics2.uasset",
				"C:/Program Files/Epic Games/UE_5.3/Engine/Plugins/Marketplace/NinjaCharacter/Content/Characters/HeroTPP/Meshes/HeroTPP.uasset",
				"C:/Program Files/Epic Games/UE_5.3/Engine/Plugins/Marketplace/NinjaCharacter/Content/DemoRoom/BluePrint/BP_DemoDisplay_Enum.uasset",
				"C:/Program Files/Epic Games/UE_5.3/Engine/Plugins/Marketplace/NinjaCharacter/Content/DemoRoom/BluePrint/BP_DemoRoom_Enum.uasset",
				"C:/Program Files/Epic Games/UE_5.3/Engine/Plugins/Marketplace/NinjaCharacter/Content/DemoRoom/BluePrint/RoomDescription.uasset",
				"C:/Program Files/Epic Games/UE_5.3/Engine/Plugins/Marketplace/NinjaCharacter/Content/DemoRoom/BluePrint/DemoRoomStruct.uasset",
				"C:/Program Files/Epic Games/UE_5.3/Engine/Plugins/Marketplace/NinjaCharacter/Content/DemoRoom/BluePrint/BP_DemoTrigger2.uasset",
				"C:/Program Files/Epic Games/UE_5.3/Engine/Plugins/Marketplace/NinjaCharacter/Content/DemoRoom/BluePrint/BP_DemoTrigger.uasset",
				"C:/Program Files/Epic Games/UE_5.3/Engine/Plugins/Marketplace/NinjaCharacter/Content/DemoRoom/BluePrint/BP_DemoRoom.uasset",
				"C:/Program Files/Epic Games/UE_5.3/Engine/Plugins/Marketplace/NinjaCharacter/Content/DemoRoom/BluePrint/BP_DemoDisplay.uasset",
				"C:/Program Files/Epic Games/UE_5.3/Engine/Plugins/Marketplace/NinjaCharacter/Content/DemoRoom/BluePrint/BPInterface_Button.uasset",
				"C:/Program Files/Epic Games/UE_5.3/Engine/Plugins/Marketplace/NinjaCharacter/Content/DemoRoom/Materials/M_LightTube_Inst.uasset",
				"C:/Program Files/Epic Games/UE_5.3/Engine/Plugins/Marketplace/NinjaCharacter/Content/DemoRoom/Materials/M_LightTube.uasset",
				"C:/Program Files/Epic Games/UE_5.3/Engine/Plugins/Marketplace/NinjaCharacter/Content/DemoRoom/Materials/M_Glass_Inst.uasset",
				"C:/Program Files/Epic Games/UE_5.3/Engine/Plugins/Marketplace/NinjaCharacter/Content/DemoRoom/Materials/M_Glass.uasset",
				"C:/Program Files/Epic Games/UE_5.3/Engine/Plugins/Marketplace/NinjaCharacter/Content/DemoRoom/Materials/M_DemoWall_MattPlastic.uasset",
				"C:/Program Files/Epic Games/UE_5.3/Engine/Plugins/Marketplace/NinjaCharacter/Content/DemoRoom/Materials/M_DemoWall_Inst_NamePlate.uasset",
				"C:/Program Files/Epic Games/UE_5.3/Engine/Plugins/Marketplace/NinjaCharacter/Content/DemoRoom/Materials/M_DemoWall_Inst_BaseFloor_Inst.uasset",
				"C:/Program Files/Epic Games/UE_5.3/Engine/Plugins/Marketplace/NinjaCharacter/Content/DemoRoom/Materials/M_DemoWall_Inst_3.uasset",
				"C:/Program Files/Epic Games/UE_5.3/Engine/Plugins/Marketplace/NinjaCharacter/Content/DemoRoom/Materials/M_DemoWall_Inst2.uasset",
				"C:/Program Files/Epic Games/UE_5.3/Engine/Plugins/Marketplace/NinjaCharacter/Content/DemoRoom/Materials/M_DemoWall_Inst.uasset",
				"C:/Program Files/Epic Games/UE_5.3/Engine/Plugins/Marketplace/NinjaCharacter/Content/DemoRoom/Materials/M_DemoWallPattern_NoText.uasset",
				"C:/Program Files/Epic Games/UE_5.3/Engine/Plugins/Marketplace/NinjaCharacter/Content/DemoRoom/Materials/M_DemoWallPattern_Inst_Mirrored.uasset",
				"C:/Program Files/Epic Games/UE_5.3/Engine/Plugins/Marketplace/NinjaCharacter/Content/DemoRoom/Materials/M_DemoWallPattern_Inst.uasset",
				"C:/Program Files/Epic Games/UE_5.3/Engine/Plugins/Marketplace/NinjaCharacter/Content/DemoRoom/Materials/M_DemoWallPattern.uasset",
				"C:/Program Files/Epic Games/UE_5.3/Engine/Plugins/Marketplace/NinjaCharacter/Content/DemoRoom/Materials/M_DemoWall.uasset",
				"C:/Program Files/Epic Games/UE_5.3/Engine/Plugins/Marketplace/NinjaCharacter/Content/DemoRoom/Materials/M_DemoRoomTiles_Inst.uasset",
				"C:/Program Files/Epic Games/UE_5.3/Engine/Plugins/Marketplace/NinjaCharacter/Content/DemoRoom/Materials/M_DemoRoomTiles.uasset",
				"C:/Program Files/Epic Games/UE_5.3/Engine/Plugins/Marketplace/NinjaCharacter/Content/DemoRoom/Materials/M_Button_Inst.uasset",
				"C:/Program Files/Epic Games/UE_5.3/Engine/Plugins/Marketplace/NinjaCharacter/Content/DemoRoom/Materials/M_Button_Chrome.uasset",
				"C:/Program Files/Epic Games/UE_5.3/Engine/Plugins/Marketplace/NinjaCharacter/Content/DemoRoom/Materials/M_Button.uasset",
				"C:/Program Files/Epic Games/UE_5.3/Engine/Plugins/Marketplace/NinjaCharacter/Content/DemoRoom/Materials/DefaultTextMaterialTranslucentUnlit.uasset",
				"C:/Program Files/Epic Games/UE_5.3/Engine/Plugins/Marketplace/NinjaCharacter/Content/DemoRoom/Meshes/SM_URoom_Wall2.uasset",
				"C:/Program Files/Epic Games/UE_5.3/Engine/Plugins/Marketplace/NinjaCharacter/Content/DemoRoom/Meshes/SM_URoom_Wall.uasset",
				"C:/Program Files/Epic Games/UE_5.3/Engine/Plugins/Marketplace/NinjaCharacter/Content/DemoRoom/Meshes/SM_NamePlate.uasset",
				"C:/Program Files/Epic Games/UE_5.3/Engine/Plugins/Marketplace/NinjaCharacter/Content/DemoRoom/Meshes/SM_DemoRoomU_Hole.uasset",
				"C:/Program Files/Epic Games/UE_5.3/Engine/Plugins/Marketplace/NinjaCharacter/Content/DemoRoom/Meshes/SM_DemoRoomU2.uasset",
				"C:/Program Files/Epic Games/UE_5.3/Engine/Plugins/Marketplace/NinjaCharacter/Content/DemoRoom/Meshes/SM_DemoRoomU.uasset",
				"C:/Program Files/Epic Games/UE_5.3/Engine/Plugins/Marketplace/NinjaCharacter/Content/DemoRoom/Meshes/SM_DemoRoomTrimAdd.uasset",
				"C:/Program Files/Epic Games/UE_5.3/Engine/Plugins/Marketplace/NinjaCharacter/Content/DemoRoom/Meshes/SM_DemoRoomTrim2.uasset",
				"C:/Program Files/Epic Games/UE_5.3/Engine/Plugins/Marketplace/NinjaCharacter/Content/DemoRoom/Meshes/SM_DemoRoomTrim.uasset",
				"C:/Program Files/Epic Games/UE_5.3/Engine/Plugins/Marketplace/NinjaCharacter/Content/DemoRoom/Meshes/SM_DemoRoomLTrim.uasset",
				"C:/Program Files/Epic Games/UE_5.3/Engine/Plugins/Marketplace/NinjaCharacter/Content/DemoRoom/Meshes/SM_DemoRoomL.uasset",
				"C:/Program Files/Epic Games/UE_5.3/Engine/Plugins/Marketplace/NinjaCharacter/Content/DemoRoom/Meshes/SM_DemoRoomClamp2.uasset",
				"C:/Program Files/Epic Games/UE_5.3/Engine/Plugins/Marketplace/NinjaCharacter/Content/DemoRoom/Meshes/SM_DemoRoomClamp.uasset",
				"C:/Program Files/Epic Games/UE_5.3/Engine/Plugins/Marketplace/NinjaCharacter/Content/DemoRoom/Meshes/SM_DemoRoomBackWall2.uasset",
				"C:/Program Files/Epic Games/UE_5.3/Engine/Plugins/Marketplace/NinjaCharacter/Content/DemoRoom/Meshes/SM_DemoRoomBackWall.uasset",
				"C:/Program Files/Epic Games/UE_5.3/Engine/Plugins/Marketplace/NinjaCharacter/Content/DemoRoom/Meshes/SM_DemoDivider_2.uasset",
				"C:/Program Files/Epic Games/UE_5.3/Engine/Plugins/Marketplace/NinjaCharacter/Content/DemoRoom/Meshes/SM_DemoDivider_1.uasset",
				"C:/Program Files/Epic Games/UE_5.3/Engine/Plugins/Marketplace/NinjaCharacter/Content/DemoRoom/Meshes/SM_Button.uasset",
				"C:/Program Files/Epic Games/UE_5.3/Engine/Plugins/Marketplace/NinjaCharacter/Content/DemoRoom/Meshes/SM_Base_FlatWall.uasset",
				"C:/Program Files/Epic Games/UE_5.3/Engine/Plugins/Marketplace/NinjaCharacter/Content/DemoRoom/Meshes/SM_BaseRoom.uasset",
				"C:/Program Files/Epic Games/UE_5.3/Engine/Plugins/Marketplace/NinjaCharacter/Content/DemoRoom/Meshes/SM_Base2.uasset",
				"C:/Program Files/Epic Games/UE_5.3/Engine/Plugins/Marketplace/NinjaCharacter/Content/DemoRoom/Meshes/SM_Base.uasset",
				"C:/Program Files/Epic Games/UE_5.3/Engine/Plugins/Marketplace/NinjaCharacter/Content/DemoRoom/Textures/T_UnrealEngineDecal.uasset",
				"C:/Program Files/Epic Games/UE_5.3/Engine/Plugins/Marketplace/NinjaCharacter/Content/DemoRoom/Textures/T_RoomTiles_N.uasset",
				"C:/Program Files/Epic Games/UE_5.3/Engine/Plugins/Marketplace/NinjaCharacter/Content/DemoRoom/Textures/T_RoomTiles_M.uasset",
				"C:/Program Files/Epic Games/UE_5.3/Engine/Plugins/Marketplace/NinjaCharacter/Content/DemoRoom/Textures/T_Pattern_M.uasset",
				"C:/Program Files/Epic Games/UE_5.3/Engine/Plugins/Marketplace/NinjaCharacter/Content/Effects/P_Pulse_Ring.uasset",
				"C:/Program Files/Epic Games/UE_5.3/Engine/Plugins/Marketplace/NinjaCharacter/Content/ExampleContent/Audio/Blueprints/BPI_Interface.uasset",
				"C:/Program Files/Epic Games/UE_5.3/Engine/Plugins/Marketplace/NinjaCharacter/Content/ExampleContent/Audio/Physical_Materials/Rubber.uasset",
				"C:/Program Files/Epic Games/UE_5.3/Engine/Plugins/Marketplace/NinjaCharacter/Content/ExampleContent/Audio/Physical_Materials/Metal.uasset",
				"C:/Program Files/Epic Games/UE_5.3/Engine/Plugins/Marketplace/NinjaCharacter/Content/ExampleContent/Audio/Physical_Materials/Concrete.uasset",
				"C:/Program Files/Epic Games/UE_5.3/Engine/Plugins/Marketplace/NinjaCharacter/Content/Geometry/Meshes/CubeMaterial.uasset",
				"C:/Program Files/Epic Games/UE_5.3/Engine/Plugins/Marketplace/NinjaCharacter/Content/Geometry/Meshes/1M_Cube.uasset",
				"C:/Program Files/Epic Games/UE_5.3/Engine/Plugins/Marketplace/NinjaCharacter/Content/Mannequin/Character/Mesh/UE4_Mannequin_Skeleton.uasset",
				"C:/Program Files/Epic Games/UE_5.3/Engine/Plugins/Marketplace/NinjaCharacter/Content/Mannequin/Animations/ThirdPerson_Jump.uasset",
				"C:/Program Files/Epic Games/UE_5.3/Engine/Plugins/Marketplace/NinjaCharacter/Content/Mannequin/Animations/ThirdPersonJump_Loop.uasset",
				"C:/Program Files/Epic Games/UE_5.3/Engine/Plugins/Marketplace/NinjaCharacter/Content/Mannequin/Animations/ThirdPersonJump_Start.uasset",
				"C:/Program Files/Epic Games/UE_5.3/Engine/Plugins/Marketplace/NinjaCharacter/Content/Mannequin/Animations/ThirdPersonIdle.uasset",
				"C:/Program Files/Epic Games/UE_5.3/Engine/Plugins/Marketplace/NinjaCharacter/Content/Mannequin/Animations/ThirdPersonRun.uasset",
				"C:/Program Files/Epic Games/UE_5.3/Engine/Plugins/Marketplace/NinjaCharacter/Content/Mannequin/Animations/ThirdPersonWalk.uasset",
				"C:/Program Files/Epic Games/UE_5.3/Engine/Plugins/Marketplace/NinjaCharacter/Content/Mannequin/Animations/ThirdPerson_IdleRun_2D.uasset",
				"C:/Program Files/Epic Games/UE_5.3/Engine/Plugins/Marketplace/NinjaCharacter/Content/Mannequin/Animations/ThirdPerson_AnimBP.uasset",
				"C:/Program Files/Epic Games/UE_5.3/Engine/Plugins/Marketplace/NinjaCharacter/Content/Mannequin/Character/Materials/MaterialLayers/T_ML_Rubber_Blue_01_D.uasset",
				"C:/Program Files/Epic Games/UE_5.3/Engine/Plugins/Marketplace/NinjaCharacter/Content/Mannequin/Character/Materials/MaterialLayers/T_ML_Rubber_Blue_01_N.uasset",
				"C:/Program Files/Epic Games/UE_5.3/Engine/Plugins/Marketplace/NinjaCharacter/Content/Mannequin/Character/Materials/MaterialLayers/ML_GlossyBlack_Latex_UE4.uasset",
				"C:/Program Files/Epic Games/UE_5.3/Engine/Plugins/Marketplace/NinjaCharacter/Content/Mannequin/Character/Materials/MaterialLayers/ML_Plastic_Shiny_Beige.uasset",
				"C:/Program Files/Epic Games/UE_5.3/Engine/Plugins/Marketplace/NinjaCharacter/Content/Mannequin/Character/Textures/UE4_LOGO_CARD.uasset",
				"C:/Program Files/Epic Games/UE_5.3/Engine/Plugins/Marketplace/NinjaCharacter/Content/Mannequin/Character/Materials/MaterialLayers/ML_Plastic_Shiny_Beige_LOGO.uasset",
				"C:/Program Files/Epic Games/UE_5.3/Engine/Plugins/Marketplace/NinjaCharacter/Content/Mannequin/Character/Materials/MaterialLayers/T_ML_Aluminum01.uasset",
				"C:/Program Files/Epic Games/UE_5.3/Engine/Plugins/Marketplace/NinjaCharacter/Content/Mannequin/Character/Materials/MaterialLayers/T_ML_Aluminum01_N.uasset",
				"C:/Program Files/Epic Games/UE_5.3/Engine/Plugins/Marketplace/NinjaCharacter/Content/Mannequin/Character/Materials/MaterialLayers/ML_SoftMetal_UE4.uasset",
				"C:/Program Files/Epic Games/UE_5.3/Engine/Plugins/Marketplace/NinjaCharacter/Content/Mannequin/Character/Textures/UE4_Mannequin__normals.uasset",
				"C:/Program Files/Epic Games/UE_5.3/Engine/Plugins/Marketplace/NinjaCharacter/Content/Mannequin/Character/Textures/UE4_Mannequin_MAT_MASKA.uasset",
				"C:/Program Files/Epic Games/UE_5.3/Engine/Plugins/Marketplace/NinjaCharacter/Content/Mannequin/Character/Materials/M_UE4Man_Body.uasset",
				"C:/Program Files/Epic Games/UE_5.3/Engine/Plugins/Marketplace/NinjaCharacter/Content/Mannequin/Character/Textures/UE4Man_Logo_N.uasset",
				"C:/Program Files/Epic Games/UE_5.3/Engine/Plugins/Marketplace/NinjaCharacter/Content/Mannequin/Character/Materials/M_UE4Man_ChestLogo.uasset",
				"C:/Program Files/Epic Games/UE_5.3/Engine/Plugins/Marketplace/NinjaCharacter/Content/Mannequin/Character/Mesh/SK_Mannequin_PhysicsAsset.uasset",
				"C:/Program Files/Epic Games/UE_5.3/Engine/Plugins/Marketplace/NinjaCharacter/Content/Mannequin/Character/Mesh/SK_Mannequin.uasset",
				"C:/Program Files/Epic Games/UE_5.3/Engine/Plugins/Marketplace/NinjaCharacter/Content/Mannequin/Character/Materials/M_UE4Man_Body2.uasset",
				"C:/Program Files/Epic Games/UE_5.3/Engine/Plugins/Marketplace/NinjaCharacter/Content/NinjaCharacter/Blueprints/NinjaGameMode_BP.uasset",
				"C:/Program Files/Epic Games/UE_5.3/Engine/Plugins/Marketplace/NinjaCharacter/Content/NinjaCharacter/Blueprints/NinjaPlayerController_BP.uasset",
				"C:/Program Files/Epic Games/UE_5.3/Engine/Plugins/Marketplace/NinjaCharacter/Content/StarterContent/Architecture/Floor_400x400.uasset",
				"C:/Program Files/Epic Games/UE_5.3/Engine/Plugins/Marketplace/NinjaCharacter/Content/StarterContent/Materials/M_Ground_Grass.uasset",
				"C:/Program Files/Epic Games/UE_5.3/Engine/Plugins/Marketplace/NinjaCharacter/Content/StarterContent/Materials/M_Basic_Wall.uasset",
				"C:/Program Files/Epic Games/UE_5.3/Engine/Plugins/Marketplace/NinjaCharacter/Content/StarterContent/Materials/M_Basic_Floor.uasset",
				"C:/Program Files/Epic Games/UE_5.3/Engine/Plugins/Marketplace/NinjaCharacter/Content/StarterContent/Shapes/Shape_WideCapsule.uasset",
				"C:/Program Files/Epic Games/UE_5.3/Engine/Plugins/Marketplace/NinjaCharacter/Content/StarterContent/Shapes/Shape_Wedge_B.uasset",
				"C:/Program Files/Epic Games/UE_5.3/Engine/Plugins/Marketplace/NinjaCharacter/Content/StarterContent/Shapes/Shape_Wedge_A.uasset",
				"C:/Program Files/Epic Games/UE_5.3/Engine/Plugins/Marketplace/NinjaCharacter/Content/StarterContent/Shapes/Shape_Tube.uasset",
				"C:/Program Files/Epic Games/UE_5.3/Engine/Plugins/Marketplace/NinjaCharacter/Content/StarterContent/Shapes/Shape_TriPyramid.uasset",
				"C:/Program Files/Epic Games/UE_5.3/Engine/Plugins/Marketplace/NinjaCharacter/Content/StarterContent/Shapes/Shape_Trim_90_Out.uasset",
				"C:/Program Files/Epic Games/UE_5.3/Engine/Plugins/Marketplace/NinjaCharacter/Content/StarterContent/Shapes/Shape_Trim_90_In.uasset",
				"C:/Program Files/Epic Games/UE_5.3/Engine/Plugins/Marketplace/NinjaCharacter/Content/StarterContent/Shapes/Shape_Trim.uasset",
				"C:/Program Files/Epic Games/UE_5.3/Engine/Plugins/Marketplace/NinjaCharacter/Content/StarterContent/Shapes/Shape_Torus.uasset",
				"C:/Program Files/Epic Games/UE_5.3/Engine/Plugins/Marketplace/NinjaCharacter/Content/StarterContent/Shapes/Shape_Sphere.uasset",
				"C:/Program Files/Epic Games/UE_5.3/Engine/Plugins/Marketplace/NinjaCharacter/Content/StarterContent/Shapes/Shape_QuadPyramid.uasset",
				"C:/Program Files/Epic Games/UE_5.3/Engine/Plugins/Marketplace/NinjaCharacter/Content/StarterContent/Shapes/Shape_Plane.uasset",
				"C:/Program Files/Epic Games/UE_5.3/Engine/Plugins/Marketplace/NinjaCharacter/Content/StarterContent/Shapes/Shape_Pipe_90.uasset",
				"C:/Program Files/Epic Games/UE_5.3/Engine/Plugins/Marketplace/NinjaCharacter/Content/StarterContent/Shapes/Shape_Pipe_180.uasset",
				"C:/Program Files/Epic Games/UE_5.3/Engine/Plugins/Marketplace/NinjaCharacter/Content/StarterContent/Shapes/Shape_Pipe.uasset",
				"C:/Program Files/Epic Games/UE_5.3/Engine/Plugins/Marketplace/NinjaCharacter/Content/StarterContent/Shapes/Shape_NarrowCapsule.uasset",
				"C:/Program Files/Epic Games/UE_5.3/Engine/Plugins/Marketplace/NinjaCharacter/Content/StarterContent/Shapes/Shape_Cylinder.uasset",
				"C:/Program Files/Epic Games/UE_5.3/Engine/Plugins/Marketplace/NinjaCharacter/Content/StarterContent/Shapes/Shape_Cube.uasset",
				"C:/Program Files/Epic Games/UE_5.3/Engine/Plugins/Marketplace/NinjaCharacter/Content/StarterContent/Shapes/Shape_Cone.uasset",
				"C:/Program Files/Epic Games/UE_5.3/Engine/Plugins/Marketplace/NinjaCharacter/Content/StarterContent/Textures/T_Perlin_Noise_M.uasset",
				"C:/Program Files/Epic Games/UE_5.3/Engine/Plugins/Marketplace/NinjaCharacter/Content/StarterContent/Textures/T_MacroVariation.uasset",
				"C:/Program Files/Epic Games/UE_5.3/Engine/Plugins/Marketplace/NinjaCharacter/Content/StarterContent/Textures/T_Ground_Grass_N.uasset",
				"C:/Program Files/Epic Games/UE_5.3/Engine/Plugins/Marketplace/NinjaCharacter/Content/StarterContent/Textures/T_Ground_Grass_D.uasset",
				"C:/Program Files/Epic Games/UE_5.3/Engine/Plugins/Marketplace/NinjaCharacter/Content/ThirdPerson/Meshes/RampMaterial.uasset",
				"C:/Program Files/Epic Games/UE_5.3/Engine/Plugins/Marketplace/NinjaCharacter/Content/ThirdPerson/Meshes/Linear_Stair_StaticMesh.uasset"
			]
		}
	]
}