[+] Containers:
 |- [+] Container: /Game/ThirdPerson/Maps/ThirdPersonMap
 |   |- [+] ActorDescs:
 |   |   |- Guid:007CE48044BFC38C9086E9B6AA651B21 BaseClass: NativeClass:/Script/Engine.StaticMeshActor Name:StaticMeshActor_UAID_047C16546DA0A07B01_1300524210 Label:Ramp_9 SpatiallyLoaded:1 Bounds:IsValid=true, Min=(X=-3209.642 Y=9.999 Z=-99.689), Max=(X=-2520.000 Y=3610.000 Z=500.000) RuntimeGrid:None EditorOnly:0 RuntimeOnly:0 HLODRelevant:1
 |   |   |- Guid:06EC5C4743F7FB88BEF8DAB838AE1AB8 BaseClass: NativeClass:/Script/Engine.StaticMeshActor Name:StaticMeshActor_UAID_047C16546DA09B7C01_1637417386 Label:SM_Cube36 SpatiallyLoaded:1 Bounds:IsValid=true, Min=(X=24950.000 Y=28680.000 Z=-50.000), Max=(X=33425.000 Y=43080.000 Z=0.000) RuntimeGrid:None EditorOnly:0 RuntimeOnly:0 HLODRelevant:1 FolderPath:Playground FolderGuid:C73F09FC4215536B1DCE2A9E0A830C70
 |   |   |- Guid:075F7D744F74C273F59E618B89A41C12 BaseClass: NativeClass:/Script/Engine.StaticMeshActor Name:StaticMeshActor_UAID_047C16546DA0A17B01_1475845418 Label:Ramp_24 SpatiallyLoaded:1 Bounds:IsValid=true, Min=(X=4229.999 Y=65.109 Z=1970.000), Max=(X=7830.000 Y=275.000 Z=2329.813) RuntimeGrid:None EditorOnly:0 RuntimeOnly:0 HLODRelevant:1
 |   |   |- Guid:08B737BD44863E8069C28198886142A6 BaseClass: NativeClass:/Script/Engine.StaticMeshActor Name:StaticMeshActor_UAID_047C16546DA0A07B01_1486218218 Label:SM_Ramp4 SpatiallyLoaded:1 Bounds:IsValid=true, Min=(X=-385.000 Y=-640.000 Z=-50.000), Max=(X=3790.000 Y=10.000 Z=2400.000) RuntimeGrid:None EditorOnly:0 RuntimeOnly:0 HLODRelevant:1 FolderPath:Block01 FolderGuid:7D23E5AE4C2A421F86AF6986D87E6D05
 |   |   |- Guid:08F9DC56444CFFF3F13B379E81EF05BC BaseClass: NativeClass:/Script/Engine.StaticMeshActor Name:StaticMeshActor_16 Label:SM_Cube11 SpatiallyLoaded:1 Bounds:IsValid=true, Min=(X=1600.000 Y=7210.000 Z=0.000), Max=(X=1900.000 Y=7510.000 Z=200.000) RuntimeGrid:None EditorOnly:0 RuntimeOnly:0 HLODRelevant:1 FolderPath:Block03 FolderGuid:7B7009C345D3D6DD94D3429E1D79C034
 |   |   |- Guid:0A733B864C327F0B589EC8BBDD0265BC BaseClass: NativeClass:/Script/Engine.StaticMeshActor Name:StaticMeshActor_13 Label:SM_Cube9 SpatiallyLoaded:1 Bounds:IsValid=true, Min=(X=1800.000 Y=1500.000 Z=0.000), Max=(X=2000.000 Y=2200.000 Z=100.000) RuntimeGrid:None EditorOnly:0 RuntimeOnly:0 HLODRelevant:1 FolderPath:Block01 FolderGuid:7D23E5AE4C2A421F86AF6986D87E6D05
 |   |   |- Guid:0B3AF6BC4F67870CFFD1D98023ECBA69 BaseClass: NativeClass:/Script/Engine.StaticMeshActor Name:StaticMeshActor_UAID_047C16546DA0F17B01_1507980470 Label:Ramp_27 SpatiallyLoaded:1 Bounds:IsValid=true, Min=(X=3220.000 Y=3590.000 Z=420.187), Max=(X=4320.000 Y=4069.751 Z=780.000) RuntimeGrid:None EditorOnly:0 RuntimeOnly:0 HLODRelevant:1
 |   |   |- Guid:1136141B436DB9677D25F88228006D04 BaseClass: NativeClass:/Script/Engine.StaticMeshActor Name:StaticMeshActor_UAID_047C16546DA09B7C01_1637419387 Label:SM_Cube37 SpatiallyLoaded:1 Bounds:IsValid=true, Min=(X=24890.000 Y=0.000 Z=-50.000), Max=(X=33365.000 Y=14400.000 Z=0.000) RuntimeGrid:None EditorOnly:0 RuntimeOnly:0 HLODRelevant:1 FolderPath:Playground FolderGuid:C73F09FC4215536B1DCE2A9E0A830C70
 |   |   |- Guid:1528A2194F08406E67D9D281E4F658C5 BaseClass: NativeClass:/Script/Engine.StaticMeshActor Name:StaticMeshActor_UAID_047C16546DA09B7C01_1637419388 Label:SM_Cube38 SpatiallyLoaded:1 Bounds:IsValid=true, Min=(X=33170.000 Y=-14400.000 Z=-50.000), Max=(X=41645.000 Y=0.000 Z=0.000) RuntimeGrid:None EditorOnly:0 RuntimeOnly:0 HLODRelevant:1 FolderPath:Playground FolderGuid:C73F09FC4215536B1DCE2A9E0A830C70
 |   |   |- Guid:15806F4C430DEB354904E88904FDE0E6 BaseClass: NativeClass:/Script/Engine.StaticMeshActor Name:StaticMeshActor_UAID_047C16546DA09B7C01_1514773384 Label:Tube SpatiallyLoaded:1 Bounds:IsValid=true, Min=(X=8404.331 Y=2627.049 Z=2487.656), Max=(X=18915.713 Y=3970.527 Z=3832.344) RuntimeGrid:None EditorOnly:0 RuntimeOnly:0 HLODRelevant:1
 |   |   |- Guid:1A446C66439326AA19576E8C6BA3FEFE BaseClass: NativeClass:/Script/Engine.StaticMeshActor Name:StaticMeshActor_UAID_04D4C47A62FEE16501_2106345416 Label:Ramp_2 SpatiallyLoaded:1 Bounds:IsValid=true, Min=(X=7820.000 Y=819.999 Z=-99.689), Max=(X=8479.658 Y=4420.000 Z=500.000) RuntimeGrid:None EditorOnly:0 RuntimeOnly:0 HLODRelevant:1
 |   |   |- Guid:1A6EFD7E4199588C31DAF48BB91812F5 BaseClass: NativeClass:/Script/Engine.StaticMeshActor Name:StaticMeshActor_UAID_047C16546DA09B7C01_1637420389 Label:SM_Cube39 SpatiallyLoaded:1 Bounds:IsValid=true, Min=(X=33250.000 Y=28680.000 Z=-50.000), Max=(X=41725.000 Y=43080.000 Z=0.000) RuntimeGrid:None EditorOnly:0 RuntimeOnly:0 HLODRelevant:1 FolderPath:Playground FolderGuid:C73F09FC4215536B1DCE2A9E0A830C70
 |   |   |- Guid:1A789DC8415097E9856E5DB60740F01D BaseClass: NativeClass:/Script/Engine.StaticMeshActor Name:StaticMeshActor_34 Label:SM_QuarterCylinder13 SpatiallyLoaded:1 Bounds:IsValid=true, Min=(X=5200.000 Y=3620.000 Z=0.000), Max=(X=5400.000 Y=3820.000 Z=100.000) RuntimeGrid:None EditorOnly:0 RuntimeOnly:0 HLODRelevant:1 FolderPath:Cylinder FolderGuid:D075E5BA49330D3EC2503D81A7CF88D1
 |   |   |- Guid:1B4359B240DDE65568A2B3A915608BC8 BaseClass: NativeClass:/Script/Engine.StaticMeshActor Name:StaticMeshActor_UAID_047C16546DA09B7C01_1637422392 Label:SM_Cube42 SpatiallyLoaded:1 Bounds:IsValid=true, Min=(X=24870.000 Y=-14400.000 Z=-50.000), Max=(X=33345.000 Y=0.000 Z=0.000) RuntimeGrid:None EditorOnly:0 RuntimeOnly:0 HLODRelevant:1 FolderPath:Playground FolderGuid:C73F09FC4215536B1DCE2A9E0A830C70
 |   |   |- Guid:1B9598344A1F20E1A5125DA8A7E9FC0F BaseClass: NativeClass:/Script/Engine.StaticMeshActor Name:StaticMeshActor_22 Label:SM_QuarterCylinder4 SpatiallyLoaded:1 Bounds:IsValid=true, Min=(X=1500.000 Y=7210.000 Z=0.000), Max=(X=1600.000 Y=7310.000 Z=200.000) RuntimeGrid:None EditorOnly:0 RuntimeOnly:0 HLODRelevant:1 FolderPath:Block03 FolderGuid:7B7009C345D3D6DD94D3429E1D79C034
 |   |   |- Guid:1D0E859049A91C6F5F8A99B62B440946 BaseClass: NativeClass:/Script/Engine.StaticMeshActor Name:StaticMeshActor_UAID_047C16546DA0EE7B01_1785244940 Label:SM_Cube23 SpatiallyLoaded:1 Bounds:IsValid=true, Min=(X=3220.000 Y=3990.000 Z=680.000), Max=(X=4345.000 Y=4065.000 Z=1855.000) RuntimeGrid:None EditorOnly:0 RuntimeOnly:0 HLODRelevant:1 FolderPath:Playground FolderGuid:C73F09FC4215536B1DCE2A9E0A830C70
 |   |   |- Guid:1D6D7BA44AAE581A671F658184C8C8C2 BaseClass: NativeClass:/Script/Engine.StaticMeshActor Name:StaticMeshActor_UAID_047C16546DA0B07B01_1867653061 Label:Ramp_26 SpatiallyLoaded:1 Bounds:IsValid=true, Min=(X=4229.999 Y=3620.000 Z=2250.187), Max=(X=7830.000 Y=4099.751 Z=2610.000) RuntimeGrid:None EditorOnly:0 RuntimeOnly:0 HLODRelevant:1
 |   |   |- Guid:215B15DF41101B73D3A286949EAAEC06 BaseClass: NativeClass:/Script/Engine.StaticMeshActor Name:StaticMeshActor_UAID_047C16546DA09B7C01_1470524383 Label:Ramp_30 SpatiallyLoaded:1 Bounds:IsValid=true, Min=(X=7429.999 Y=-19.910 Z=-99.689), Max=(X=8509.750 Y=1229.996 Z=500.000) RuntimeGrid:None EditorOnly:0 RuntimeOnly:0 HLODRelevant:1
 |   |   |- Guid:217747374D86E30FE4782B8D4435BB73 BaseClass: NativeClass:/Script/Engine.StaticMeshActor Name:StaticMeshActor_UAID_04D4C47A62FEE86601_1795636708 Label:SM_Cube15 SpatiallyLoaded:1 Bounds:IsValid=true, Min=(X=0.000 Y=14330.000 Z=-50.000), Max=(X=8475.000 Y=28730.000 Z=0.000) RuntimeGrid:None EditorOnly:0 RuntimeOnly:0 HLODRelevant:1 FolderPath:Playground FolderGuid:C73F09FC4215536B1DCE2A9E0A830C70
 |   |   |- Guid:245F987749D527211701459808F88372 BaseClass: NativeClass:/Script/Engine.StaticMeshActor Name:StaticMeshActor_UAID_047C16546DA0A07B01_1666058228 Label:Ramp_16 SpatiallyLoaded:1 Bounds:IsValid=true, Min=(X=9310.311 Y=780.000 Z=-34.891), Max=(X=9910.000 Y=4380.001 Z=175.000) RuntimeGrid:None EditorOnly:0 RuntimeOnly:0 HLODRelevant:1
 |   |   |- Guid:26B8C3BE41021A3F42B61FA534F9181E BaseClass: NativeClass:/Script/Engine.StaticMeshActor Name:StaticMeshActor_20 Label:SM_Cube12 SpatiallyLoaded:1 Bounds:IsValid=true, Min=(X=2500.000 Y=5560.000 Z=0.000), Max=(X=2600.000 Y=5660.000 Z=200.000) RuntimeGrid:None EditorOnly:0 RuntimeOnly:0 HLODRelevant:1 FolderPath:Block02 FolderGuid:EBA23F8248252949750E43911A3A1CDD
 |   |   |- Guid:28077EEB4AE3CB0757E3F7BE54276A6F BaseClass: NativeClass:/Script/Engine.StaticMeshActor Name:StaticMeshActor_UAID_047C16546DA0A17B01_1508872419 Label:SM_Cube5 SpatiallyLoaded:1 Bounds:IsValid=true, Min=(X=3230.000 Y=200.000 Z=2260.000), Max=(X=7830.000 Y=3700.000 Z=2310.000) RuntimeGrid:None EditorOnly:0 RuntimeOnly:0 HLODRelevant:1 FolderPath:Playground FolderGuid:C73F09FC4215536B1DCE2A9E0A830C70
 |   |   |- Guid:2C9C9680495BE6529984F8BFBD3A5A92 BaseClass: NativeClass:/Script/Engine.StaticMeshActor Name:StaticMeshActor_UAID_04D4C47A62FEE26501_1079456595 Label:Ramp_03 SpatiallyLoaded:1 Bounds:IsValid=true, Min=(X=7590.000 Y=30.058 Z=-34.891), Max=(X=8429.806 Y=842.497 Z=175.000) RuntimeGrid:None EditorOnly:0 RuntimeOnly:0 HLODRelevant:1
 |   |   |- Guid:2DE6252549485D3DE36C8FA6D40DAF9D BaseClass: NativeClass:/Script/Engine.StaticMeshActor Name:StaticMeshActor_UAID_047C16546DA0A07B01_1419624215 Label:SM_Cube20 SpatiallyLoaded:1 Bounds:IsValid=true, Min=(X=8210.000 Y=0.000 Z=-50.000), Max=(X=16685.000 Y=14400.000 Z=0.000) RuntimeGrid:None EditorOnly:0 RuntimeOnly:0 HLODRelevant:1 FolderPath:Playground FolderGuid:C73F09FC4215536B1DCE2A9E0A830C70
 |   |   |- Guid:2E40039044632DB2D6629FAA1BD8FB72 BaseClass: NativeClass:/Script/Engine.StaticMeshActor Name:StaticMeshActor_UAID_047C16546DA09B7C01_1637421391 Label:SM_Cube41 SpatiallyLoaded:1 Bounds:IsValid=true, Min=(X=33250.000 Y=14330.000 Z=-50.000), Max=(X=41725.000 Y=28730.000 Z=0.000) RuntimeGrid:None EditorOnly:0 RuntimeOnly:0 HLODRelevant:1 FolderPath:Playground FolderGuid:C73F09FC4215536B1DCE2A9E0A830C70
 |   |   |- Guid:2F4ADA5C49FC4247E6FA37B242DC6581 BaseClass: NativeClass:/Script/Engine.StaticMeshActor Name:StaticMeshActor_UAID_047C16546DA0A07B01_1300522209 Label:Ramp_8 SpatiallyLoaded:1 Bounds:IsValid=true, Min=(X=-3209.642 Y=3559.999 Z=-99.689), Max=(X=-2520.000 Y=7160.000 Z=500.000) RuntimeGrid:None EditorOnly:0 RuntimeOnly:0 HLODRelevant:1
 |   |   |- Guid:2FB58999456391D349DC0F86DAC136ED BaseClass: NativeClass:/Script/Engine.SkyLight Name:SkyLight_1 Label:SkyLight SpatiallyLoaded:0 Bounds:IsValid=true, Min=(X=0.000 Y=0.000 Z=690.000), Max=(X=0.000 Y=0.000 Z=690.000) RuntimeGrid:None EditorOnly:0 RuntimeOnly:0 HLODRelevant:0 FolderPath:Lighting FolderGuid:963EC3EB4002CCE9759E2EBA541A873A
 |   |   |- Guid:316CF2A6494ACA4C0E4180A87D36AB8F BaseClass: NativeClass:/Script/Engine.ExponentialHeightFog Name:ExponentialHeightFog_0 Label:ExponentialHeightFog SpatiallyLoaded:0 Bounds:IsValid=true, Min=(X=-5600.000 Y=-50.000 Z=-6850.000), Max=(X=-5600.000 Y=-50.000 Z=-6850.000) RuntimeGrid:None EditorOnly:0 RuntimeOnly:0 HLODRelevant:0 FolderPath:Lighting FolderGuid:963EC3EB4002CCE9759E2EBA541A873A
 |   |   |- Guid:31FC9BFF4F659129151DB49899C971AB BaseClass: NativeClass:/Script/Engine.StaticMeshActor Name:StaticMeshActor_UAID_047C16546DA0A07B01_1300525211 Label:Ramp_10 SpatiallyLoaded:1 Bounds:IsValid=true, Min=(X=-3209.642 Y=7109.999 Z=-99.689), Max=(X=-2520.000 Y=9010.000 Z=500.000) RuntimeGrid:None EditorOnly:0 RuntimeOnly:0 HLODRelevant:1
 |   |   |- Guid:34A2124C4F46FD9CE8C73C938ED39686 BaseClass: NativeClass:/Script/Engine.StaticMeshActor Name:StaticMeshActor_UAID_047C16546DA0857C01_1997785520 Label:SM_Cube33 SpatiallyLoaded:1 Bounds:IsValid=true, Min=(X=-16630.000 Y=-14410.000 Z=-50.000), Max=(X=-8155.000 Y=-10.000 Z=0.000) RuntimeGrid:None EditorOnly:0 RuntimeOnly:0 HLODRelevant:1 FolderPath:Playground FolderGuid:C73F09FC4215536B1DCE2A9E0A830C70
 |   |   |- Guid:3866429C49815F6C3EE863AE0128C913 BaseClass: NativeClass:/Script/Engine.StaticMeshActor Name:StaticMeshActor_UAID_047C16546DA0857C01_1982672513 Label:SM_Cube26 SpatiallyLoaded:1 Bounds:IsValid=true, Min=(X=-8470.000 Y=28670.000 Z=-50.000), Max=(X=5.000 Y=43070.000 Z=0.000) RuntimeGrid:None EditorOnly:0 RuntimeOnly:0 HLODRelevant:1 FolderPath:Playground FolderGuid:C73F09FC4215536B1DCE2A9E0A830C70
 |   |   |- Guid:3A00AA1C422CE54C0BDB60BAF471BFBB BaseClass: NativeClass:/Script/Engine.PlayerStart Name:PlayerStart_0 Label:PlayerStart SpatiallyLoaded:0 Bounds:IsValid=true, Min=(X=860.000 Y=1070.000 Z=0.013), Max=(X=940.000 Y=1150.000 Z=184.013) RuntimeGrid:None EditorOnly:0 RuntimeOnly:0 HLODRelevant:0
 |   |   |- Guid:3B218EED46606B09B459E98037772093 BaseClass: NativeClass:/Script/Engine.StaticMeshActor Name:StaticMeshActor_UAID_047C16546DA0857C01_1997786521 Label:SM_Cube34 SpatiallyLoaded:1 Bounds:IsValid=true, Min=(X=-16630.000 Y=14320.000 Z=-50.000), Max=(X=-8155.000 Y=28720.000 Z=0.000) RuntimeGrid:None EditorOnly:0 RuntimeOnly:0 HLODRelevant:1 FolderPath:Playground FolderGuid:C73F09FC4215536B1DCE2A9E0A830C70
 |   |   |- Guid:3CE5FABB4545F41BDB8D2098C16BCE5D BaseClass: NativeClass:/Script/Engine.StaticMeshActor Name:StaticMeshActor_UAID_04D4C47A62FEE86601_1795641709 Label:SM_Cube16 SpatiallyLoaded:1 Bounds:IsValid=true, Min=(X=-8470.000 Y=14320.000 Z=-50.000), Max=(X=5.000 Y=28720.000 Z=0.000) RuntimeGrid:None EditorOnly:0 RuntimeOnly:0 HLODRelevant:1 FolderPath:Playground FolderGuid:C73F09FC4215536B1DCE2A9E0A830C70
 |   |   |- Guid:41FF223545417939335035888459FA71 BaseClass: NativeClass:/Script/Engine.StaticMeshActor Name:StaticMeshActor_UAID_047C16546DA0EE7B01_1483967935 Label:SM_Normal_Loop SpatiallyLoaded:1 Bounds:IsValid=true, Min=(X=3243.047 Y=11452.014 Z=-1717.596), Max=(X=8222.739 Y=16720.629 Z=3672.086) RuntimeGrid:None EditorOnly:0 RuntimeOnly:0 HLODRelevant:1
 |   |   |- Guid:43815E84492231AFC407F59E3C28176B BaseClass: NativeClass:/Script/Engine.StaticMeshActor Name:StaticMeshActor_4 Label:SM_Cube6 SpatiallyLoaded:1 Bounds:IsValid=true, Min=(X=8360.000 Y=100.000 Z=0.000), Max=(X=9410.000 Y=11475.000 Z=2000.000) RuntimeGrid:None EditorOnly:0 RuntimeOnly:0 HLODRelevant:1 FolderPath:Playground FolderGuid:C73F09FC4215536B1DCE2A9E0A830C70
 |   |   |- Guid:44C7F235454B70B4011D78A313B5A759 BaseClass: NativeClass:/Script/Engine.StaticMeshActor Name:StaticMeshActor_UAID_04D4C47A62FEE76601_1949187528 Label:Ramp_7 SpatiallyLoaded:1 Bounds:IsValid=true, Min=(X=7820.000 Y=7909.999 Z=-99.689), Max=(X=8479.658 Y=11510.000 Z=500.000) RuntimeGrid:None EditorOnly:0 RuntimeOnly:0 HLODRelevant:1
 |   |   |- Guid:4593FF484F2DC02EF8D8759E72A8E61A BaseClass: NativeClass:/Script/Engine.StaticMeshActor Name:StaticMeshActor_UAID_047C16546DA0A07B01_1574915221 Label:Ramp_11 SpatiallyLoaded:1 Bounds:IsValid=true, Min=(X=-5190.000 Y=1860.000 Z=-99.689), Max=(X=-4500.358 Y=5460.001 Z=500.000) RuntimeGrid:None EditorOnly:0 RuntimeOnly:0 HLODRelevant:1
 |   |   |- Guid:471537124BDA8FC79590349AD149FC40 BaseClass: NativeClass:/Script/Engine.StaticMeshActor Name:StaticMeshActor_UAID_04D4C47A62FEE16501_2139398418 Label:Ramp_4 SpatiallyLoaded:1 Bounds:IsValid=true, Min=(X=4599.999 Y=0.311 Z=-99.689), Max=(X=7600.000 Y=600.000 Z=500.000) RuntimeGrid:None EditorOnly:0 RuntimeOnly:0 HLODRelevant:1
 |   |   |- Guid:4D3BE93F4146AAAC8BBE79999D96D57F BaseClass: NativeClass:/Script/Engine.VolumetricCloud Name:VolumetricCloud_0 Label:VolumetricCloud SpatiallyLoaded:0 Bounds:IsValid=true, Min=(X=0.000 Y=0.000 Z=820.000), Max=(X=0.000 Y=0.000 Z=820.000) RuntimeGrid:None EditorOnly:0 RuntimeOnly:0 HLODRelevant:0 FolderPath:Lighting FolderGuid:963EC3EB4002CCE9759E2EBA541A873A
 |   |   |- Guid:4E9EEB77437676CA0CAD869A06C21F2B BaseClass: NativeClass:/Script/Engine.StaticMeshActor Name:StaticMeshActor_UAID_047C16546DA0857C01_1997787522 Label:SM_Cube35 SpatiallyLoaded:1 Bounds:IsValid=true, Min=(X=-16630.000 Y=28670.000 Z=-50.000), Max=(X=-8155.000 Y=43070.000 Z=0.000) RuntimeGrid:None EditorOnly:0 RuntimeOnly:0 HLODRelevant:1 FolderPath:Playground FolderGuid:C73F09FC4215536B1DCE2A9E0A830C70
 |   |   |- Guid:4F3C01DD41EB49278E8974A2BBC090EE BaseClass: NativeClass:/Script/Engine.StaticMeshActor Name:StaticMeshActor_UAID_047C16546DA0A07B01_1409485214 Label:SM_Cube19 SpatiallyLoaded:1 Bounds:IsValid=true, Min=(X=0.000 Y=-14400.000 Z=-50.000), Max=(X=8475.000 Y=0.000 Z=0.000) RuntimeGrid:None EditorOnly:0 RuntimeOnly:0 HLODRelevant:1 FolderPath:Playground FolderGuid:C73F09FC4215536B1DCE2A9E0A830C70
 |   |   |- Guid:5408F02B48233640B2C630BF23DC8FA1 BaseClass: NativeClass:/Script/Engine.StaticMeshActor Name:StaticMeshActor_UAID_047C16546DA0A07B01_1574916222 Label:Ramp_12 SpatiallyLoaded:1 Bounds:IsValid=true, Min=(X=-5190.000 Y=5450.000 Z=-99.689), Max=(X=-4500.357 Y=8850.001 Z=500.000) RuntimeGrid:None EditorOnly:0 RuntimeOnly:0 HLODRelevant:1
 |   |   |- Guid:58714174495310CABAEA36BCE40BBC36 BaseClass: NativeClass:/Script/Engine.StaticMeshActor Name:StaticMeshActor_UAID_047C16546DA0A07B01_1554860220 Label:SM_Cube22 SpatiallyLoaded:1 Bounds:IsValid=true, Min=(X=-4625.000 Y=10.000 Z=0.000), Max=(X=-4050.000 Y=8835.000 Z=2000.000) RuntimeGrid:None EditorOnly:0 RuntimeOnly:0 HLODRelevant:1 FolderPath:Playground FolderGuid:C73F09FC4215536B1DCE2A9E0A830C70
 |   |   |- Guid:59CE89D047C75FBE41189BA8ABD2CA2A BaseClass: NativeClass:/Script/Engine.StaticMeshActor Name:StaticMeshActor_18 Label:SM_QuarterCylinder SpatiallyLoaded:1 Bounds:IsValid=true, Min=(X=2500.000 Y=5660.000 Z=0.000), Max=(X=2600.000 Y=5760.000 Z=200.000) RuntimeGrid:None EditorOnly:0 RuntimeOnly:0 HLODRelevant:1 FolderPath:Block02 FolderGuid:EBA23F8248252949750E43911A3A1CDD
 |   |   |- Guid:5B97F4A64FB21F77EFC44386BF705B4C BaseClass: NativeClass:/Script/Engine.TextRenderActor Name:TextRenderActor_1 Label:TextRenderActor SpatiallyLoaded:1 Bounds:IsValid=true, Min=(X=-0.100 Y=1100.000 Z=65.013), Max=(X=-0.100 Y=2392.308 Z=215.013) RuntimeGrid:None EditorOnly:0 RuntimeOnly:0 HLODRelevant:0
 |   |   |- Guid:5E4DB4154690C8B4EB14EAA9E92FAAFF BaseClass: NativeClass:/Script/Engine.StaticMeshActor Name:StaticMeshActor_33 Label:SM_QuarterCylinder12 SpatiallyLoaded:1 Bounds:IsValid=true, Min=(X=5200.000 Y=3820.000 Z=0.000), Max=(X=5400.000 Y=4020.000 Z=100.000) RuntimeGrid:None EditorOnly:0 RuntimeOnly:0 HLODRelevant:1 FolderPath:Cylinder FolderGuid:D075E5BA49330D3EC2503D81A7CF88D1
 |   |   |- Guid:5FB1BF4B4579A1BD7F036D815A250173 BaseClass: NativeClass:/Script/Engine.StaticMeshActor Name:StaticMeshActor_UAID_047C16546DA0A07B01_1409484213 Label:SM_Cube18 SpatiallyLoaded:1 Bounds:IsValid=true, Min=(X=-8470.000 Y=-14410.000 Z=-50.000), Max=(X=5.000 Y=-10.000 Z=0.000) RuntimeGrid:None EditorOnly:0 RuntimeOnly:0 HLODRelevant:1 FolderPath:Playground FolderGuid:C73F09FC4215536B1DCE2A9E0A830C70
 |   |   |- Guid:60603A994CD81DB51906B8B53D13D8D1 BaseClass: NativeClass:/Script/Engine.StaticMeshActor Name:StaticMeshActor_UAID_047C16546DA0A07B01_1836263231 Label:Ramp_18 SpatiallyLoaded:1 Bounds:IsValid=true, Min=(X=-3870.000 Y=9.999 Z=1805.010), Max=(X=-3090.404 Y=3610.000 Z=2794.496) RuntimeGrid:None EditorOnly:0 RuntimeOnly:0 HLODRelevant:1
 |   |   |- Guid:6904C85841FEF6EF35629C9B539ECB18 BaseClass: NativeClass:/Script/Engine.StaticMeshActor Name:StaticMeshActor_UAID_04D4C47A62FEE16501_2116243417 Label:Ramp_3 SpatiallyLoaded:1 Bounds:IsValid=true, Min=(X=1039.999 Y=0.311 Z=-99.689), Max=(X=4640.000 Y=600.000 Z=500.000) RuntimeGrid:None EditorOnly:0 RuntimeOnly:0 HLODRelevant:1
 |   |   |- Guid:6BAF4DDD444C60371492D3919DB42C97 BaseClass: NativeClass:/Script/Engine.WorldDataLayers Name:WorldDataLayers Label:WorldDataLayers SpatiallyLoaded:0 Bounds:IsValid=true, Min=(X=0.000 Y=0.000 Z=0.000), Max=(X=0.000 Y=0.000 Z=0.000) RuntimeGrid:None EditorOnly:0 RuntimeOnly:0 HLODRelevant:0
 |   |   |- Guid:71A98E8B4DF0EF61C984928BD8106DC3 BaseClass: NativeClass:/Script/Engine.StaticMeshActor Name:StaticMeshActor_UAID_047C16546DA0A07B01_1426005216 Label:SM_Cube21 SpatiallyLoaded:1 Bounds:IsValid=true, Min=(X=8190.000 Y=-14400.000 Z=-50.000), Max=(X=16665.000 Y=0.000 Z=0.000) RuntimeGrid:None EditorOnly:0 RuntimeOnly:0 HLODRelevant:1 FolderPath:Playground FolderGuid:C73F09FC4215536B1DCE2A9E0A830C70
 |   |   |- Guid:745A095B4BA4E157E4537FA63F5B7B43 BaseClass: NativeClass:/Script/Engine.StaticMeshActor Name:StaticMeshActor_2 Label:SM_ChamferCube SpatiallyLoaded:1 Bounds:IsValid=true, Min=(X=1100.000 Y=2000.000 Z=0.013), Max=(X=1200.000 Y=2100.000 Z=100.013) RuntimeGrid:None EditorOnly:0 RuntimeOnly:0 HLODRelevant:0
 |   |   |- Guid:74939E6A44DF4360552FF9AE85E3FFEA BaseClass: NativeClass:/Script/Engine.StaticMeshActor Name:StaticMeshActor_UAID_047C16546DA09B7C01_1642773394 Label:Tube2 SpatiallyLoaded:1 Bounds:IsValid=true, Min=(X=18724.331 Y=2627.049 Z=2487.656), Max=(X=29235.713 Y=3970.527 Z=3832.344) RuntimeGrid:None EditorOnly:0 RuntimeOnly:0 HLODRelevant:1
 |   |   |- Guid:7587444F4FB13B9B9CD114BBE7885340 BaseClass: NativeClass:/Script/Engine.StaticMeshActor Name:StaticMeshActor_19 Label:SM_QuarterCylinder2 SpatiallyLoaded:1 Bounds:IsValid=true, Min=(X=2500.000 Y=5460.000 Z=0.000), Max=(X=2600.000 Y=5560.000 Z=200.000) RuntimeGrid:None EditorOnly:0 RuntimeOnly:0 HLODRelevant:1 FolderPath:Block02 FolderGuid:EBA23F8248252949750E43911A3A1CDD
 |   |   |- Guid:78C9E3A045DB7D7590A87EB827E0D898 BaseClass: NativeClass:/Script/Engine.StaticMeshActor Name:StaticMeshActor_UAID_047C16546DA0857C01_1991550517 Label:SM_Cube30 SpatiallyLoaded:1 Bounds:IsValid=true, Min=(X=16570.000 Y=14330.000 Z=-50.000), Max=(X=25045.000 Y=28730.000 Z=0.000) RuntimeGrid:None EditorOnly:0 RuntimeOnly:0 HLODRelevant:1 FolderPath:Playground FolderGuid:C73F09FC4215536B1DCE2A9E0A830C70
 |   |   |- Guid:79C9B0C246824948C2428ABA13657451 BaseClass: NativeClass:/Script/Engine.StaticMeshActor Name:StaticMeshActor_25 Label:SM_QuarterCylinder6 SpatiallyLoaded:1 Bounds:IsValid=true, Min=(X=1200.000 Y=2200.000 Z=0.000), Max=(X=1300.000 Y=2300.000 Z=200.000) RuntimeGrid:None EditorOnly:0 RuntimeOnly:0 HLODRelevant:1 FolderPath:Block01 FolderGuid:7D23E5AE4C2A421F86AF6986D87E6D05
 |   |   |- Guid:7C172A0740B33B6D38EEF38A63E0B945 BaseClass: NativeClass:/Script/Engine.StaticMeshActor Name:StaticMeshActor_3 Label:SM_Ramp SpatiallyLoaded:1 Bounds:IsValid=true, Min=(X=5570.000 Y=5180.000 Z=0.000), Max=(X=6070.000 Y=5480.000 Z=125.000) RuntimeGrid:None EditorOnly:0 RuntimeOnly:0 HLODRelevant:1
 |   |   |- Guid:7D1955304B160677804CAF926B13A1A6 BaseClass: NativeClass:/Script/Engine.StaticMeshActor Name:StaticMeshActor_UAID_047C16546DA0857C01_1991546515 Label:SM_Cube28 SpatiallyLoaded:1 Bounds:IsValid=true, Min=(X=16510.000 Y=0.000 Z=-50.000), Max=(X=24985.000 Y=14400.000 Z=0.000) RuntimeGrid:None EditorOnly:0 RuntimeOnly:0 HLODRelevant:1 FolderPath:Playground FolderGuid:C73F09FC4215536B1DCE2A9E0A830C70
 |   |   |- Guid:7DBD9D224E18805D660E2C872E2A516C BaseClass: NativeClass:/Script/Engine.StaticMeshActor Name:StaticMeshActor_UAID_047C16546DA0857C01_1982673514 Label:SM_Cube27 SpatiallyLoaded:1 Bounds:IsValid=true, Min=(X=8270.000 Y=28680.000 Z=-50.000), Max=(X=16745.000 Y=43080.000 Z=0.000) RuntimeGrid:None EditorOnly:0 RuntimeOnly:0 HLODRelevant:1 FolderPath:Playground FolderGuid:C73F09FC4215536B1DCE2A9E0A830C70
 |   |   |- Guid:84703DB84A0F80AF51A88DAC6959EA30 BaseClass: NativeClass:/Script/Engine.StaticMeshActor Name:StaticMeshActor_UAID_047C16546DA0A07B01_2008792236 Label:Ramp_20 SpatiallyLoaded:1 Bounds:IsValid=true, Min=(X=-4639.595 Y=1860.000 Z=1805.000), Max=(X=-3860.000 Y=5460.001 Z=2794.486) RuntimeGrid:None EditorOnly:0 RuntimeOnly:0 HLODRelevant:1
 |   |   |- Guid:85F64AD846F2AE7C1A977A97268CF44B BaseClass: NativeClass:/Script/Engine.StaticMeshActor Name:StaticMeshActor_UAID_047C16546DA09B7C01_1637422393 Label:SM_Cube43 SpatiallyLoaded:1 Bounds:IsValid=true, Min=(X=24950.000 Y=14330.000 Z=-50.000), Max=(X=33425.000 Y=28730.000 Z=0.000) RuntimeGrid:None EditorOnly:0 RuntimeOnly:0 HLODRelevant:1 FolderPath:Playground FolderGuid:C73F09FC4215536B1DCE2A9E0A830C70
 |   |   |- Guid:8F35F6F14B39B82B0191909FE13A10DF BaseClass: NativeClass:/Script/Engine.StaticMeshActor Name:StaticMeshActor_UAID_047C16546DA0A07B01_2008794238 Label:Ramp_22 SpatiallyLoaded:1 Bounds:IsValid=true, Min=(X=-4639.596 Y=10.000 Z=1805.000), Max=(X=-3860.000 Y=1910.001 Z=2794.486) RuntimeGrid:None EditorOnly:0 RuntimeOnly:0 HLODRelevant:1
 |   |   |- Guid:9426E94B4756D9690FA4CEA68E3D228B BaseClass: NativeClass:/Script/Engine.StaticMeshActor Name:StaticMeshActor_UAID_047C16546DA0A07B01_2008793237 Label:Ramp_21 SpatiallyLoaded:1 Bounds:IsValid=true, Min=(X=-4639.595 Y=5230.000 Z=1805.010), Max=(X=-3859.999 Y=8830.001 Z=2794.496) RuntimeGrid:None EditorOnly:0 RuntimeOnly:0 HLODRelevant:1
 |   |   |- Guid:94F6D9A645798F5BAD0B58BEED8F27F5 BaseClass: NativeClass:/Script/Engine.StaticMeshActor Name:StaticMeshActor_32 Label:SM_QuarterCylinder11 SpatiallyLoaded:1 Bounds:IsValid=true, Min=(X=5400.000 Y=3820.000 Z=-0.000), Max=(X=5600.000 Y=4020.000 Z=100.000) RuntimeGrid:None EditorOnly:0 RuntimeOnly:0 HLODRelevant:1 FolderPath:Cylinder FolderGuid:D075E5BA49330D3EC2503D81A7CF88D1
 |   |   |- Guid:961864A84FF6F65B68F2A3BE5819D538 BaseClass: NativeClass:/Script/Engine.StaticMeshActor Name:StaticMeshActor_8 Label:SM_Cube4 SpatiallyLoaded:1 Bounds:IsValid=true, Min=(X=1200.000 Y=1700.000 Z=0.000), Max=(X=1800.000 Y=2200.000 Z=200.000) RuntimeGrid:None EditorOnly:0 RuntimeOnly:0 HLODRelevant:1 FolderPath:Block01 FolderGuid:7D23E5AE4C2A421F86AF6986D87E6D05
 |   |   |- Guid:96D54A8845097BBDFCBBB094E21BA20F BaseClass: NativeClass:/Script/Engine.StaticMeshActor Name:StaticMeshActor_UAID_047C16546DA0857C01_1976964511 Label:SM_Cube24 SpatiallyLoaded:1 Bounds:IsValid=true, Min=(X=8270.000 Y=14330.000 Z=-50.000), Max=(X=16745.000 Y=28730.000 Z=0.000) RuntimeGrid:None EditorOnly:0 RuntimeOnly:0 HLODRelevant:1 FolderPath:Playground FolderGuid:C73F09FC4215536B1DCE2A9E0A830C70
 |   |   |- Guid:9765ECF54858C165188C95B28D88016B BaseClass: NativeClass:/Script/Engine.StaticMeshActor Name:StaticMeshActor_12 Label:SM_Cube8 SpatiallyLoaded:1 Bounds:IsValid=true, Min=(X=1300.000 Y=5460.000 Z=0.000), Max=(X=2500.000 Y=5760.000 Z=200.000) RuntimeGrid:None EditorOnly:0 RuntimeOnly:0 HLODRelevant:1 FolderPath:Block02 FolderGuid:EBA23F8248252949750E43911A3A1CDD
 |   |   |- Guid:9BFF363746062F457E2F92A4631DBA20 BaseClass: NativeClass:/Script/Engine.StaticMeshActor Name:StaticMeshActor_11 Label:SM_ChamferCube3 SpatiallyLoaded:1 Bounds:IsValid=true, Min=(X=481.699 Y=2271.699 Z=0.013), Max=(X=618.301 Y=2408.301 Z=100.013) RuntimeGrid:None EditorOnly:0 RuntimeOnly:0 HLODRelevant:0
 |   |   |- Guid:AB74120142217676C6EC818E6B49412B BaseClass: NativeClass:/Script/Engine.StaticMeshActor Name:StaticMeshActor_15 Label:SM_Cube10 SpatiallyLoaded:1 Bounds:IsValid=true, Min=(X=1800.000 Y=2100.000 Z=100.000), Max=(X=2000.000 Y=2200.000 Z=200.000) RuntimeGrid:None EditorOnly:0 RuntimeOnly:0 HLODRelevant:1 FolderPath:Block01 FolderGuid:7D23E5AE4C2A421F86AF6986D87E6D05
 |   |   |- Guid:AD7BB0BF4CCE7B964054C4B44DD1B704 BaseClass: NativeClass:/Script/Engine.StaticMeshActor Name:StaticMeshActor_UAID_047C16546DA03C7E01_1328351780 Label:SHZ_Parts1_ssh02_in1_rockroadEb__07 SpatiallyLoaded:1 Bounds:IsValid=true, Min=(X=-9443.693 Y=20259.634 Z=-459.193), Max=(X=-2132.670 Y=30584.345 Z=3386.844) RuntimeGrid:None EditorOnly:0 RuntimeOnly:0 HLODRelevant:1
 |   |   |- Guid:B425B66046116F860CE3D6BD8DD4025C BaseClass: NativeClass:/Script/Engine.StaticMeshActor Name:StaticMeshActor_UAID_047C16546DA0A07B01_1396549212 Label:Ring SpatiallyLoaded:1 Bounds:IsValid=true, Min=(X=-9452.500 Y=-11292.500 Z=1337.499), Max=(X=1272.500 Y=-567.500 Z=3482.501) RuntimeGrid:None EditorOnly:0 RuntimeOnly:0 HLODRelevant:1
 |   |   |- Guid:B59779BD4FD993EC4C46C09A9EC09CDA BaseClass: NativeClass:/Script/Engine.StaticMeshActor Name:StaticMeshActor_UAID_047C16546DA0A07B01_1836264232 Label:Ramp_19 SpatiallyLoaded:1 Bounds:IsValid=true, Min=(X=-3870.000 Y=6929.999 Z=1805.000), Max=(X=-3090.404 Y=8830.000 Z=2794.486) RuntimeGrid:None EditorOnly:0 RuntimeOnly:0 HLODRelevant:1
 |   |   |- Guid:B75438C44998AB0C8C72A9927FF1DB7E BaseClass: NativeClass:/Script/Engine.StaticMeshActor Name:StaticMeshActor_UAID_047C16546DA09B7C01_1563676385 Label:Ramp_31 SpatiallyLoaded:1 Bounds:IsValid=true, Min=(X=7490.000 Y=2184.999 Z=2265.171), Max=(X=8059.704 Y=3835.000 Z=2595.000) RuntimeGrid:None EditorOnly:0 RuntimeOnly:0 HLODRelevant:1
 |   |   |- Guid:B785ED2844B84CFB91E7F39FE661CD99 BaseClass: NativeClass:/Script/Engine.DirectionalLight Name:DirectionalLight_0 Label:DirectionalLight SpatiallyLoaded:0 Bounds:IsValid=true, Min=(X=-1048576.000 Y=-1048576.000 Z=-1048576.000), Max=(X=1048576.000 Y=1048576.000 Z=1048576.000) RuntimeGrid:None EditorOnly:0 RuntimeOnly:0 HLODRelevant:0 FolderPath:Lighting FolderGuid:963EC3EB4002CCE9759E2EBA541A873A
 |   |   |- Guid:B93CC9434EA6275473DC768DDCA5B576 BaseClass: NativeClass:/Script/Engine.StaticMeshActor Name:StaticMeshActor_UAID_047C16546DA09B7C01_1637420390 Label:SM_Cube40 SpatiallyLoaded:1 Bounds:IsValid=true, Min=(X=33190.000 Y=0.000 Z=-50.000), Max=(X=41665.000 Y=14400.000 Z=0.000) RuntimeGrid:None EditorOnly:0 RuntimeOnly:0 HLODRelevant:1 FolderPath:Playground FolderGuid:C73F09FC4215536B1DCE2A9E0A830C70
 |   |   |- Guid:BC08B79C4EA3C961CFF75EBBE83B367D BaseClass: NativeClass:/Script/Engine.StaticMeshActor Name:StaticMeshActor_5 Label:SM_Cube2 SpatiallyLoaded:1 Bounds:IsValid=true, Min=(X=0.000 Y=0.000 Z=0.000), Max=(X=8450.000 Y=100.000 Z=2000.000) RuntimeGrid:None EditorOnly:0 RuntimeOnly:0 HLODRelevant:1 FolderPath:Playground FolderGuid:C73F09FC4215536B1DCE2A9E0A830C70
 |   |   |- Guid:BD3AC867422EA69EF465EEAEBC5B6BF5 BaseClass: NativeClass:/Script/Engine.StaticMeshActor Name:StaticMeshActor_UAID_047C16546DA0A07B01_1666057227 Label:Ramp_15 SpatiallyLoaded:1 Bounds:IsValid=true, Min=(X=9310.311 Y=7870.000 Z=-34.891), Max=(X=9910.001 Y=11470.001 Z=175.000) RuntimeGrid:None EditorOnly:0 RuntimeOnly:0 HLODRelevant:1
 |   |   |- Guid:C11AAEC64E898FE1D5550F80ACCD04E6 BaseClass: NativeClass:/Script/Engine.StaticMeshActor Name:StaticMeshActor_UAID_047C16546DA0A07B01_1666054226 Label:Ramp_14 SpatiallyLoaded:1 Bounds:IsValid=true, Min=(X=9310.311 Y=4320.000 Z=-34.891), Max=(X=9910.000 Y=7920.001 Z=175.000) RuntimeGrid:None EditorOnly:0 RuntimeOnly:0 HLODRelevant:1
 |   |   |- Guid:C15C2C8D4EA4ADE0BD1349AFD814988B BaseClass: NativeClass:/Script/Engine.StaticMeshActor Name:StaticMeshActor_14 Label:SM_Ramp3 SpatiallyLoaded:1 Bounds:IsValid=true, Min=(X=1800.000 Y=1700.000 Z=100.000), Max=(X=2000.000 Y=2100.000 Z=200.000) RuntimeGrid:None EditorOnly:0 RuntimeOnly:0 HLODRelevant:1 FolderPath:Block01 FolderGuid:7D23E5AE4C2A421F86AF6986D87E6D05
 |   |   |- Guid:C1DD291343858384EE22ED94D120E733 BaseClass: NativeClass:/Script/Engine.StaticMeshActor Name:StaticMeshActor_UAID_047C16546DA0F17B01_1568828471 Label:Ramp_29 SpatiallyLoaded:1 Bounds:IsValid=true, Min=(X=3220.000 Y=3990.249 Z=620.187), Max=(X=4320.000 Y=4470.000 Z=980.000) RuntimeGrid:None EditorOnly:0 RuntimeOnly:0 HLODRelevant:1
 |   |   |- Guid:C29BBF214BBFBA9DE7E6B6B1FD68D470 BaseClass: NativeClass:/Script/Engine.StaticMeshActor Name:StaticMeshActor_UAID_04D4C47A62FEE26501_1224710598 Label:Ramp_5 SpatiallyLoaded:1 Bounds:IsValid=true, Min=(X=7770.000 Y=-54.518 Z=100.000), Max=(X=8489.627 Y=875.000 Z=2000.001) RuntimeGrid:None EditorOnly:0 RuntimeOnly:0 HLODRelevant:1
 |   |   |- Guid:C9CB645B4EBAC5F46441CD93F4B1CDB9 BaseClass: NativeClass:/Script/Engine.StaticMeshActor Name:StaticMeshActor_UAID_04D4C47A62FEE86601_1755039705 Label:SM_Cube14 SpatiallyLoaded:1 Bounds:IsValid=true, Min=(X=-8470.000 Y=-10.000 Z=-50.000), Max=(X=5.000 Y=14390.000 Z=0.000) RuntimeGrid:None EditorOnly:0 RuntimeOnly:0 HLODRelevant:1 FolderPath:Playground FolderGuid:C73F09FC4215536B1DCE2A9E0A830C70
 |   |   |- Guid:CC3B936443337422473A26BB976D30B8 BaseClass: NativeClass:/Script/Engine.StaticMeshActor Name:StaticMeshActor_UAID_04D4C47A62FEE76601_1892005527 Label:Ramp_6 SpatiallyLoaded:1 Bounds:IsValid=true, Min=(X=30.000 Y=0.311 Z=-99.689), Max=(X=1130.000 Y=600.000 Z=500.000) RuntimeGrid:None EditorOnly:0 RuntimeOnly:0 HLODRelevant:1
 |   |   |- Guid:CCEF0B024F5E556C821FF9A2A7116BE3 BaseClass: NativeClass:/Script/Engine.StaticMeshActor Name:StaticMeshActor_UAID_047C16546DA0B07B01_1946580063 Label:Ramp_28 SpatiallyLoaded:1 Bounds:IsValid=true, Min=(X=4229.999 Y=3740.000 Z=2570.000), Max=(X=7830.000 Y=4099.813 Z=3049.751) RuntimeGrid:None EditorOnly:0 RuntimeOnly:0 HLODRelevant:1
 |   |   |- Guid:CCFF262C46EEFFDF319E7F9539CE697E BaseClass: NativeClass:/Script/Engine.SkyAtmosphere Name:SkyAtmosphere_0 Label:SkyAtmosphere SpatiallyLoaded:0 Bounds:IsValid=true, Min=(X=0.000 Y=0.000 Z=1020.000), Max=(X=0.000 Y=0.000 Z=1020.000) RuntimeGrid:None EditorOnly:0 RuntimeOnly:0 HLODRelevant:0 FolderPath:Lighting FolderGuid:963EC3EB4002CCE9759E2EBA541A873A
 |   |   |- Guid:D15B9F744DDE7720BB713A87F332D4AB BaseClass: NativeClass:/Script/Engine.StaticMeshActor Name:StaticMeshActor_UAID_04D4C47A62FEE16501_2047804415 Label:Ramp_01 SpatiallyLoaded:1 Bounds:IsValid=true, Min=(X=7820.000 Y=4369.999 Z=-99.689), Max=(X=8479.658 Y=7970.000 Z=500.000) RuntimeGrid:None EditorOnly:0 RuntimeOnly:0 HLODRelevant:1
 |   |   |- Guid:D61A62974EB6E1D6137BFBB7D1ADA2EE BaseClass: NativeClass:/Script/Engine.StaticMeshActor Name:StaticMeshActor_UAID_047C16546DA0A07B01_1574917223 Label:Ramp_13 SpatiallyLoaded:1 Bounds:IsValid=true, Min=(X=-5190.000 Y=10.000 Z=-99.689), Max=(X=-4500.358 Y=1910.001 Z=500.000) RuntimeGrid:None EditorOnly:0 RuntimeOnly:0 HLODRelevant:1
 |   |   |- Guid:D781DC734B3285CA7E026DB1D5206A0E BaseClass: NativeClass:/Script/Engine.StaticMeshActor Name:StaticMeshActor_UAID_047C16546DA0B07B01_1867648060 Label:Ramp_25 SpatiallyLoaded:1 Bounds:IsValid=true, Min=(X=3220.000 Y=3690.000 Z=1840.000), Max=(X=4320.000 Y=4049.813 Z=2319.751) RuntimeGrid:None EditorOnly:0 RuntimeOnly:0 HLODRelevant:1
 |   |   |- Guid:DAB9ABA941CF2CEF786BE98AF38640A4 BaseClass: NativeClass:/Script/Engine.StaticMeshActor Name:StaticMeshActor_UAID_047C16546DA0857C01_1991548516 Label:SM_Cube29 SpatiallyLoaded:1 Bounds:IsValid=true, Min=(X=16490.000 Y=-14400.000 Z=-50.000), Max=(X=24965.000 Y=0.000 Z=0.000) RuntimeGrid:None EditorOnly:0 RuntimeOnly:0 HLODRelevant:1 FolderPath:Playground FolderGuid:C73F09FC4215536B1DCE2A9E0A830C70
 |   |   |- Guid:DBC730174A7F51D9E14433AEF0C30A39 BaseClass: NativeClass:/Script/Engine.StaticMeshActor Name:StaticMeshActor_24 Label:SM_Cube13 SpatiallyLoaded:1 Bounds:IsValid=true, Min=(X=1500.000 Y=7310.000 Z=0.000), Max=(X=1600.000 Y=7410.000 Z=200.000) RuntimeGrid:None EditorOnly:0 RuntimeOnly:0 HLODRelevant:1 FolderPath:Block03 FolderGuid:7B7009C345D3D6DD94D3429E1D79C034
 |   |   |- Guid:DE3A079B4635A6D8D620CCBC6C0BB1C0 BaseClass: NativeClass:/Script/Engine.StaticMeshActor Name:StaticMeshActor_35 Label:SM_QuarterCylinder14 SpatiallyLoaded:1 Bounds:IsValid=true, Min=(X=5400.000 Y=3620.000 Z=0.000), Max=(X=5600.000 Y=3820.000 Z=100.000) RuntimeGrid:None EditorOnly:0 RuntimeOnly:0 HLODRelevant:1 FolderPath:Cylinder FolderGuid:D075E5BA49330D3EC2503D81A7CF88D1
 |   |   |- Guid:E73E39994140315EB81324BF0A5D6400 BaseClass: NativeClass:/Script/Engine.StaticMeshActor Name:StaticMeshActor_10 Label:SM_ChamferCube2 SpatiallyLoaded:1 Bounds:IsValid=true, Min=(X=992.077 Y=2692.077 Z=0.013), Max=(X=1107.923 Y=2807.923 Z=100.013) RuntimeGrid:None EditorOnly:0 RuntimeOnly:0 HLODRelevant:0
 |   |   |- Guid:E864EE5542C27D6674BEBB9312F02BB4 BaseClass: NativeClass:/Script/Engine.StaticMeshActor Name:StaticMeshActor_23 Label:SM_QuarterCylinder5 SpatiallyLoaded:1 Bounds:IsValid=true, Min=(X=1500.000 Y=7410.000 Z=0.000), Max=(X=1600.000 Y=7510.000 Z=200.000) RuntimeGrid:None EditorOnly:0 RuntimeOnly:0 HLODRelevant:1 FolderPath:Block03 FolderGuid:7B7009C345D3D6DD94D3429E1D79C034
 |   |   |- Guid:E9C70898422713821A5225A6A2B5FA60 BaseClass: NativeClass:/Script/Engine.StaticMeshActor Name:StaticMeshActor_UAID_047C16546DA0857C01_1997783519 Label:SM_Cube32 SpatiallyLoaded:1 Bounds:IsValid=true, Min=(X=-16630.000 Y=-10.000 Z=-50.000), Max=(X=-8155.000 Y=14390.000 Z=0.000) RuntimeGrid:None EditorOnly:0 RuntimeOnly:0 HLODRelevant:1 FolderPath:Playground FolderGuid:C73F09FC4215536B1DCE2A9E0A830C70
 |   |   |- Guid:EC4E0C944CE6AC6E784BC6BB2916EA13 BaseClass: NativeClass:/Script/Engine.StaticMeshActor Name:StaticMeshActor_UAID_A4AE111137DC5EFB00_1110535423 Label:SM_SkySphere SpatiallyLoaded:0 Bounds:IsValid=true, Min=(X=-1638400.000 Y=-1638400.000 Z=-1638400.000), Max=(X=1638400.000 Y=1638400.000 Z=1638400.000) RuntimeGrid:None EditorOnly:0 RuntimeOnly:0 HLODRelevant:1 FolderPath:Lighting FolderGuid:963EC3EB4002CCE9759E2EBA541A873A
 |   |   |- Guid:EDAA34A64E50B17535C2EB826C12557D BaseClass: NativeClass:/Script/Engine.StaticMeshActor Name:StaticMeshActor_9 Label:SM_Ramp2 SpatiallyLoaded:1 Bounds:IsValid=true, Min=(X=1400.000 Y=1500.000 Z=0.000), Max=(X=1800.000 Y=1700.000 Z=100.000) RuntimeGrid:None EditorOnly:0 RuntimeOnly:0 HLODRelevant:1 FolderPath:Block01 FolderGuid:7D23E5AE4C2A421F86AF6986D87E6D05
 |   |   |- Guid:EEA7490542BD806E1018018E078030F9 BaseClass: NativeClass:/Script/Engine.StaticMeshActor Name:StaticMeshActor_UAID_047C16546DA0857C01_1982670512 Label:SM_Cube25 SpatiallyLoaded:1 Bounds:IsValid=true, Min=(X=0.000 Y=28680.000 Z=-50.000), Max=(X=8475.000 Y=43080.000 Z=0.000) RuntimeGrid:None EditorOnly:0 RuntimeOnly:0 HLODRelevant:1 FolderPath:Playground FolderGuid:C73F09FC4215536B1DCE2A9E0A830C70
 |   |   |- Guid:F1924B8D48954B30891B2DB6A694F9CC BaseClass: NativeClass:/Script/Engine.StaticMeshActor Name:StaticMeshActor_1 Label:SM_Cube SpatiallyLoaded:1 Bounds:IsValid=true, Min=(X=0.000 Y=0.000 Z=-50.000), Max=(X=8475.000 Y=14400.000 Z=0.000) RuntimeGrid:None EditorOnly:0 RuntimeOnly:0 HLODRelevant:1 FolderPath:Playground FolderGuid:C73F09FC4215536B1DCE2A9E0A830C70
 |   |   |- Guid:F4AAA1CA4D204EB96E54F5BD1EB46A62 BaseClass: NativeClass:/Script/Engine.StaticMeshActor Name:StaticMeshActor_7 Label:SM_Cube7 SpatiallyLoaded:1 Bounds:IsValid=true, Min=(X=1300.000 Y=2200.000 Z=0.000), Max=(X=1500.000 Y=2300.000 Z=200.000) RuntimeGrid:None EditorOnly:0 RuntimeOnly:0 HLODRelevant:1 FolderPath:Block01 FolderGuid:7D23E5AE4C2A421F86AF6986D87E6D05
 |   |   |- Guid:F5E3FEB3450C49844FD93DA8E083C8AD BaseClass: NativeClass:/Script/Engine.PostProcessVolume Name:PostProcessVolume_0 Label:PostProcessVolume SpatiallyLoaded:0 Bounds:IsValid=true, Min=(X=0.000 Y=0.000 Z=400.000), Max=(X=200.000 Y=200.000 Z=600.000) RuntimeGrid:None EditorOnly:0 RuntimeOnly:0 HLODRelevant:0 FolderPath:Lighting FolderGuid:963EC3EB4002CCE9759E2EBA541A873A
 |   |   |- Guid:F6AFD91B4D13B0CB65259DAE53516815 BaseClass: NativeClass:/Script/Engine.StaticMeshActor Name:StaticMeshActor_UAID_047C16546DA0A07B01_1280052208 Label:SM_Cube17 SpatiallyLoaded:1 Bounds:IsValid=true, Min=(X=-4065.000 Y=10.000 Z=0.000), Max=(X=-3090.000 Y=8835.000 Z=2000.000) RuntimeGrid:None EditorOnly:0 RuntimeOnly:0 HLODRelevant:1 FolderPath:Playground FolderGuid:C73F09FC4215536B1DCE2A9E0A830C70
 |   |   |- Guid:F703AD214DE20FBE9DA411817BF79E0A BaseClass: NativeClass:/Script/Engine.StaticMeshActor Name:StaticMeshActor_21 Label:SM_QuarterCylinder3 SpatiallyLoaded:1 Bounds:IsValid=true, Min=(X=1500.000 Y=2200.000 Z=0.000), Max=(X=1600.000 Y=2300.000 Z=200.000) RuntimeGrid:None EditorOnly:0 RuntimeOnly:0 HLODRelevant:1 FolderPath:Block01 FolderGuid:7D23E5AE4C2A421F86AF6986D87E6D05
 |   |   |- Guid:F80209AA4F003901CDBD8FB2818E04D0 BaseClass: NativeClass:/Script/Engine.StaticMeshActor Name:StaticMeshActor_UAID_047C16546DA0A07B01_1836262230 Label:Ramp_17 SpatiallyLoaded:1 Bounds:IsValid=true, Min=(X=-3870.000 Y=3559.999 Z=1805.000), Max=(X=-3090.404 Y=7160.000 Z=2794.486) RuntimeGrid:None EditorOnly:0 RuntimeOnly:0 HLODRelevant:1
 |   |   |- Guid:FBEA72D24110FD8FBAFFA18567BA8F6A BaseClass: NativeClass:/Script/Engine.StaticMeshActor Name:StaticMeshActor_UAID_047C16546DA0A17B01_1475843417 Label:Ramp_23 SpatiallyLoaded:1 Bounds:IsValid=true, Min=(X=3220.000 Y=65.109 Z=1970.000), Max=(X=4320.000 Y=275.000 Z=2329.813) RuntimeGrid:None EditorOnly:0 RuntimeOnly:0 HLODRelevant:1
 |   |   |- Guid:FDB7FBD1412EE56928C3458144F349AE BaseClass: NativeClass:/Script/Engine.StaticMeshActor Name:StaticMeshActor_UAID_047C16546DA0857C01_1991551518 Label:SM_Cube31 SpatiallyLoaded:1 Bounds:IsValid=true, Min=(X=16570.000 Y=28680.000 Z=-50.000), Max=(X=25045.000 Y=43080.000 Z=0.000) RuntimeGrid:None EditorOnly:0 RuntimeOnly:0 HLODRelevant:1 FolderPath:Playground FolderGuid:C73F09FC4215536B1DCE2A9E0A830C70
 |   |   |- Guid:FF698C67459ADB4982D7759C0905EE9F BaseClass: NativeClass:/Script/Engine.StaticMeshActor Name:StaticMeshActor_6 Label:SM_Cube3 SpatiallyLoaded:1 Bounds:IsValid=true, Min=(X=-3420.000 Y=8780.000 Z=0.000), Max=(X=2380.000 Y=8880.000 Z=625.000) RuntimeGrid:None EditorOnly:0 RuntimeOnly:0 HLODRelevant:1 FolderPath:Playground FolderGuid:C73F09FC4215536B1DCE2A9E0A830C70
 |   |- [+] Clusters:
 |   |   |- [+] [  0]
 |   |   |   |- Guid:6BAF4DDD444C60371492D3919DB42C97 BaseClass: NativeClass:/Script/Engine.WorldDataLayers Name:WorldDataLayers Label:WorldDataLayers SpatiallyLoaded:0 Bounds:IsValid=true, Min=(X=0.000 Y=0.000 Z=0.000), Max=(X=0.000 Y=0.000 Z=0.000) RuntimeGrid:None EditorOnly:0 RuntimeOnly:0 HLODRelevant:0
 |   |   |- [+] [  1]
 |   |   |   |- Guid:217747374D86E30FE4782B8D4435BB73 BaseClass: NativeClass:/Script/Engine.StaticMeshActor Name:StaticMeshActor_UAID_04D4C47A62FEE86601_1795636708 Label:SM_Cube15 SpatiallyLoaded:1 Bounds:IsValid=true, Min=(X=0.000 Y=14330.000 Z=-50.000), Max=(X=8475.000 Y=28730.000 Z=0.000) RuntimeGrid:None EditorOnly:0 RuntimeOnly:0 HLODRelevant:1 FolderPath:Playground FolderGuid:C73F09FC4215536B1DCE2A9E0A830C70
 |   |   |- [+] [  2]
 |   |   |   |- Guid:59CE89D047C75FBE41189BA8ABD2CA2A BaseClass: NativeClass:/Script/Engine.StaticMeshActor Name:StaticMeshActor_18 Label:SM_QuarterCylinder SpatiallyLoaded:1 Bounds:IsValid=true, Min=(X=2500.000 Y=5660.000 Z=0.000), Max=(X=2600.000 Y=5760.000 Z=200.000) RuntimeGrid:None EditorOnly:0 RuntimeOnly:0 HLODRelevant:1 FolderPath:Block02 FolderGuid:EBA23F8248252949750E43911A3A1CDD
 |   |   |- [+] [  3]
 |   |   |   |- Guid:74939E6A44DF4360552FF9AE85E3FFEA BaseClass: NativeClass:/Script/Engine.StaticMeshActor Name:StaticMeshActor_UAID_047C16546DA09B7C01_1642773394 Label:Tube2 SpatiallyLoaded:1 Bounds:IsValid=true, Min=(X=18724.331 Y=2627.049 Z=2487.656), Max=(X=29235.713 Y=3970.527 Z=3832.344) RuntimeGrid:None EditorOnly:0 RuntimeOnly:0 HLODRelevant:1
 |   |   |- [+] [  4]
 |   |   |   |- Guid:7DBD9D224E18805D660E2C872E2A516C BaseClass: NativeClass:/Script/Engine.StaticMeshActor Name:StaticMeshActor_UAID_047C16546DA0857C01_1982673514 Label:SM_Cube27 SpatiallyLoaded:1 Bounds:IsValid=true, Min=(X=8270.000 Y=28680.000 Z=-50.000), Max=(X=16745.000 Y=43080.000 Z=0.000) RuntimeGrid:None EditorOnly:0 RuntimeOnly:0 HLODRelevant:1 FolderPath:Playground FolderGuid:C73F09FC4215536B1DCE2A9E0A830C70
 |   |   |- [+] [  5]
 |   |   |   |- Guid:2DE6252549485D3DE36C8FA6D40DAF9D BaseClass: NativeClass:/Script/Engine.StaticMeshActor Name:StaticMeshActor_UAID_047C16546DA0A07B01_1419624215 Label:SM_Cube20 SpatiallyLoaded:1 Bounds:IsValid=true, Min=(X=8210.000 Y=0.000 Z=-50.000), Max=(X=16685.000 Y=14400.000 Z=0.000) RuntimeGrid:None EditorOnly:0 RuntimeOnly:0 HLODRelevant:1 FolderPath:Playground FolderGuid:C73F09FC4215536B1DCE2A9E0A830C70
 |   |   |- [+] [  6]
 |   |   |   |- Guid:34A2124C4F46FD9CE8C73C938ED39686 BaseClass: NativeClass:/Script/Engine.StaticMeshActor Name:StaticMeshActor_UAID_047C16546DA0857C01_1997785520 Label:SM_Cube33 SpatiallyLoaded:1 Bounds:IsValid=true, Min=(X=-16630.000 Y=-14410.000 Z=-50.000), Max=(X=-8155.000 Y=-10.000 Z=0.000) RuntimeGrid:None EditorOnly:0 RuntimeOnly:0 HLODRelevant:1 FolderPath:Playground FolderGuid:C73F09FC4215536B1DCE2A9E0A830C70
 |   |   |- [+] [  7]
 |   |   |   |- Guid:F5E3FEB3450C49844FD93DA8E083C8AD BaseClass: NativeClass:/Script/Engine.PostProcessVolume Name:PostProcessVolume_0 Label:PostProcessVolume SpatiallyLoaded:0 Bounds:IsValid=true, Min=(X=0.000 Y=0.000 Z=400.000), Max=(X=200.000 Y=200.000 Z=600.000) RuntimeGrid:None EditorOnly:0 RuntimeOnly:0 HLODRelevant:0 FolderPath:Lighting FolderGuid:963EC3EB4002CCE9759E2EBA541A873A
 |   |   |- [+] [  8]
 |   |   |   |- Guid:84703DB84A0F80AF51A88DAC6959EA30 BaseClass: NativeClass:/Script/Engine.StaticMeshActor Name:StaticMeshActor_UAID_047C16546DA0A07B01_2008792236 Label:Ramp_20 SpatiallyLoaded:1 Bounds:IsValid=true, Min=(X=-4639.595 Y=1860.000 Z=1805.000), Max=(X=-3860.000 Y=5460.001 Z=2794.486) RuntimeGrid:None EditorOnly:0 RuntimeOnly:0 HLODRelevant:1
 |   |   |- [+] [  9]
 |   |   |   |- Guid:C9CB645B4EBAC5F46441CD93F4B1CDB9 BaseClass: NativeClass:/Script/Engine.StaticMeshActor Name:StaticMeshActor_UAID_04D4C47A62FEE86601_1755039705 Label:SM_Cube14 SpatiallyLoaded:1 Bounds:IsValid=true, Min=(X=-8470.000 Y=-10.000 Z=-50.000), Max=(X=5.000 Y=14390.000 Z=0.000) RuntimeGrid:None EditorOnly:0 RuntimeOnly:0 HLODRelevant:1 FolderPath:Playground FolderGuid:C73F09FC4215536B1DCE2A9E0A830C70
 |   |   |- [+] [ 10]
 |   |   |   |- Guid:E73E39994140315EB81324BF0A5D6400 BaseClass: NativeClass:/Script/Engine.StaticMeshActor Name:StaticMeshActor_10 Label:SM_ChamferCube2 SpatiallyLoaded:1 Bounds:IsValid=true, Min=(X=992.077 Y=2692.077 Z=0.013), Max=(X=1107.923 Y=2807.923 Z=100.013) RuntimeGrid:None EditorOnly:0 RuntimeOnly:0 HLODRelevant:0
 |   |   |- [+] [ 11]
 |   |   |   |- Guid:E9C70898422713821A5225A6A2B5FA60 BaseClass: NativeClass:/Script/Engine.StaticMeshActor Name:StaticMeshActor_UAID_047C16546DA0857C01_1997783519 Label:SM_Cube32 SpatiallyLoaded:1 Bounds:IsValid=true, Min=(X=-16630.000 Y=-10.000 Z=-50.000), Max=(X=-8155.000 Y=14390.000 Z=0.000) RuntimeGrid:None EditorOnly:0 RuntimeOnly:0 HLODRelevant:1 FolderPath:Playground FolderGuid:C73F09FC4215536B1DCE2A9E0A830C70
 |   |   |- [+] [ 12]
 |   |   |   |- Guid:DAB9ABA941CF2CEF786BE98AF38640A4 BaseClass: NativeClass:/Script/Engine.StaticMeshActor Name:StaticMeshActor_UAID_047C16546DA0857C01_1991548516 Label:SM_Cube29 SpatiallyLoaded:1 Bounds:IsValid=true, Min=(X=16490.000 Y=-14400.000 Z=-50.000), Max=(X=24965.000 Y=0.000 Z=0.000) RuntimeGrid:None EditorOnly:0 RuntimeOnly:0 HLODRelevant:1 FolderPath:Playground FolderGuid:C73F09FC4215536B1DCE2A9E0A830C70
 |   |   |- [+] [ 13]
 |   |   |   |- Guid:5B97F4A64FB21F77EFC44386BF705B4C BaseClass: NativeClass:/Script/Engine.TextRenderActor Name:TextRenderActor_1 Label:TextRenderActor SpatiallyLoaded:1 Bounds:IsValid=true, Min=(X=-0.100 Y=1100.000 Z=65.013), Max=(X=-0.100 Y=2392.308 Z=215.013) RuntimeGrid:None EditorOnly:0 RuntimeOnly:0 HLODRelevant:0
 |   |   |- [+] [ 14]
 |   |   |   |- Guid:FDB7FBD1412EE56928C3458144F349AE BaseClass: NativeClass:/Script/Engine.StaticMeshActor Name:StaticMeshActor_UAID_047C16546DA0857C01_1991551518 Label:SM_Cube31 SpatiallyLoaded:1 Bounds:IsValid=true, Min=(X=16570.000 Y=28680.000 Z=-50.000), Max=(X=25045.000 Y=43080.000 Z=0.000) RuntimeGrid:None EditorOnly:0 RuntimeOnly:0 HLODRelevant:1 FolderPath:Playground FolderGuid:C73F09FC4215536B1DCE2A9E0A830C70
 |   |   |- [+] [ 15]
 |   |   |   |- Guid:7D1955304B160677804CAF926B13A1A6 BaseClass: NativeClass:/Script/Engine.StaticMeshActor Name:StaticMeshActor_UAID_047C16546DA0857C01_1991546515 Label:SM_Cube28 SpatiallyLoaded:1 Bounds:IsValid=true, Min=(X=16510.000 Y=0.000 Z=-50.000), Max=(X=24985.000 Y=14400.000 Z=0.000) RuntimeGrid:None EditorOnly:0 RuntimeOnly:0 HLODRelevant:1 FolderPath:Playground FolderGuid:C73F09FC4215536B1DCE2A9E0A830C70
 |   |   |- [+] [ 16]
 |   |   |   |- Guid:D15B9F744DDE7720BB713A87F332D4AB BaseClass: NativeClass:/Script/Engine.StaticMeshActor Name:StaticMeshActor_UAID_04D4C47A62FEE16501_2047804415 Label:Ramp_01 SpatiallyLoaded:1 Bounds:IsValid=true, Min=(X=7820.000 Y=4369.999 Z=-99.689), Max=(X=8479.658 Y=7970.000 Z=500.000) RuntimeGrid:None EditorOnly:0 RuntimeOnly:0 HLODRelevant:1
 |   |   |- [+] [ 17]
 |   |   |   |- Guid:2C9C9680495BE6529984F8BFBD3A5A92 BaseClass: NativeClass:/Script/Engine.StaticMeshActor Name:StaticMeshActor_UAID_04D4C47A62FEE26501_1079456595 Label:Ramp_03 SpatiallyLoaded:1 Bounds:IsValid=true, Min=(X=7590.000 Y=30.058 Z=-34.891), Max=(X=8429.806 Y=842.497 Z=175.000) RuntimeGrid:None EditorOnly:0 RuntimeOnly:0 HLODRelevant:1
 |   |   |- [+] [ 18]
 |   |   |   |- Guid:78C9E3A045DB7D7590A87EB827E0D898 BaseClass: NativeClass:/Script/Engine.StaticMeshActor Name:StaticMeshActor_UAID_047C16546DA0857C01_1991550517 Label:SM_Cube30 SpatiallyLoaded:1 Bounds:IsValid=true, Min=(X=16570.000 Y=14330.000 Z=-50.000), Max=(X=25045.000 Y=28730.000 Z=0.000) RuntimeGrid:None EditorOnly:0 RuntimeOnly:0 HLODRelevant:1 FolderPath:Playground FolderGuid:C73F09FC4215536B1DCE2A9E0A830C70
 |   |   |- [+] [ 19]
 |   |   |   |- Guid:31FC9BFF4F659129151DB49899C971AB BaseClass: NativeClass:/Script/Engine.StaticMeshActor Name:StaticMeshActor_UAID_047C16546DA0A07B01_1300525211 Label:Ramp_10 SpatiallyLoaded:1 Bounds:IsValid=true, Min=(X=-3209.642 Y=7109.999 Z=-99.689), Max=(X=-2520.000 Y=9010.000 Z=500.000) RuntimeGrid:None EditorOnly:0 RuntimeOnly:0 HLODRelevant:1
 |   |   |- [+] [ 20]
 |   |   |   |- Guid:4D3BE93F4146AAAC8BBE79999D96D57F BaseClass: NativeClass:/Script/Engine.VolumetricCloud Name:VolumetricCloud_0 Label:VolumetricCloud SpatiallyLoaded:0 Bounds:IsValid=true, Min=(X=0.000 Y=0.000 Z=820.000), Max=(X=0.000 Y=0.000 Z=820.000) RuntimeGrid:None EditorOnly:0 RuntimeOnly:0 HLODRelevant:0 FolderPath:Lighting FolderGuid:963EC3EB4002CCE9759E2EBA541A873A
 |   |   |- [+] [ 21]
 |   |   |   |- Guid:075F7D744F74C273F59E618B89A41C12 BaseClass: NativeClass:/Script/Engine.StaticMeshActor Name:StaticMeshActor_UAID_047C16546DA0A17B01_1475845418 Label:Ramp_24 SpatiallyLoaded:1 Bounds:IsValid=true, Min=(X=4229.999 Y=65.109 Z=1970.000), Max=(X=7830.000 Y=275.000 Z=2329.813) RuntimeGrid:None EditorOnly:0 RuntimeOnly:0 HLODRelevant:1
 |   |   |- [+] [ 22]
 |   |   |   |- Guid:DBC730174A7F51D9E14433AEF0C30A39 BaseClass: NativeClass:/Script/Engine.StaticMeshActor Name:StaticMeshActor_24 Label:SM_Cube13 SpatiallyLoaded:1 Bounds:IsValid=true, Min=(X=1500.000 Y=7310.000 Z=0.000), Max=(X=1600.000 Y=7410.000 Z=200.000) RuntimeGrid:None EditorOnly:0 RuntimeOnly:0 HLODRelevant:1 FolderPath:Block03 FolderGuid:7B7009C345D3D6DD94D3429E1D79C034
 |   |   |- [+] [ 23]
 |   |   |   |- Guid:CC3B936443337422473A26BB976D30B8 BaseClass: NativeClass:/Script/Engine.StaticMeshActor Name:StaticMeshActor_UAID_04D4C47A62FEE76601_1892005527 Label:Ramp_6 SpatiallyLoaded:1 Bounds:IsValid=true, Min=(X=30.000 Y=0.311 Z=-99.689), Max=(X=1130.000 Y=600.000 Z=500.000) RuntimeGrid:None EditorOnly:0 RuntimeOnly:0 HLODRelevant:1
 |   |   |- [+] [ 24]
 |   |   |   |- Guid:1A789DC8415097E9856E5DB60740F01D BaseClass: NativeClass:/Script/Engine.StaticMeshActor Name:StaticMeshActor_34 Label:SM_QuarterCylinder13 SpatiallyLoaded:1 Bounds:IsValid=true, Min=(X=5200.000 Y=3620.000 Z=0.000), Max=(X=5400.000 Y=3820.000 Z=100.000) RuntimeGrid:None EditorOnly:0 RuntimeOnly:0 HLODRelevant:1 FolderPath:Cylinder FolderGuid:D075E5BA49330D3EC2503D81A7CF88D1
 |   |   |- [+] [ 25]
 |   |   |   |- Guid:D61A62974EB6E1D6137BFBB7D1ADA2EE BaseClass: NativeClass:/Script/Engine.StaticMeshActor Name:StaticMeshActor_UAID_047C16546DA0A07B01_1574917223 Label:Ramp_13 SpatiallyLoaded:1 Bounds:IsValid=true, Min=(X=-5190.000 Y=10.000 Z=-99.689), Max=(X=-4500.358 Y=1910.001 Z=500.000) RuntimeGrid:None EditorOnly:0 RuntimeOnly:0 HLODRelevant:1
 |   |   |- [+] [ 26]
 |   |   |   |- Guid:AB74120142217676C6EC818E6B49412B BaseClass: NativeClass:/Script/Engine.StaticMeshActor Name:StaticMeshActor_15 Label:SM_Cube10 SpatiallyLoaded:1 Bounds:IsValid=true, Min=(X=1800.000 Y=2100.000 Z=100.000), Max=(X=2000.000 Y=2200.000 Z=200.000) RuntimeGrid:None EditorOnly:0 RuntimeOnly:0 HLODRelevant:1 FolderPath:Block01 FolderGuid:7D23E5AE4C2A421F86AF6986D87E6D05
 |   |   |- [+] [ 27]
 |   |   |   |- Guid:F6AFD91B4D13B0CB65259DAE53516815 BaseClass: NativeClass:/Script/Engine.StaticMeshActor Name:StaticMeshActor_UAID_047C16546DA0A07B01_1280052208 Label:SM_Cube17 SpatiallyLoaded:1 Bounds:IsValid=true, Min=(X=-4065.000 Y=10.000 Z=0.000), Max=(X=-3090.000 Y=8835.000 Z=2000.000) RuntimeGrid:None EditorOnly:0 RuntimeOnly:0 HLODRelevant:1 FolderPath:Playground FolderGuid:C73F09FC4215536B1DCE2A9E0A830C70
 |   |   |- [+] [ 28]
 |   |   |   |- Guid:41FF223545417939335035888459FA71 BaseClass: NativeClass:/Script/Engine.StaticMeshActor Name:StaticMeshActor_UAID_047C16546DA0EE7B01_1483967935 Label:SM_Normal_Loop SpatiallyLoaded:1 Bounds:IsValid=true, Min=(X=3243.047 Y=11452.014 Z=-1717.596), Max=(X=8222.739 Y=16720.629 Z=3672.086) RuntimeGrid:None EditorOnly:0 RuntimeOnly:0 HLODRelevant:1
 |   |   |- [+] [ 29]
 |   |   |   |- Guid:1136141B436DB9677D25F88228006D04 BaseClass: NativeClass:/Script/Engine.StaticMeshActor Name:StaticMeshActor_UAID_047C16546DA09B7C01_1637419387 Label:SM_Cube37 SpatiallyLoaded:1 Bounds:IsValid=true, Min=(X=24890.000 Y=0.000 Z=-50.000), Max=(X=33365.000 Y=14400.000 Z=0.000) RuntimeGrid:None EditorOnly:0 RuntimeOnly:0 HLODRelevant:1 FolderPath:Playground FolderGuid:C73F09FC4215536B1DCE2A9E0A830C70
 |   |   |- [+] [ 30]
 |   |   |   |- Guid:CCFF262C46EEFFDF319E7F9539CE697E BaseClass: NativeClass:/Script/Engine.SkyAtmosphere Name:SkyAtmosphere_0 Label:SkyAtmosphere SpatiallyLoaded:0 Bounds:IsValid=true, Min=(X=0.000 Y=0.000 Z=1020.000), Max=(X=0.000 Y=0.000 Z=1020.000) RuntimeGrid:None EditorOnly:0 RuntimeOnly:0 HLODRelevant:0 FolderPath:Lighting FolderGuid:963EC3EB4002CCE9759E2EBA541A873A
 |   |   |- [+] [ 31]
 |   |   |   |- Guid:EC4E0C944CE6AC6E784BC6BB2916EA13 BaseClass: NativeClass:/Script/Engine.StaticMeshActor Name:StaticMeshActor_UAID_A4AE111137DC5EFB00_1110535423 Label:SM_SkySphere SpatiallyLoaded:0 Bounds:IsValid=true, Min=(X=-1638400.000 Y=-1638400.000 Z=-1638400.000), Max=(X=1638400.000 Y=1638400.000 Z=1638400.000) RuntimeGrid:None EditorOnly:0 RuntimeOnly:0 HLODRelevant:1 FolderPath:Lighting FolderGuid:963EC3EB4002CCE9759E2EBA541A873A
 |   |   |- [+] [ 32]
 |   |   |   |- Guid:5408F02B48233640B2C630BF23DC8FA1 BaseClass: NativeClass:/Script/Engine.StaticMeshActor Name:StaticMeshActor_UAID_047C16546DA0A07B01_1574916222 Label:Ramp_12 SpatiallyLoaded:1 Bounds:IsValid=true, Min=(X=-5190.000 Y=5450.000 Z=-99.689), Max=(X=-4500.357 Y=8850.001 Z=500.000) RuntimeGrid:None EditorOnly:0 RuntimeOnly:0 HLODRelevant:1
 |   |   |- [+] [ 33]
 |   |   |   |- Guid:C11AAEC64E898FE1D5550F80ACCD04E6 BaseClass: NativeClass:/Script/Engine.StaticMeshActor Name:StaticMeshActor_UAID_047C16546DA0A07B01_1666054226 Label:Ramp_14 SpatiallyLoaded:1 Bounds:IsValid=true, Min=(X=9310.311 Y=4320.000 Z=-34.891), Max=(X=9910.000 Y=7920.001 Z=175.000) RuntimeGrid:None EditorOnly:0 RuntimeOnly:0 HLODRelevant:1
 |   |   |- [+] [ 34]
 |   |   |   |- Guid:007CE48044BFC38C9086E9B6AA651B21 BaseClass: NativeClass:/Script/Engine.StaticMeshActor Name:StaticMeshActor_UAID_047C16546DA0A07B01_1300524210 Label:Ramp_9 SpatiallyLoaded:1 Bounds:IsValid=true, Min=(X=-3209.642 Y=9.999 Z=-99.689), Max=(X=-2520.000 Y=3610.000 Z=500.000) RuntimeGrid:None EditorOnly:0 RuntimeOnly:0 HLODRelevant:1
 |   |   |- [+] [ 35]
 |   |   |   |- Guid:1A6EFD7E4199588C31DAF48BB91812F5 BaseClass: NativeClass:/Script/Engine.StaticMeshActor Name:StaticMeshActor_UAID_047C16546DA09B7C01_1637420389 Label:SM_Cube39 SpatiallyLoaded:1 Bounds:IsValid=true, Min=(X=33250.000 Y=28680.000 Z=-50.000), Max=(X=41725.000 Y=43080.000 Z=0.000) RuntimeGrid:None EditorOnly:0 RuntimeOnly:0 HLODRelevant:1 FolderPath:Playground FolderGuid:C73F09FC4215536B1DCE2A9E0A830C70
 |   |   |- [+] [ 36]
 |   |   |   |- Guid:C15C2C8D4EA4ADE0BD1349AFD814988B BaseClass: NativeClass:/Script/Engine.StaticMeshActor Name:StaticMeshActor_14 Label:SM_Ramp3 SpatiallyLoaded:1 Bounds:IsValid=true, Min=(X=1800.000 Y=1700.000 Z=100.000), Max=(X=2000.000 Y=2100.000 Z=200.000) RuntimeGrid:None EditorOnly:0 RuntimeOnly:0 HLODRelevant:1 FolderPath:Block01 FolderGuid:7D23E5AE4C2A421F86AF6986D87E6D05
 |   |   |- [+] [ 37]
 |   |   |   |- Guid:9BFF363746062F457E2F92A4631DBA20 BaseClass: NativeClass:/Script/Engine.StaticMeshActor Name:StaticMeshActor_11 Label:SM_ChamferCube3 SpatiallyLoaded:1 Bounds:IsValid=true, Min=(X=481.699 Y=2271.699 Z=0.013), Max=(X=618.301 Y=2408.301 Z=100.013) RuntimeGrid:None EditorOnly:0 RuntimeOnly:0 HLODRelevant:0
 |   |   |- [+] [ 38]
 |   |   |   |- Guid:43815E84492231AFC407F59E3C28176B BaseClass: NativeClass:/Script/Engine.StaticMeshActor Name:StaticMeshActor_4 Label:SM_Cube6 SpatiallyLoaded:1 Bounds:IsValid=true, Min=(X=8360.000 Y=100.000 Z=0.000), Max=(X=9410.000 Y=11475.000 Z=2000.000) RuntimeGrid:None EditorOnly:0 RuntimeOnly:0 HLODRelevant:1 FolderPath:Playground FolderGuid:C73F09FC4215536B1DCE2A9E0A830C70
 |   |   |- [+] [ 39]
 |   |   |   |- Guid:C29BBF214BBFBA9DE7E6B6B1FD68D470 BaseClass: NativeClass:/Script/Engine.StaticMeshActor Name:StaticMeshActor_UAID_04D4C47A62FEE26501_1224710598 Label:Ramp_5 SpatiallyLoaded:1 Bounds:IsValid=true, Min=(X=7770.000 Y=-54.518 Z=100.000), Max=(X=8489.627 Y=875.000 Z=2000.001) RuntimeGrid:None EditorOnly:0 RuntimeOnly:0 HLODRelevant:1
 |   |   |- [+] [ 40]
 |   |   |   |- Guid:3866429C49815F6C3EE863AE0128C913 BaseClass: NativeClass:/Script/Engine.StaticMeshActor Name:StaticMeshActor_UAID_047C16546DA0857C01_1982672513 Label:SM_Cube26 SpatiallyLoaded:1 Bounds:IsValid=true, Min=(X=-8470.000 Y=28670.000 Z=-50.000), Max=(X=5.000 Y=43070.000 Z=0.000) RuntimeGrid:None EditorOnly:0 RuntimeOnly:0 HLODRelevant:1 FolderPath:Playground FolderGuid:C73F09FC4215536B1DCE2A9E0A830C70
 |   |   |- [+] [ 41]
 |   |   |   |- Guid:4593FF484F2DC02EF8D8759E72A8E61A BaseClass: NativeClass:/Script/Engine.StaticMeshActor Name:StaticMeshActor_UAID_047C16546DA0A07B01_1574915221 Label:Ramp_11 SpatiallyLoaded:1 Bounds:IsValid=true, Min=(X=-5190.000 Y=1860.000 Z=-99.689), Max=(X=-4500.358 Y=5460.001 Z=500.000) RuntimeGrid:None EditorOnly:0 RuntimeOnly:0 HLODRelevant:1
 |   |   |- [+] [ 42]
 |   |   |   |- Guid:7587444F4FB13B9B9CD114BBE7885340 BaseClass: NativeClass:/Script/Engine.StaticMeshActor Name:StaticMeshActor_19 Label:SM_QuarterCylinder2 SpatiallyLoaded:1 Bounds:IsValid=true, Min=(X=2500.000 Y=5460.000 Z=0.000), Max=(X=2600.000 Y=5560.000 Z=200.000) RuntimeGrid:None EditorOnly:0 RuntimeOnly:0 HLODRelevant:1 FolderPath:Block02 FolderGuid:EBA23F8248252949750E43911A3A1CDD
 |   |   |- [+] [ 43]
 |   |   |   |- Guid:B785ED2844B84CFB91E7F39FE661CD99 BaseClass: NativeClass:/Script/Engine.DirectionalLight Name:DirectionalLight_0 Label:DirectionalLight SpatiallyLoaded:0 Bounds:IsValid=true, Min=(X=-1048576.000 Y=-1048576.000 Z=-1048576.000), Max=(X=1048576.000 Y=1048576.000 Z=1048576.000) RuntimeGrid:None EditorOnly:0 RuntimeOnly:0 HLODRelevant:0 FolderPath:Lighting FolderGuid:963EC3EB4002CCE9759E2EBA541A873A
 |   |   |- [+] [ 44]
 |   |   |   |- Guid:471537124BDA8FC79590349AD149FC40 BaseClass: NativeClass:/Script/Engine.StaticMeshActor Name:StaticMeshActor_UAID_04D4C47A62FEE16501_2139398418 Label:Ramp_4 SpatiallyLoaded:1 Bounds:IsValid=true, Min=(X=4599.999 Y=0.311 Z=-99.689), Max=(X=7600.000 Y=600.000 Z=500.000) RuntimeGrid:None EditorOnly:0 RuntimeOnly:0 HLODRelevant:1
 |   |   |- [+] [ 45]
 |   |   |   |- Guid:8F35F6F14B39B82B0191909FE13A10DF BaseClass: NativeClass:/Script/Engine.StaticMeshActor Name:StaticMeshActor_UAID_047C16546DA0A07B01_2008794238 Label:Ramp_22 SpatiallyLoaded:1 Bounds:IsValid=true, Min=(X=-4639.596 Y=10.000 Z=1805.000), Max=(X=-3860.000 Y=1910.001 Z=2794.486) RuntimeGrid:None EditorOnly:0 RuntimeOnly:0 HLODRelevant:1
 |   |   |- [+] [ 46]
 |   |   |   |- Guid:1B9598344A1F20E1A5125DA8A7E9FC0F BaseClass: NativeClass:/Script/Engine.StaticMeshActor Name:StaticMeshActor_22 Label:SM_QuarterCylinder4 SpatiallyLoaded:1 Bounds:IsValid=true, Min=(X=1500.000 Y=7210.000 Z=0.000), Max=(X=1600.000 Y=7310.000 Z=200.000) RuntimeGrid:None EditorOnly:0 RuntimeOnly:0 HLODRelevant:1 FolderPath:Block03 FolderGuid:7B7009C345D3D6DD94D3429E1D79C034
 |   |   |- [+] [ 47]
 |   |   |   |- Guid:5E4DB4154690C8B4EB14EAA9E92FAAFF BaseClass: NativeClass:/Script/Engine.StaticMeshActor Name:StaticMeshActor_33 Label:SM_QuarterCylinder12 SpatiallyLoaded:1 Bounds:IsValid=true, Min=(X=5200.000 Y=3820.000 Z=0.000), Max=(X=5400.000 Y=4020.000 Z=100.000) RuntimeGrid:None EditorOnly:0 RuntimeOnly:0 HLODRelevant:1 FolderPath:Cylinder FolderGuid:D075E5BA49330D3EC2503D81A7CF88D1
 |   |   |- [+] [ 48]
 |   |   |   |- Guid:7C172A0740B33B6D38EEF38A63E0B945 BaseClass: NativeClass:/Script/Engine.StaticMeshActor Name:StaticMeshActor_3 Label:SM_Ramp SpatiallyLoaded:1 Bounds:IsValid=true, Min=(X=5570.000 Y=5180.000 Z=0.000), Max=(X=6070.000 Y=5480.000 Z=125.000) RuntimeGrid:None EditorOnly:0 RuntimeOnly:0 HLODRelevant:1
 |   |   |- [+] [ 49]
 |   |   |   |- Guid:1A446C66439326AA19576E8C6BA3FEFE BaseClass: NativeClass:/Script/Engine.StaticMeshActor Name:StaticMeshActor_UAID_04D4C47A62FEE16501_2106345416 Label:Ramp_2 SpatiallyLoaded:1 Bounds:IsValid=true, Min=(X=7820.000 Y=819.999 Z=-99.689), Max=(X=8479.658 Y=4420.000 Z=500.000) RuntimeGrid:None EditorOnly:0 RuntimeOnly:0 HLODRelevant:1
 |   |   |- [+] [ 50]
 |   |   |   |- Guid:316CF2A6494ACA4C0E4180A87D36AB8F BaseClass: NativeClass:/Script/Engine.ExponentialHeightFog Name:ExponentialHeightFog_0 Label:ExponentialHeightFog SpatiallyLoaded:0 Bounds:IsValid=true, Min=(X=-5600.000 Y=-50.000 Z=-6850.000), Max=(X=-5600.000 Y=-50.000 Z=-6850.000) RuntimeGrid:None EditorOnly:0 RuntimeOnly:0 HLODRelevant:0 FolderPath:Lighting FolderGuid:963EC3EB4002CCE9759E2EBA541A873A
 |   |   |- [+] [ 51]
 |   |   |   |- Guid:DE3A079B4635A6D8D620CCBC6C0BB1C0 BaseClass: NativeClass:/Script/Engine.StaticMeshActor Name:StaticMeshActor_35 Label:SM_QuarterCylinder14 SpatiallyLoaded:1 Bounds:IsValid=true, Min=(X=5400.000 Y=3620.000 Z=0.000), Max=(X=5600.000 Y=3820.000 Z=100.000) RuntimeGrid:None EditorOnly:0 RuntimeOnly:0 HLODRelevant:1 FolderPath:Cylinder FolderGuid:D075E5BA49330D3EC2503D81A7CF88D1
 |   |   |- [+] [ 52]
 |   |   |   |- Guid:85F64AD846F2AE7C1A977A97268CF44B BaseClass: NativeClass:/Script/Engine.StaticMeshActor Name:StaticMeshActor_UAID_047C16546DA09B7C01_1637422393 Label:SM_Cube43 SpatiallyLoaded:1 Bounds:IsValid=true, Min=(X=24950.000 Y=14330.000 Z=-50.000), Max=(X=33425.000 Y=28730.000 Z=0.000) RuntimeGrid:None EditorOnly:0 RuntimeOnly:0 HLODRelevant:1 FolderPath:Playground FolderGuid:C73F09FC4215536B1DCE2A9E0A830C70
 |   |   |- [+] [ 53]
 |   |   |   |- Guid:60603A994CD81DB51906B8B53D13D8D1 BaseClass: NativeClass:/Script/Engine.StaticMeshActor Name:StaticMeshActor_UAID_047C16546DA0A07B01_1836263231 Label:Ramp_18 SpatiallyLoaded:1 Bounds:IsValid=true, Min=(X=-3870.000 Y=9.999 Z=1805.010), Max=(X=-3090.404 Y=3610.000 Z=2794.496) RuntimeGrid:None EditorOnly:0 RuntimeOnly:0 HLODRelevant:1
 |   |   |- [+] [ 54]
 |   |   |   |- Guid:79C9B0C246824948C2428ABA13657451 BaseClass: NativeClass:/Script/Engine.StaticMeshActor Name:StaticMeshActor_25 Label:SM_QuarterCylinder6 SpatiallyLoaded:1 Bounds:IsValid=true, Min=(X=1200.000 Y=2200.000 Z=0.000), Max=(X=1300.000 Y=2300.000 Z=200.000) RuntimeGrid:None EditorOnly:0 RuntimeOnly:0 HLODRelevant:1 FolderPath:Block01 FolderGuid:7D23E5AE4C2A421F86AF6986D87E6D05
 |   |   |- [+] [ 55]
 |   |   |   |- Guid:F1924B8D48954B30891B2DB6A694F9CC BaseClass: NativeClass:/Script/Engine.StaticMeshActor Name:StaticMeshActor_1 Label:SM_Cube SpatiallyLoaded:1 Bounds:IsValid=true, Min=(X=0.000 Y=0.000 Z=-50.000), Max=(X=8475.000 Y=14400.000 Z=0.000) RuntimeGrid:None EditorOnly:0 RuntimeOnly:0 HLODRelevant:1 FolderPath:Playground FolderGuid:C73F09FC4215536B1DCE2A9E0A830C70
 |   |   |- [+] [ 56]
 |   |   |   |- Guid:B75438C44998AB0C8C72A9927FF1DB7E BaseClass: NativeClass:/Script/Engine.StaticMeshActor Name:StaticMeshActor_UAID_047C16546DA09B7C01_1563676385 Label:Ramp_31 SpatiallyLoaded:1 Bounds:IsValid=true, Min=(X=7490.000 Y=2184.999 Z=2265.171), Max=(X=8059.704 Y=3835.000 Z=2595.000) RuntimeGrid:None EditorOnly:0 RuntimeOnly:0 HLODRelevant:1
 |   |   |- [+] [ 57]
 |   |   |   |- Guid:08B737BD44863E8069C28198886142A6 BaseClass: NativeClass:/Script/Engine.StaticMeshActor Name:StaticMeshActor_UAID_047C16546DA0A07B01_1486218218 Label:SM_Ramp4 SpatiallyLoaded:1 Bounds:IsValid=true, Min=(X=-385.000 Y=-640.000 Z=-50.000), Max=(X=3790.000 Y=10.000 Z=2400.000) RuntimeGrid:None EditorOnly:0 RuntimeOnly:0 HLODRelevant:1 FolderPath:Block01 FolderGuid:7D23E5AE4C2A421F86AF6986D87E6D05
 |   |   |- [+] [ 58]
 |   |   |   |- Guid:EDAA34A64E50B17535C2EB826C12557D BaseClass: NativeClass:/Script/Engine.StaticMeshActor Name:StaticMeshActor_9 Label:SM_Ramp2 SpatiallyLoaded:1 Bounds:IsValid=true, Min=(X=1400.000 Y=1500.000 Z=0.000), Max=(X=1800.000 Y=1700.000 Z=100.000) RuntimeGrid:None EditorOnly:0 RuntimeOnly:0 HLODRelevant:1 FolderPath:Block01 FolderGuid:7D23E5AE4C2A421F86AF6986D87E6D05
 |   |   |- [+] [ 59]
 |   |   |   |- Guid:4F3C01DD41EB49278E8974A2BBC090EE BaseClass: NativeClass:/Script/Engine.StaticMeshActor Name:StaticMeshActor_UAID_047C16546DA0A07B01_1409485214 Label:SM_Cube19 SpatiallyLoaded:1 Bounds:IsValid=true, Min=(X=0.000 Y=-14400.000 Z=-50.000), Max=(X=8475.000 Y=0.000 Z=0.000) RuntimeGrid:None EditorOnly:0 RuntimeOnly:0 HLODRelevant:1 FolderPath:Playground FolderGuid:C73F09FC4215536B1DCE2A9E0A830C70
 |   |   |- [+] [ 60]
 |   |   |   |- Guid:3B218EED46606B09B459E98037772093 BaseClass: NativeClass:/Script/Engine.StaticMeshActor Name:StaticMeshActor_UAID_047C16546DA0857C01_1997786521 Label:SM_Cube34 SpatiallyLoaded:1 Bounds:IsValid=true, Min=(X=-16630.000 Y=14320.000 Z=-50.000), Max=(X=-8155.000 Y=28720.000 Z=0.000) RuntimeGrid:None EditorOnly:0 RuntimeOnly:0 HLODRelevant:1 FolderPath:Playground FolderGuid:C73F09FC4215536B1DCE2A9E0A830C70
 |   |   |- [+] [ 61]
 |   |   |   |- Guid:C1DD291343858384EE22ED94D120E733 BaseClass: NativeClass:/Script/Engine.StaticMeshActor Name:StaticMeshActor_UAID_047C16546DA0F17B01_1568828471 Label:Ramp_29 SpatiallyLoaded:1 Bounds:IsValid=true, Min=(X=3220.000 Y=3990.249 Z=620.187), Max=(X=4320.000 Y=4470.000 Z=980.000) RuntimeGrid:None EditorOnly:0 RuntimeOnly:0 HLODRelevant:1
 |   |   |- [+] [ 62]
 |   |   |   |- Guid:44C7F235454B70B4011D78A313B5A759 BaseClass: NativeClass:/Script/Engine.StaticMeshActor Name:StaticMeshActor_UAID_04D4C47A62FEE76601_1949187528 Label:Ramp_7 SpatiallyLoaded:1 Bounds:IsValid=true, Min=(X=7820.000 Y=7909.999 Z=-99.689), Max=(X=8479.658 Y=11510.000 Z=500.000) RuntimeGrid:None EditorOnly:0 RuntimeOnly:0 HLODRelevant:1
 |   |   |- [+] [ 63]
 |   |   |   |- Guid:FBEA72D24110FD8FBAFFA18567BA8F6A BaseClass: NativeClass:/Script/Engine.StaticMeshActor Name:StaticMeshActor_UAID_047C16546DA0A17B01_1475843417 Label:Ramp_23 SpatiallyLoaded:1 Bounds:IsValid=true, Min=(X=3220.000 Y=65.109 Z=1970.000), Max=(X=4320.000 Y=275.000 Z=2329.813) RuntimeGrid:None EditorOnly:0 RuntimeOnly:0 HLODRelevant:1
 |   |   |- [+] [ 64]
 |   |   |   |- Guid:1528A2194F08406E67D9D281E4F658C5 BaseClass: NativeClass:/Script/Engine.StaticMeshActor Name:StaticMeshActor_UAID_047C16546DA09B7C01_1637419388 Label:SM_Cube38 SpatiallyLoaded:1 Bounds:IsValid=true, Min=(X=33170.000 Y=-14400.000 Z=-50.000), Max=(X=41645.000 Y=0.000 Z=0.000) RuntimeGrid:None EditorOnly:0 RuntimeOnly:0 HLODRelevant:1 FolderPath:Playground FolderGuid:C73F09FC4215536B1DCE2A9E0A830C70
 |   |   |- [+] [ 65]
 |   |   |   |- Guid:2FB58999456391D349DC0F86DAC136ED BaseClass: NativeClass:/Script/Engine.SkyLight Name:SkyLight_1 Label:SkyLight SpatiallyLoaded:0 Bounds:IsValid=true, Min=(X=0.000 Y=0.000 Z=690.000), Max=(X=0.000 Y=0.000 Z=690.000) RuntimeGrid:None EditorOnly:0 RuntimeOnly:0 HLODRelevant:0 FolderPath:Lighting FolderGuid:963EC3EB4002CCE9759E2EBA541A873A
 |   |   |- [+] [ 66]
 |   |   |   |- Guid:9426E94B4756D9690FA4CEA68E3D228B BaseClass: NativeClass:/Script/Engine.StaticMeshActor Name:StaticMeshActor_UAID_047C16546DA0A07B01_2008793237 Label:Ramp_21 SpatiallyLoaded:1 Bounds:IsValid=true, Min=(X=-4639.595 Y=5230.000 Z=1805.010), Max=(X=-3859.999 Y=8830.001 Z=2794.496) RuntimeGrid:None EditorOnly:0 RuntimeOnly:0 HLODRelevant:1
 |   |   |- [+] [ 67]
 |   |   |   |- Guid:B425B66046116F860CE3D6BD8DD4025C BaseClass: NativeClass:/Script/Engine.StaticMeshActor Name:StaticMeshActor_UAID_047C16546DA0A07B01_1396549212 Label:Ring SpatiallyLoaded:1 Bounds:IsValid=true, Min=(X=-9452.500 Y=-11292.500 Z=1337.499), Max=(X=1272.500 Y=-567.500 Z=3482.501) RuntimeGrid:None EditorOnly:0 RuntimeOnly:0 HLODRelevant:1
 |   |   |- [+] [ 68]
 |   |   |   |- Guid:0B3AF6BC4F67870CFFD1D98023ECBA69 BaseClass: NativeClass:/Script/Engine.StaticMeshActor Name:StaticMeshActor_UAID_047C16546DA0F17B01_1507980470 Label:Ramp_27 SpatiallyLoaded:1 Bounds:IsValid=true, Min=(X=3220.000 Y=3590.000 Z=420.187), Max=(X=4320.000 Y=4069.751 Z=780.000) RuntimeGrid:None EditorOnly:0 RuntimeOnly:0 HLODRelevant:1
 |   |   |- [+] [ 69]
 |   |   |   |- Guid:F80209AA4F003901CDBD8FB2818E04D0 BaseClass: NativeClass:/Script/Engine.StaticMeshActor Name:StaticMeshActor_UAID_047C16546DA0A07B01_1836262230 Label:Ramp_17 SpatiallyLoaded:1 Bounds:IsValid=true, Min=(X=-3870.000 Y=3559.999 Z=1805.000), Max=(X=-3090.404 Y=7160.000 Z=2794.486) RuntimeGrid:None EditorOnly:0 RuntimeOnly:0 HLODRelevant:1
 |   |   |- [+] [ 70]
 |   |   |   |- Guid:EEA7490542BD806E1018018E078030F9 BaseClass: NativeClass:/Script/Engine.StaticMeshActor Name:StaticMeshActor_UAID_047C16546DA0857C01_1982670512 Label:SM_Cube25 SpatiallyLoaded:1 Bounds:IsValid=true, Min=(X=0.000 Y=28680.000 Z=-50.000), Max=(X=8475.000 Y=43080.000 Z=0.000) RuntimeGrid:None EditorOnly:0 RuntimeOnly:0 HLODRelevant:1 FolderPath:Playground FolderGuid:C73F09FC4215536B1DCE2A9E0A830C70
 |   |   |- [+] [ 71]
 |   |   |   |- Guid:BD3AC867422EA69EF465EEAEBC5B6BF5 BaseClass: NativeClass:/Script/Engine.StaticMeshActor Name:StaticMeshActor_UAID_047C16546DA0A07B01_1666057227 Label:Ramp_15 SpatiallyLoaded:1 Bounds:IsValid=true, Min=(X=9310.311 Y=7870.000 Z=-34.891), Max=(X=9910.001 Y=11470.001 Z=175.000) RuntimeGrid:None EditorOnly:0 RuntimeOnly:0 HLODRelevant:1
 |   |   |- [+] [ 72]
 |   |   |   |- Guid:9765ECF54858C165188C95B28D88016B BaseClass: NativeClass:/Script/Engine.StaticMeshActor Name:StaticMeshActor_12 Label:SM_Cube8 SpatiallyLoaded:1 Bounds:IsValid=true, Min=(X=1300.000 Y=5460.000 Z=0.000), Max=(X=2500.000 Y=5760.000 Z=200.000) RuntimeGrid:None EditorOnly:0 RuntimeOnly:0 HLODRelevant:1 FolderPath:Block02 FolderGuid:EBA23F8248252949750E43911A3A1CDD
 |   |   |- [+] [ 73]
 |   |   |   |- Guid:71A98E8B4DF0EF61C984928BD8106DC3 BaseClass: NativeClass:/Script/Engine.StaticMeshActor Name:StaticMeshActor_UAID_047C16546DA0A07B01_1426005216 Label:SM_Cube21 SpatiallyLoaded:1 Bounds:IsValid=true, Min=(X=8190.000 Y=-14400.000 Z=-50.000), Max=(X=16665.000 Y=0.000 Z=0.000) RuntimeGrid:None EditorOnly:0 RuntimeOnly:0 HLODRelevant:1 FolderPath:Playground FolderGuid:C73F09FC4215536B1DCE2A9E0A830C70
 |   |   |- [+] [ 74]
 |   |   |   |- Guid:215B15DF41101B73D3A286949EAAEC06 BaseClass: NativeClass:/Script/Engine.StaticMeshActor Name:StaticMeshActor_UAID_047C16546DA09B7C01_1470524383 Label:Ramp_30 SpatiallyLoaded:1 Bounds:IsValid=true, Min=(X=7429.999 Y=-19.910 Z=-99.689), Max=(X=8509.750 Y=1229.996 Z=500.000) RuntimeGrid:None EditorOnly:0 RuntimeOnly:0 HLODRelevant:1
 |   |   |- [+] [ 75]
 |   |   |   |- Guid:96D54A8845097BBDFCBBB094E21BA20F BaseClass: NativeClass:/Script/Engine.StaticMeshActor Name:StaticMeshActor_UAID_047C16546DA0857C01_1976964511 Label:SM_Cube24 SpatiallyLoaded:1 Bounds:IsValid=true, Min=(X=8270.000 Y=14330.000 Z=-50.000), Max=(X=16745.000 Y=28730.000 Z=0.000) RuntimeGrid:None EditorOnly:0 RuntimeOnly:0 HLODRelevant:1 FolderPath:Playground FolderGuid:C73F09FC4215536B1DCE2A9E0A830C70
 |   |   |- [+] [ 76]
 |   |   |   |- Guid:961864A84FF6F65B68F2A3BE5819D538 BaseClass: NativeClass:/Script/Engine.StaticMeshActor Name:StaticMeshActor_8 Label:SM_Cube4 SpatiallyLoaded:1 Bounds:IsValid=true, Min=(X=1200.000 Y=1700.000 Z=0.000), Max=(X=1800.000 Y=2200.000 Z=200.000) RuntimeGrid:None EditorOnly:0 RuntimeOnly:0 HLODRelevant:1 FolderPath:Block01 FolderGuid:7D23E5AE4C2A421F86AF6986D87E6D05
 |   |   |- [+] [ 77]
 |   |   |   |- Guid:E864EE5542C27D6674BEBB9312F02BB4 BaseClass: NativeClass:/Script/Engine.StaticMeshActor Name:StaticMeshActor_23 Label:SM_QuarterCylinder5 SpatiallyLoaded:1 Bounds:IsValid=true, Min=(X=1500.000 Y=7410.000 Z=0.000), Max=(X=1600.000 Y=7510.000 Z=200.000) RuntimeGrid:None EditorOnly:0 RuntimeOnly:0 HLODRelevant:1 FolderPath:Block03 FolderGuid:7B7009C345D3D6DD94D3429E1D79C034
 |   |   |- [+] [ 78]
 |   |   |   |- Guid:1B4359B240DDE65568A2B3A915608BC8 BaseClass: NativeClass:/Script/Engine.StaticMeshActor Name:StaticMeshActor_UAID_047C16546DA09B7C01_1637422392 Label:SM_Cube42 SpatiallyLoaded:1 Bounds:IsValid=true, Min=(X=24870.000 Y=-14400.000 Z=-50.000), Max=(X=33345.000 Y=0.000 Z=0.000) RuntimeGrid:None EditorOnly:0 RuntimeOnly:0 HLODRelevant:1 FolderPath:Playground FolderGuid:C73F09FC4215536B1DCE2A9E0A830C70
 |   |   |- [+] [ 79]
 |   |   |   |- Guid:15806F4C430DEB354904E88904FDE0E6 BaseClass: NativeClass:/Script/Engine.StaticMeshActor Name:StaticMeshActor_UAID_047C16546DA09B7C01_1514773384 Label:Tube SpatiallyLoaded:1 Bounds:IsValid=true, Min=(X=8404.331 Y=2627.049 Z=2487.656), Max=(X=18915.713 Y=3970.527 Z=3832.344) RuntimeGrid:None EditorOnly:0 RuntimeOnly:0 HLODRelevant:1
 |   |   |- [+] [ 80]
 |   |   |   |- Guid:08F9DC56444CFFF3F13B379E81EF05BC BaseClass: NativeClass:/Script/Engine.StaticMeshActor Name:StaticMeshActor_16 Label:SM_Cube11 SpatiallyLoaded:1 Bounds:IsValid=true, Min=(X=1600.000 Y=7210.000 Z=0.000), Max=(X=1900.000 Y=7510.000 Z=200.000) RuntimeGrid:None EditorOnly:0 RuntimeOnly:0 HLODRelevant:1 FolderPath:Block03 FolderGuid:7B7009C345D3D6DD94D3429E1D79C034
 |   |   |- [+] [ 81]
 |   |   |   |- Guid:94F6D9A645798F5BAD0B58BEED8F27F5 BaseClass: NativeClass:/Script/Engine.StaticMeshActor Name:StaticMeshActor_32 Label:SM_QuarterCylinder11 SpatiallyLoaded:1 Bounds:IsValid=true, Min=(X=5400.000 Y=3820.000 Z=-0.000), Max=(X=5600.000 Y=4020.000 Z=100.000) RuntimeGrid:None EditorOnly:0 RuntimeOnly:0 HLODRelevant:1 FolderPath:Cylinder FolderGuid:D075E5BA49330D3EC2503D81A7CF88D1
 |   |   |- [+] [ 82]
 |   |   |   |- Guid:0A733B864C327F0B589EC8BBDD0265BC BaseClass: NativeClass:/Script/Engine.StaticMeshActor Name:StaticMeshActor_13 Label:SM_Cube9 SpatiallyLoaded:1 Bounds:IsValid=true, Min=(X=1800.000 Y=1500.000 Z=0.000), Max=(X=2000.000 Y=2200.000 Z=100.000) RuntimeGrid:None EditorOnly:0 RuntimeOnly:0 HLODRelevant:1 FolderPath:Block01 FolderGuid:7D23E5AE4C2A421F86AF6986D87E6D05
 |   |   |- [+] [ 83]
 |   |   |   |- Guid:F703AD214DE20FBE9DA411817BF79E0A BaseClass: NativeClass:/Script/Engine.StaticMeshActor Name:StaticMeshActor_21 Label:SM_QuarterCylinder3 SpatiallyLoaded:1 Bounds:IsValid=true, Min=(X=1500.000 Y=2200.000 Z=0.000), Max=(X=1600.000 Y=2300.000 Z=200.000) RuntimeGrid:None EditorOnly:0 RuntimeOnly:0 HLODRelevant:1 FolderPath:Block01 FolderGuid:7D23E5AE4C2A421F86AF6986D87E6D05
 |   |   |- [+] [ 84]
 |   |   |   |- Guid:4E9EEB77437676CA0CAD869A06C21F2B BaseClass: NativeClass:/Script/Engine.StaticMeshActor Name:StaticMeshActor_UAID_047C16546DA0857C01_1997787522 Label:SM_Cube35 SpatiallyLoaded:1 Bounds:IsValid=true, Min=(X=-16630.000 Y=28670.000 Z=-50.000), Max=(X=-8155.000 Y=43070.000 Z=0.000) RuntimeGrid:None EditorOnly:0 RuntimeOnly:0 HLODRelevant:1 FolderPath:Playground FolderGuid:C73F09FC4215536B1DCE2A9E0A830C70
 |   |   |- [+] [ 85]
 |   |   |   |- Guid:5FB1BF4B4579A1BD7F036D815A250173 BaseClass: NativeClass:/Script/Engine.StaticMeshActor Name:StaticMeshActor_UAID_047C16546DA0A07B01_1409484213 Label:SM_Cube18 SpatiallyLoaded:1 Bounds:IsValid=true, Min=(X=-8470.000 Y=-14410.000 Z=-50.000), Max=(X=5.000 Y=-10.000 Z=0.000) RuntimeGrid:None EditorOnly:0 RuntimeOnly:0 HLODRelevant:1 FolderPath:Playground FolderGuid:C73F09FC4215536B1DCE2A9E0A830C70
 |   |   |- [+] [ 86]
 |   |   |   |- Guid:2E40039044632DB2D6629FAA1BD8FB72 BaseClass: NativeClass:/Script/Engine.StaticMeshActor Name:StaticMeshActor_UAID_047C16546DA09B7C01_1637421391 Label:SM_Cube41 SpatiallyLoaded:1 Bounds:IsValid=true, Min=(X=33250.000 Y=14330.000 Z=-50.000), Max=(X=41725.000 Y=28730.000 Z=0.000) RuntimeGrid:None EditorOnly:0 RuntimeOnly:0 HLODRelevant:1 FolderPath:Playground FolderGuid:C73F09FC4215536B1DCE2A9E0A830C70
 |   |   |- [+] [ 87]
 |   |   |   |- Guid:06EC5C4743F7FB88BEF8DAB838AE1AB8 BaseClass: NativeClass:/Script/Engine.StaticMeshActor Name:StaticMeshActor_UAID_047C16546DA09B7C01_1637417386 Label:SM_Cube36 SpatiallyLoaded:1 Bounds:IsValid=true, Min=(X=24950.000 Y=28680.000 Z=-50.000), Max=(X=33425.000 Y=43080.000 Z=0.000) RuntimeGrid:None EditorOnly:0 RuntimeOnly:0 HLODRelevant:1 FolderPath:Playground FolderGuid:C73F09FC4215536B1DCE2A9E0A830C70
 |   |   |- [+] [ 88]
 |   |   |   |- Guid:245F987749D527211701459808F88372 BaseClass: NativeClass:/Script/Engine.StaticMeshActor Name:StaticMeshActor_UAID_047C16546DA0A07B01_1666058228 Label:Ramp_16 SpatiallyLoaded:1 Bounds:IsValid=true, Min=(X=9310.311 Y=780.000 Z=-34.891), Max=(X=9910.000 Y=4380.001 Z=175.000) RuntimeGrid:None EditorOnly:0 RuntimeOnly:0 HLODRelevant:1
 |   |   |- [+] [ 89]
 |   |   |   |- Guid:2F4ADA5C49FC4247E6FA37B242DC6581 BaseClass: NativeClass:/Script/Engine.StaticMeshActor Name:StaticMeshActor_UAID_047C16546DA0A07B01_1300522209 Label:Ramp_8 SpatiallyLoaded:1 Bounds:IsValid=true, Min=(X=-3209.642 Y=3559.999 Z=-99.689), Max=(X=-2520.000 Y=7160.000 Z=500.000) RuntimeGrid:None EditorOnly:0 RuntimeOnly:0 HLODRelevant:1
 |   |   |- [+] [ 90]
 |   |   |   |- Guid:BC08B79C4EA3C961CFF75EBBE83B367D BaseClass: NativeClass:/Script/Engine.StaticMeshActor Name:StaticMeshActor_5 Label:SM_Cube2 SpatiallyLoaded:1 Bounds:IsValid=true, Min=(X=0.000 Y=0.000 Z=0.000), Max=(X=8450.000 Y=100.000 Z=2000.000) RuntimeGrid:None EditorOnly:0 RuntimeOnly:0 HLODRelevant:1 FolderPath:Playground FolderGuid:C73F09FC4215536B1DCE2A9E0A830C70
 |   |   |- [+] [ 91]
 |   |   |   |- Guid:26B8C3BE41021A3F42B61FA534F9181E BaseClass: NativeClass:/Script/Engine.StaticMeshActor Name:StaticMeshActor_20 Label:SM_Cube12 SpatiallyLoaded:1 Bounds:IsValid=true, Min=(X=2500.000 Y=5560.000 Z=0.000), Max=(X=2600.000 Y=5660.000 Z=200.000) RuntimeGrid:None EditorOnly:0 RuntimeOnly:0 HLODRelevant:1 FolderPath:Block02 FolderGuid:EBA23F8248252949750E43911A3A1CDD
 |   |   |- [+] [ 92]
 |   |   |   |- Guid:B59779BD4FD993EC4C46C09A9EC09CDA BaseClass: NativeClass:/Script/Engine.StaticMeshActor Name:StaticMeshActor_UAID_047C16546DA0A07B01_1836264232 Label:Ramp_19 SpatiallyLoaded:1 Bounds:IsValid=true, Min=(X=-3870.000 Y=6929.999 Z=1805.000), Max=(X=-3090.404 Y=8830.000 Z=2794.486) RuntimeGrid:None EditorOnly:0 RuntimeOnly:0 HLODRelevant:1
 |   |   |- [+] [ 93]
 |   |   |   |- Guid:FF698C67459ADB4982D7759C0905EE9F BaseClass: NativeClass:/Script/Engine.StaticMeshActor Name:StaticMeshActor_6 Label:SM_Cube3 SpatiallyLoaded:1 Bounds:IsValid=true, Min=(X=-3420.000 Y=8780.000 Z=0.000), Max=(X=2380.000 Y=8880.000 Z=625.000) RuntimeGrid:None EditorOnly:0 RuntimeOnly:0 HLODRelevant:1 FolderPath:Playground FolderGuid:C73F09FC4215536B1DCE2A9E0A830C70
 |   |   |- [+] [ 94]
 |   |   |   |- Guid:F4AAA1CA4D204EB96E54F5BD1EB46A62 BaseClass: NativeClass:/Script/Engine.StaticMeshActor Name:StaticMeshActor_7 Label:SM_Cube7 SpatiallyLoaded:1 Bounds:IsValid=true, Min=(X=1300.000 Y=2200.000 Z=0.000), Max=(X=1500.000 Y=2300.000 Z=200.000) RuntimeGrid:None EditorOnly:0 RuntimeOnly:0 HLODRelevant:1 FolderPath:Block01 FolderGuid:7D23E5AE4C2A421F86AF6986D87E6D05
 |   |   |- [+] [ 95]
 |   |   |   |- Guid:1D6D7BA44AAE581A671F658184C8C8C2 BaseClass: NativeClass:/Script/Engine.StaticMeshActor Name:StaticMeshActor_UAID_047C16546DA0B07B01_1867653061 Label:Ramp_26 SpatiallyLoaded:1 Bounds:IsValid=true, Min=(X=4229.999 Y=3620.000 Z=2250.187), Max=(X=7830.000 Y=4099.751 Z=2610.000) RuntimeGrid:None EditorOnly:0 RuntimeOnly:0 HLODRelevant:1
 |   |   |- [+] [ 96]
 |   |   |   |- Guid:3CE5FABB4545F41BDB8D2098C16BCE5D BaseClass: NativeClass:/Script/Engine.StaticMeshActor Name:StaticMeshActor_UAID_04D4C47A62FEE86601_1795641709 Label:SM_Cube16 SpatiallyLoaded:1 Bounds:IsValid=true, Min=(X=-8470.000 Y=14320.000 Z=-50.000), Max=(X=5.000 Y=28720.000 Z=0.000) RuntimeGrid:None EditorOnly:0 RuntimeOnly:0 HLODRelevant:1 FolderPath:Playground FolderGuid:C73F09FC4215536B1DCE2A9E0A830C70
 |   |   |- [+] [ 97]
 |   |   |   |- Guid:3A00AA1C422CE54C0BDB60BAF471BFBB BaseClass: NativeClass:/Script/Engine.PlayerStart Name:PlayerStart_0 Label:PlayerStart SpatiallyLoaded:0 Bounds:IsValid=true, Min=(X=860.000 Y=1070.000 Z=0.013), Max=(X=940.000 Y=1150.000 Z=184.013) RuntimeGrid:None EditorOnly:0 RuntimeOnly:0 HLODRelevant:0
 |   |   |- [+] [ 98]
 |   |   |   |- Guid:58714174495310CABAEA36BCE40BBC36 BaseClass: NativeClass:/Script/Engine.StaticMeshActor Name:StaticMeshActor_UAID_047C16546DA0A07B01_1554860220 Label:SM_Cube22 SpatiallyLoaded:1 Bounds:IsValid=true, Min=(X=-4625.000 Y=10.000 Z=0.000), Max=(X=-4050.000 Y=8835.000 Z=2000.000) RuntimeGrid:None EditorOnly:0 RuntimeOnly:0 HLODRelevant:1 FolderPath:Playground FolderGuid:C73F09FC4215536B1DCE2A9E0A830C70
 |   |   |- [+] [ 99]
 |   |   |   |- Guid:745A095B4BA4E157E4537FA63F5B7B43 BaseClass: NativeClass:/Script/Engine.StaticMeshActor Name:StaticMeshActor_2 Label:SM_ChamferCube SpatiallyLoaded:1 Bounds:IsValid=true, Min=(X=1100.000 Y=2000.000 Z=0.013), Max=(X=1200.000 Y=2100.000 Z=100.013) RuntimeGrid:None EditorOnly:0 RuntimeOnly:0 HLODRelevant:0
 |   |   |- [+] [100]
 |   |   |   |- Guid:28077EEB4AE3CB0757E3F7BE54276A6F BaseClass: NativeClass:/Script/Engine.StaticMeshActor Name:StaticMeshActor_UAID_047C16546DA0A17B01_1508872419 Label:SM_Cube5 SpatiallyLoaded:1 Bounds:IsValid=true, Min=(X=3230.000 Y=200.000 Z=2260.000), Max=(X=7830.000 Y=3700.000 Z=2310.000) RuntimeGrid:None EditorOnly:0 RuntimeOnly:0 HLODRelevant:1 FolderPath:Playground FolderGuid:C73F09FC4215536B1DCE2A9E0A830C70
 |   |   |- [+] [101]
 |   |   |   |- Guid:6904C85841FEF6EF35629C9B539ECB18 BaseClass: NativeClass:/Script/Engine.StaticMeshActor Name:StaticMeshActor_UAID_04D4C47A62FEE16501_2116243417 Label:Ramp_3 SpatiallyLoaded:1 Bounds:IsValid=true, Min=(X=1039.999 Y=0.311 Z=-99.689), Max=(X=4640.000 Y=600.000 Z=500.000) RuntimeGrid:None EditorOnly:0 RuntimeOnly:0 HLODRelevant:1
 |   |   |- [+] [102]
 |   |   |   |- Guid:D781DC734B3285CA7E026DB1D5206A0E BaseClass: NativeClass:/Script/Engine.StaticMeshActor Name:StaticMeshActor_UAID_047C16546DA0B07B01_1867648060 Label:Ramp_25 SpatiallyLoaded:1 Bounds:IsValid=true, Min=(X=3220.000 Y=3690.000 Z=1840.000), Max=(X=4320.000 Y=4049.813 Z=2319.751) RuntimeGrid:None EditorOnly:0 RuntimeOnly:0 HLODRelevant:1
 |   |   |- [+] [103]
 |   |   |   |- Guid:B93CC9434EA6275473DC768DDCA5B576 BaseClass: NativeClass:/Script/Engine.StaticMeshActor Name:StaticMeshActor_UAID_047C16546DA09B7C01_1637420390 Label:SM_Cube40 SpatiallyLoaded:1 Bounds:IsValid=true, Min=(X=33190.000 Y=0.000 Z=-50.000), Max=(X=41665.000 Y=14400.000 Z=0.000) RuntimeGrid:None EditorOnly:0 RuntimeOnly:0 HLODRelevant:1 FolderPath:Playground FolderGuid:C73F09FC4215536B1DCE2A9E0A830C70
 |   |   |- [+] [104]
 |   |   |   |- Guid:1D0E859049A91C6F5F8A99B62B440946 BaseClass: NativeClass:/Script/Engine.StaticMeshActor Name:StaticMeshActor_UAID_047C16546DA0EE7B01_1785244940 Label:SM_Cube23 SpatiallyLoaded:1 Bounds:IsValid=true, Min=(X=3220.000 Y=3990.000 Z=680.000), Max=(X=4345.000 Y=4065.000 Z=1855.000) RuntimeGrid:None EditorOnly:0 RuntimeOnly:0 HLODRelevant:1 FolderPath:Playground FolderGuid:C73F09FC4215536B1DCE2A9E0A830C70
 |   |   |- [+] [105]
 |   |   |   |- Guid:CCEF0B024F5E556C821FF9A2A7116BE3 BaseClass: NativeClass:/Script/Engine.StaticMeshActor Name:StaticMeshActor_UAID_047C16546DA0B07B01_1946580063 Label:Ramp_28 SpatiallyLoaded:1 Bounds:IsValid=true, Min=(X=4229.999 Y=3740.000 Z=2570.000), Max=(X=7830.000 Y=4099.813 Z=3049.751) RuntimeGrid:None EditorOnly:0 RuntimeOnly:0 HLODRelevant:1
 |   |   |- [+] [106]
 |   |   |   |- Guid:AD7BB0BF4CCE7B964054C4B44DD1B704 BaseClass: NativeClass:/Script/Engine.StaticMeshActor Name:StaticMeshActor_UAID_047C16546DA03C7E01_1328351780 Label:SHZ_Parts1_ssh02_in1_rockroadEb__07 SpatiallyLoaded:1 Bounds:IsValid=true, Min=(X=-9443.693 Y=20259.634 Z=-459.193), Max=(X=-2132.670 Y=30584.345 Z=3386.844) RuntimeGrid:None EditorOnly:0 RuntimeOnly:0 HLODRelevant:1
 |- ContainerInstances:
 |- [+] MainContainer:
 |   |-        ID: 0x0000000000000000
 |   |-    Bounds: IsValid=false, Min=(X=0.000 Y=0.000 Z=0.000), Max=(X=0.000 Y=0.000 Z=0.000)
 |   |- Transform: 0.000000,0.000000,0.000000|0.000000,0.000000,-0.000000|1.000000,1.000000,1.000000
 |   |- Container: /Game/ThirdPerson/Maps/ThirdPersonMap
----------------------------------------------------------------------------------------------------------------
ThirdPersonMap - Persistent Level
----------------------------------------------------------------------------------------------------------------
Always loaded Actor Count: 116 

----------------------------------------------------------------------------------------------------------------
ThirdPersonMap - Runtime Spatial Hash - Streaming Grid - MainGrid
----------------------------------------------------------------------------------------------------------------
            Origin: X=0.000 Y=0.000 Z=0.000
         Cell Size: 12800
      World Bounds: IsValid=false, Min=(X=0.000 Y=0.000 Z=0.000), Max=(X=0.000 Y=0.000 Z=0.000)
     Loading Range: 25600.00
Block Slow Loading: No
 ClientOnlyVisible: No

[+] Grid Levels: 1
 |- Level  0: Cell Count    0 | Cell Size   12800 | Actor Count    0 (0.0%)

[+] Content of Grid Level 0

