"C:\Users\mapur\OneDrive\Desktop\UE5Sonic\ProtoSonic 5.3\Intermediate\Build\Win64\x64\ProtoSonic\Development\Core\SharedPCH.Core.Exceptions.Cpp17.cpp"
/I "."
/I "Runtime\Core\Public"
/I "Runtime\Core\Internal"
/I "Runtime\TraceLog\Public"
/external:W0
/external:I "ThirdParty\mimalloc\include"
/external:I "C:\Program Files\Microsoft Visual Studio\2022\Professional\VC\Tools\MSVC\14.35.32215\INCLUDE"
/external:I "C:\Program Files (x86)\Windows Kits\10\include\10.0.22621.0\ucrt"
/external:I "C:\Program Files (x86)\Windows Kits\10\include\10.0.22621.0\shared"
/external:I "C:\Program Files (x86)\Windows Kits\10\include\10.0.22621.0\um"
/external:I "C:\Program Files (x86)\Windows Kits\10\include\10.0.22621.0\winrt"
/Yc"C:\Users\mapur\OneDrive\Desktop\UE5Sonic\ProtoSonic 5.3\Intermediate\Build\Win64\x64\ProtoSonic\Development\Core\SharedPCH.Core.Exceptions.Cpp17.h"
/Fp"C:\Users\mapur\OneDrive\Desktop\UE5Sonic\ProtoSonic 5.3\Intermediate\Build\Win64\x64\ProtoSonic\Development\Core\SharedPCH.Core.Exceptions.Cpp17.h.pch"
/Fo"C:\Users\mapur\OneDrive\Desktop\UE5Sonic\ProtoSonic 5.3\Intermediate\Build\Win64\x64\ProtoSonic\Development\Core\SharedPCH.Core.Exceptions.Cpp17.h.obj"
/sourceDependencies "C:\Users\mapur\OneDrive\Desktop\UE5Sonic\ProtoSonic 5.3\Intermediate\Build\Win64\x64\ProtoSonic\Development\Core\SharedPCH.Core.Exceptions.Cpp17.h.dep.json"
/Zc:inline
/nologo
/Oi
/FC
/c
/Gw
/Gy
/utf-8
/wd4819
/Zc:hiddenFriend
/Zc:__cplusplus
/D_CRT_STDIO_LEGACY_WIDE_SPECIFIERS=1
/D_SILENCE_STDEXT_HASH_DEPRECATION_WARNINGS=1
/D_DISABLE_EXTENDED_ALIGNED_STORAGE
/Ob2
/Ox
/Ot
/GF
/errorReport:prompt
/EHsc
/DPLATFORM_EXCEPTIONS_DISABLED=0
/Z7
/MD
/bigobj
/fp:fast
/Zo
/Zp8
/we4668
/wd4244
/wd4838
/TP
/GR-
/W4
/std:c++17